proyectoLeon/codigo/vivadoCode/tea/dut.vcd
$date
	Sun Nov 29 23:29:50 2015
$end
$version
	Icarus Verilog
$end
$timescale
	10ps
$end
$scope module testbench $end
$var wire 32 ! A_cipher [31:0] $end
$var wire 32 " A_decipher [31:0] $end
$var wire 32 # B_cipher [31:0] $end
$var wire 32 $ B_decipher [31:0] $end
$var wire 1 % done1 $end
$var wire 1 & done2 $end
$var reg 32 ' A [31:0] $end
$var reg 32 ( B [31:0] $end
$var reg 1 ) clk $end
$var reg 32 * key0 [31:0] $end
$var reg 32 + key1 [31:0] $end
$var reg 32 , key2 [31:0] $end
$var reg 32 - key3 [31:0] $end
$var reg 1 . rst $end
$var reg 1 / start $end
$var reg 1 0 start2 $end
$scope module tea $end
$var wire 1 1 clk $end
$var wire 32 2 iK0 [31:0] $end
$var wire 32 3 iK1 [31:0] $end
$var wire 32 4 iK2 [31:0] $end
$var wire 32 5 iK3 [31:0] $end
$var wire 1 6 iStartCipher $end
$var wire 1 7 iStartDecipher $end
$var wire 32 8 iV0 [31:0] $end
$var wire 32 9 iV1 [31:0] $end
$var wire 32 : oC0 [31:0] $end
$var wire 32 ; oC1 [31:0] $end
$var wire 1 % oDoneCipher $end
$var wire 1 & oDoneDecipher $end
$var wire 32 < oV0 [31:0] $end
$var wire 32 = oV1 [31:0] $end
$var wire 1 > rst $end
$scope module cifrar $end
$var wire 1 1 clk $end
$var wire 32 ? iK0 [31:0] $end
$var wire 32 @ iK1 [31:0] $end
$var wire 32 A iK2 [31:0] $end
$var wire 32 B iK3 [31:0] $end
$var wire 1 6 iStart $end
$var wire 32 C iV0 [31:0] $end
$var wire 32 D iV1 [31:0] $end
$var wire 1 > rst $end
$var reg 32 E oC0 [31:0] $end
$var reg 32 F oC0_nxt [31:0] $end
$var reg 32 G oC1 [31:0] $end
$var reg 32 H oC1_nxt [31:0] $end
$var reg 1 I oDone $end
$var reg 1 J oDone_nxt $end
$var reg 32 K rAux1 [31:0] $end
$var reg 32 L rAux1_nxt [31:0] $end
$var reg 32 M rAux2 [31:0] $end
$var reg 32 N rAux2_nxt [31:0] $end
$var reg 32 O rAux3 [31:0] $end
$var reg 32 P rAux3_nxt [31:0] $end
$var reg 5 Q rCount [4:0] $end
$var reg 5 R rCount_nxt [4:0] $end
$var reg 4 S state [3:0] $end
$var reg 32 T sum [31:0] $end
$var reg 32 U sum_nxt [31:0] $end
$upscope $end
$scope module descifrar $end
$var wire 1 1 clk $end
$var wire 32 V iK0 [31:0] $end
$var wire 32 W iK1 [31:0] $end
$var wire 32 X iK2 [31:0] $end
$var wire 32 Y iK3 [31:0] $end
$var wire 1 7 iStart $end
$var wire 32 Z iV0 [31:0] $end
$var wire 32 [ iV1 [31:0] $end
$var wire 1 > rst $end
$var reg 32 \ oC0 [31:0] $end
$var reg 32 ] oC0_nxt [31:0] $end
$var reg 32 ^ oC1 [31:0] $end
$var reg 32 _ oC1_nxt [31:0] $end
$var reg 1 ` oDone $end
$var reg 1 a oDone_nxt $end
$var reg 32 b rAux1 [31:0] $end
$var reg 32 c rAux1_nxt [31:0] $end
$var reg 32 d rAux2 [31:0] $end
$var reg 32 e rAux2_nxt [31:0] $end
$var reg 32 f rAux3 [31:0] $end
$var reg 32 g rAux3_nxt [31:0] $end
$var reg 5 h rCount [4:0] $end
$var reg 5 i rCount_nxt [4:0] $end
$var reg 4 j state [3:0] $end
$var reg 32 k sum [31:0] $end
$var reg 32 l sum_nxt [31:0] $end
$upscope $end
$upscope $end
$upscope $end
$enddefinitions $end
#0
$dumpvars
bx l
bx k
bx j
bx i
bx h
bx g
bx f
bx e
bx d
bx c
bx b
xa
x`
bx _
bx ^
bx ]
bx \
b100011010111111100101100100001 [
b111101010001011111011110100111 Z
b1000101001100111111001000110101 Y
b110010001101011010110010111110 X
b100011010010101100101101000101 W
b10011001010101100111101000010 V
bx U
bx T
bx S
bx R
bx Q
bx P
bx O
bx N
bx M
bx L
bx K
xJ
xI
bx H
bx G
bx F
bx E
b100011010111111100101100100001 D
b111101010001011111011110100111 C
b1000101001100111111001000110101 B
b110010001101011010110010111110 A
b100011010010101100101101000101 @
b10011001010101100111101000010 ?
0>
bx =
bx <
bx ;
bx :
b100011010111111100101100100001 9
b111101010001011111011110100111 8
07
06
b1000101001100111111001000110101 5
b110010001101011010110010111110 4
b100011010010101100101101000101 3
b10011001010101100111101000010 2
01
00
0/
0.
b1000101001100111111001000110101 -
b110010001101011010110010111110 ,
b100011010010101100101101000101 +
b10011001010101100111101000010 *
0)
b100011010111111100101100100001 (
b111101010001011111011110100111 '
x&
x%
bx $
bx #
bx "
bx !
$end
#200
1.
1>
#500
0J
b0 R
b0 U
b100011010111111100101100100001 H
b111101010001011111011110100111 F
b0 P
b0 N
b0 L
0a
b0 i
b11000110111011110011011100100000 l
b100011010111111100101100100001 _
b111101010001011111011110100111 ]
b0 g
b0 e
b0 c
b0 S
0I
0%
b0 Q
b0 T
b100011010111111100101100100001 G
b100011010111111100101100100001 #
b100011010111111100101100100001 ;
b111101010001011111011110100111 E
b111101010001011111011110100111 !
b111101010001011111011110100111 :
b0 O
b0 M
b0 K
b0 j
0`
0&
b0 h
b11000110111011110011011100100000 k
b100011010111111100101100100001 ^
b100011010111111100101100100001 $
b100011010111111100101100100001 =
b111101010001011111011110100111 \
b111101010001011111011110100111 "
b111101010001011111011110100111 <
b0 f
b0 d
b0 b
1)
11
#600
0.
0>
#1000
0)
01
#1500
1)
11
#2000
0)
01
#2500
1)
11
#3000
0)
01
#3500
1)
11
#4000
0)
01
#4500
1)
11
#5000
0)
01
#5500
1)
11
#6000
0)
01
#6500
1)
11
#7000
0)
01
#7500
1)
11
#8000
0)
01
#8500
1)
11
#9000
0)
01
#9500
1)
11
#10000
0)
01
#10500
1)
11
#11000
0)
01
#11500
1)
11
#12000
0)
01
#12500
1)
11
#13000
0)
01
#13500
1)
11
#14000
0)
01
#14500
1)
11
#15000
0)
01
#15500
1)
11
#16000
0)
01
#16500
1)
11
#17000
0)
01
#17500
1)
11
#18000
0)
01
#18500
1)
11
#19000
0)
01
#19500
1)
11
#20000
0)
01
#20500
1)
11
#21000
0)
01
#21500
1)
11
#22000
0)
01
#22500
1)
11
#23000
0)
01
#23500
1)
11
#24000
0)
01
#24500
1)
11
#25000
0)
01
#25500
1)
11
#26000
0)
01
#26500
1)
11
#27000
0)
01
#27500
1)
11
#28000
0)
01
#28500
1)
11
#29000
0)
01
#29500
1)
11
#30000
0)
01
#30500
1)
11
#31000
0)
01
#31500
1)
11
#32000
0)
01
#32500
1)
11
#33000
0)
01
#33500
1)
11
#34000
0)
01
#34500
1)
11
#35000
0)
01
#35500
1)
11
#36000
0)
01
#36500
1)
11
#37000
0)
01
#37500
1)
11
#38000
0)
01
#38500
1)
11
#39000
0)
01
#39500
1)
11
#40000
0)
01
#40500
1)
11
#41000
0)
01
#41500
1)
11
#42000
0)
01
#42500
1)
11
#43000
0)
01
#43500
1)
11
#44000
0)
01
#44500
1)
11
#45000
0)
01
#45500
1)
11
#46000
0)
01
#46500
1)
11
#47000
0)
01
#47500
1)
11
#48000
0)
01
#48500
1)
11
#49000
0)
01
#49500
1)
11
#50000
0)
01
#50500
1)
11
#51000
0)
01
#51500
1)
11
#52000
0)
01
#52500
1)
11
#53000
0)
01
#53500
1)
11
#54000
0)
01
#54500
1)
11
#55000
0)
01
#55500
1)
11
#56000
0)
01
#56500
1)
11
#57000
0)
01
#57500
1)
11
#58000
0)
01
#58500
1)
11
#59000
0)
01
#59500
1)
11
#60000
0)
01
#60500
1)
11
#61000
0)
01
#61500
1)
11
#62000
0)
01
#62500
1)
11
#63000
0)
01
#63500
1)
11
#64000
0)
01
#64500
1)
11
#65000
0)
01
#65500
1)
11
#66000
0)
01
#66500
1)
11
#67000
0)
01
#67500
1)
11
#68000
0)
01
#68500
1)
11
#69000
0)
01
#69500
1)
11
#70000
0)
01
#70500
1)
11
#71000
0)
01
#71500
1)
11
#72000
0)
01
#72500
1)
11
#73000
0)
01
#73500
1)
11
#74000
0)
01
#74500
1)
11
#75000
0)
01
#75500
1)
11
#76000
0)
01
#76500
1)
11
#77000
0)
01
#77500
1)
11
#78000
0)
01
#78500
1)
11
#79000
0)
01
#79500
1)
11
#80000
0)
01
#80500
1)
11
#81000
0)
01
#81500
1)
11
#82000
0)
01
#82500
1)
11
#83000
0)
01
#83500
1)
11
#84000
0)
01
#84500
1)
11
#85000
0)
01
#85500
1)
11
#86000
0)
01
#86500
1)
11
#87000
0)
01
#87500
1)
11
#88000
0)
01
#88500
1)
11
#89000
0)
01
#89500
1)
11
#90000
0)
01
#90500
1)
11
#91000
0)
01
#91500
1)
11
#92000
0)
01
#92500
1)
11
#93000
0)
01
#93500
1)
11
#94000
0)
01
#94500
1)
11
#95000
0)
01
#95500
1)
11
#96000
0)
01
#96500
1)
11
#97000
0)
01
#97500
1)
11
#98000
0)
01
#98500
1)
11
#99000
0)
01
#99500
1)
11
#100000
0)
01
#100500
1)
11
#100600
10
16
#101000
0)
01
#101500
b10011110001101110111100110111001 U
b1 S
1)
11
#102000
0)
01
#102500
b1001001001001111000000101010010 L
b10 S
b10011110001101110111100110111001 T
1)
11
#103000
0)
01
#103500
b11000001100101110100010011011010 N
b1001001001001111000000101010010 K
b11 S
1)
11
#104000
0)
01
#104500
b100100011001011100100110011110 P
b100 S
b11000001100101110100010011011010 M
1)
11
#105000
0)
01
#105500
b10101100110101010000110000010110 P
b100100011001011100100110011110 O
b101 S
1)
11
#106000
0)
01
#106500
b11101010000110110000001110111101 F
b110 S
b10101100110101010000110000010110 O
1)
11
#107000
0)
01
#107500
b11010011111001011110100010001110 L
b11101010000110110000001110111101 E
b11101010000110110000001110111101 !
b11101010000110110000001110111101 :
b111 S
1)
11
#108000
0)
01
#108500
b10001000010100100111110101110110 N
b1000 S
b11010011111001011110100010001110 K
1)
11
#109000
0)
01
#109500
b1001100100001001100101001010010 P
b10001000010100100111110101110110 M
b1001 S
1)
11
#110000
0)
01
#110500
b10111001100110101111110101010 P
b1010 S
b1001100100001001100101001010010 O
1)
11
#111000
0)
01
#111500
b1 R
b111010100100110010101011001011 H
b10111001100110101111110101010 O
b1011 S
1)
11
#112000
0)
01
#112500
b1100 S
b1 Q
b111010100100110010101011001011 G
b111010100100110010101011001011 #
b111010100100110010101011001011 ;
1)
11
#113000
0)
01
#113500
b111100011011101111001101110010 U
b1 S
1)
11
#114000
0)
01
#114500
b10111100010111010111101111110010 L
b10 S
b111100011011101111001101110010 T
1)
11
#115000
0)
01
#115500
b1110111000000100001111000111101 N
b10111100010111010111101111110010 K
b11 S
1)
11
#116000
0)
01
#116500
b100101000111110110010010011011 P
b100 S
b1110111000000100001111000111101 M
1)
11
#117000
0)
01
#117500
b11101110010000000000000101010100 P
b100101000111110110010010011011 O
b101 S
1)
11
#118000
0)
01
#118500
b11011000010110110000010100010001 F
b110 S
b11101110010000000000000101010100 O
1)
11
#119000
0)
01
#119500
b10110111111001011111110111001110 L
b11011000010110110000010100010001 E
b11011000010110110000010100010001 !
b11011000010110110000010100010001 :
b111 S
1)
11
#120000
0)
01
#120500
b10100110010011111100010000011 N
b1000 S
b10110111111001011111110111001110 K
1)
11
#121000
0)
01
#121500
b1001011111101101100101001011101 P
b10100110010011111100010000011 M
b1001 S
1)
11
#122000
0)
01
#122500
b11101000110110101100111100010000 P
b1010 S
b1001011111101101100101001011101 O
1)
11
#123000
0)
01
#123500
b10 R
b100011011011011111100111011011 H
b11101000110110101100111100010000 O
b1011 S
1)
11
#124000
0)
01
#124500
b1100 S
b10 Q
b100011011011011111100111011011 G
b100011011011011111100111011011 #
b100011011011011111100111011011 ;
1)
11
#125000
0)
01
#125500
b11011010101001100110110100101011 U
b1 S
1)
11
#126000
0)
01
#126500
b1001010000010100110110011110010 L
b10 S
b11011010101001100110110100101011 T
1)
11
#127000
0)
01
#127500
b11111110000101000110011100000110 N
b1001010000010100110110011110010 K
b11 S
1)
11
#128000
0)
01
#128500
b100100011001100011101100010011 P
b100 S
b11111110000101000110011100000110 M
1)
11
#129000
0)
01
#129500
b10010000011110000011000011100111 P
b100100011001100011101100010011 O
b101 S
1)
11
#130000
0)
01
#130500
b1101000110100110011010111111000 F
b110 S
b10010000011110000011000011100111 O
1)
11
#131000
0)
01
#131500
b10111111011010010000110000111110 L
b1101000110100110011010111111000 E
b1101000110100110011010111111000 !
b1101000110100110011010111111000 :
b111 S
1)
11
#132000
0)
01
#132500
b1000011011110011010001100100011 N
b1000 S
b10111111011010010000110000111110 K
1)
11
#133000
0)
01
#133500
b1001000011110101000101111100100 P
b1000011011110011010001100100011 M
b1001 S
1)
11
#134000
0)
01
#134500
b10110100011010100010010011111001 P
b1010 S
b1001000011110101000101111100100 O
1)
11
#135000
0)
01
#135500
b11 R
b11010111110110000001111011010100 H
b10110100011010100010010011111001 O
b1011 S
1)
11
#136000
0)
01
#136500
b1100 S
b11 Q
b11010111110110000001111011010100 G
b11010111110110000001111011010100 #
b11010111110110000001111011010100 ;
1)
11
#137000
0)
01
#137500
b1111000110111011110011011100100 U
b1 S
1)
11
#138000
0)
01
#138500
b10010000101011001011110010000010 L
b10 S
b1111000110111011110011011100100 T
1)
11
#139000
0)
01
#139500
b1010000101101100000010110111000 N
b10010000101011001011110010000010 K
b11 S
1)
11
#140000
0)
01
#140500
b101010000010011000110000111011 P
b100 S
b1010000101101100000010110111000 M
1)
11
#141000
0)
01
#141500
b11101010000100110011010100000001 P
b101010000010011000110000111011 O
b101 S
1)
11
#142000
0)
01
#142500
b1010010111001100110101011111001 F
b110 S
b11101010000100110011010100000001 O
1)
11
#143000
0)
01
#143500
b1100000100111000101110001001110 L
b1010010111001100110101011111001 E
b1010010111001100110101011111001 !
b1010010111001100110101011111001 :
b111 S
1)
11
#144000
0)
01
#144500
b11001011110001000101000111011101 N
b1000 S
b1100000100111000101110001001110 K
1)
11
#145000
0)
01
#145500
b1000111110010110010010110001100 P
b11001011110001000101000111011101 M
b1001 S
1)
11
#146000
0)
01
#146500
b11101100100100110010100000011111 P
b1010 S
b1000111110010110010010110001100 O
1)
11
#147000
0)
01
#147500
b100 R
b11000100011010110100011011110011 H
b11101100100100110010100000011111 O
b1011 S
1)
11
#148000
0)
01
#148500
b1100 S
b100 Q
b11000100011010110100011011110011 G
b11000100011010110100011011110011 #
b11000100011010110100011011110011 ;
1)
11
#149000
0)
01
#149500
b10111000101010110000010011101 U
b1 S
1)
11
#150000
0)
01
#150500
b1011001110111110011111001110010 L
b10 S
b10111000101010110000010011101 T
1)
11
#151000
0)
01
#151500
b11011011100000001010011110010000 N
b1011001110111110011111001110010 K
b11 S
1)
11
#152000
0)
01
#152500
b101001011011100010010101111100 P
b100 S
b11011011100000001010011110010000 M
1)
11
#153000
0)
01
#153500
b10101011001100011011110010011110 P
b101001011011100010010101111100 O
b101 S
1)
11
#154000
0)
01
#154500
b11111110000110000010011110010111 F
b110 S
b10101011001100011011110010011110 O
1)
11
#155000
0)
01
#155500
b10011101110000010011000101110 L
b11111110000110000010011110010111 E
b11111110000110000010011110010111 !
b11111110000110000010011110010111 :
b111 S
1)
11
#156000
0)
01
#156500
b10101001011011000100000110100 N
b1000 S
b10011101110000010011000101110 K
1)
11
#157000
0)
01
#157500
b1001101001001001011001101110001 P
b10101001011011000100000110100 M
b1001 S
1)
11
#158000
0)
01
#158500
b1001011101100010001110101101011 P
b1010 S
b1001101001001001011001101110001 O
1)
11
#159000
0)
01
#159500
b101 R
b10000000111000110010001011110 H
b1001011101100010001110101101011 O
b1011 S
1)
11
#160000
0)
01
#160500
b1100 S
b101 Q
b10000000111000110010001011110 G
b10000000111000110010001011110 #
b10000000111000110010001011110 ;
1)
11
#161000
0)
01
#161500
b10110101010011001101101001010110 U
b1 S
1)
11
#162000
0)
01
#162500
b10100111100010001010100100010 L
b10 S
b10110101010011001101101001010110 T
1)
11
#163000
0)
01
#163500
b11000101011010010011111010110100 N
b10100111100010001010100100010 K
b11 S
1)
11
#164000
0)
01
#164500
b100011110010111010111001100111 P
b100 S
b11000101011010010011111010110100 M
1)
11
#165000
0)
01
#165500
b11110010010100111000010111110001 P
b100011110010111010111001100111 O
b101 S
1)
11
#166000
0)
01
#166500
b11110000011010111010110110001000 F
b110 S
b11110010010100111000010111110001 O
1)
11
#167000
0)
01
#167500
b111000111100001000010100111110 L
b11110000011010111010110110001000 E
b11110000011010111010110110001000 !
b11110000011010111010110110001000 :
b111 S
1)
11
#168000
0)
01
#168500
b10100101101110001000011111011110 N
b1000 S
b111000111100001000010100111110 K
1)
11
#169000
0)
01
#169500
b1001100101101110100111110100001 P
b10100101101110001000011111011110 M
b1001 S
1)
11
#170000
0)
01
#170500
b11010001111111110100110101000001 P
b1010 S
b1001100101101110100111110100001 O
1)
11
#171000
0)
01
#171500
b110 R
b11100010000110111011000110011111 H
b11010001111111110100110101000001 O
b1011 S
1)
11
#172000
0)
01
#172500
b1100 S
b110 Q
b11100010000110111011000110011111 G
b11100010000110111011000110011111 #
b11100010000110111011000110011111 ;
1)
11
#173000
0)
01
#173500
b1010011100001000101010000001111 U
b1 S
1)
11
#174000
0)
01
#174500
b110100111001011110100100110010 L
b10 S
b1010011100001000101010000001111 T
1)
11
#175000
0)
01
#175500
b110101101000000000010110101110 N
b110100111001011110100100110010 K
b11 S
1)
11
#176000
0)
01
#176500
b101010010110111010100011010001 P
b100 S
b110101101000000000010110101110 M
1)
11
#177000
0)
01
#177500
b101011000111100100010001001101 P
b101010010110111010100011010001 O
b101 S
1)
11
#178000
0)
01
#178500
b11011100010011111000111010101 F
b110 S
b101011000111100100010001001101 O
1)
11
#179000
0)
01
#179500
b11101010110101001100101000001110 L
b11011100010011111000111010101 E
b11011100010011111000111010101 !
b11011100010011111000111010101 :
b111 S
1)
11
#180000
0)
01
#180500
b1101111000011100100010111100100 N
b1000 S
b11101010110101001100101000001110 K
1)
11
#181000
0)
01
#181500
b1000110000100000100000111000011 P
b1101111000011100100010111100100 M
b1001 S
1)
11
#182000
0)
01
#182500
b11000011110010101100111000101001 P
b1010 S
b1000110000100000100000111000011 O
1)
11
#183000
0)
01
#183500
b111 R
b10100101111001100111111111001000 H
b11000011110010101100111000101001 O
b1011 S
1)
11
#184000
0)
01
#184500
b1100 S
b111 Q
b10100101111001100111111111001000 G
b10100101111001100111111111001000 #
b10100101111001100111111111001000 ;
1)
11
#185000
0)
01
#185500
b11110001101110111100110111001000 U
b1 S
1)
11
#186000
0)
01
#186500
b1110001100100101100101111000010 L
b10 S
b11110001101110111100110111001000 T
1)
11
#187000
0)
01
#187500
b10010111101000100100110110010000 N
b1110001100100101100101111000010 K
b11 S
1)
11
#188000
0)
01
#188500
b101000011110011111111101000011 P
b100 S
b10010111101000100100110110010000 M
1)
11
#189000
0)
01
#189500
b11001110010010010111100100010001 P
b101000011110011111111101000011 O
b101 S
1)
11
#190000
0)
01
#190500
b11101001110100110110101011100110 F
b110 S
b11001110010010010111100100010001 O
1)
11
#191000
0)
01
#191500
b11001111011011000101101100011110 L
b11101001110100110110101011100110 E
b11101001110100110110101011100110 !
b11101001110100110110101011100110 :
b111 S
1)
11
#192000
0)
01
#192500
b11011011100011110011100010101110 N
b1000 S
b11001111011011000101101100011110 K
1)
11
#193000
0)
01
#193500
b1001100100000101000110110001100 P
b11011011100011110011100010101110 M
b1001 S
1)
11
#194000
0)
01
#194500
b1011000011000011110111000111100 P
b1010 S
b1001100100000101000110110001100 O
1)
11
#195000
0)
01
#195500
b1000 R
b11111110010010000110111000000100 H
b1011000011000011110111000111100 O
b1011 S
1)
11
#196000
0)
01
#196500
b1100 S
b1000 Q
b11111110010010000110111000000100 G
b11111110010010000110111000000100 #
b11111110010010000110111000000100 ;
1)
11
#197000
0)
01
#197500
b10001111111100110100011110000001 U
b1 S
1)
11
#198000
0)
01
#198500
b11110111101100011010111110000010 L
b10 S
b10001111111100110100011110000001 T
1)
11
#199000
0)
01
#199500
b10001110001110111011010110000101 N
b11110111101100011010111110000010 K
b11 S
1)
11
#200000
0)
01
#200500
b101011001111010000111010110101 P
b100 S
b10001110001110111011010110000101 M
1)
11
#201000
0)
01
#201500
b1010010101101110001010010110010 P
b101011001111010000111010110101 O
b101 S
1)
11
#202000
0)
01
#202500
b111100100010100111111110011000 F
b110 S
b1010010101101110001010010110010 O
1)
11
#203000
0)
01
#203500
b11111010110111011010011000111110 L
b111100100010100111111110011000 E
b111100100010100111111110011000 !
b111100100010100111111110011000 :
b111 S
1)
11
#204000
0)
01
#204500
b11001100011111011100011100011001 N
b1000 S
b11111010110111011010011000111110 K
1)
11
#205000
0)
01
#205500
b1000111000110000100011000110001 P
b11001100011111011100011100011001 M
b1001 S
1)
11
#206000
0)
01
#206500
b1110001101110000010011100010110 P
b1010 S
b1000111000110000100011000110001 O
1)
11
#207000
0)
01
#207500
b1001 R
b1110000000000001001010100011010 H
b1110001101110000010011100010110 O
b1011 S
1)
11
#208000
0)
01
#208500
b1100 S
b1001 Q
b1110000000000001001010100011010 G
b1110000000000001001010100011010 #
b1110000000000001001010100011010 ;
1)
11
#209000
0)
01
#209500
b101110001010101100000100111010 U
b1 S
1)
11
#210000
0)
01
#210500
b10011001101000010000011100010 L
b10 S
b101110001010101100000100111010 T
1)
11
#211000
0)
01
#211500
b10011110001010110101011001010100 N
b10011001101000010000011100010 K
b11 S
1)
11
#212000
0)
01
#212500
b100110110010101100111111101101 P
b100 S
b10011110001010110101011001010100 M
1)
11
#213000
0)
01
#213500
b10101011110101011011100101011011 P
b100110110010101100111111101101 O
b101 S
1)
11
#214000
0)
01
#214500
b11101000011000000011100011110011 F
b110 S
b10101011110101011011100101011011 O
1)
11
#215000
0)
01
#215500
b10111000001110010011101111101110 L
b11101000011000000011100011110011 E
b11101000011000000011100011110011 !
b11101000011000000011100011110011 :
b111 S
1)
11
#216000
0)
01
#216500
b10110100010101111101000101101 N
b1000 S
b10111000001110010011101111101110 K
1)
11
#217000
0)
01
#217500
b1001100011101101111001111111100 P
b10110100010101111101000101101 M
b1001 S
1)
11
#218000
0)
01
#218500
b11100010110001010011001000111111 P
b1010 S
b1001100011101101111001111111100 O
1)
11
#219000
0)
01
#219500
b1010 R
b1010010110001011100011101011001 H
b11100010110001010011001000111111 O
b1011 S
1)
11
#220000
0)
01
#220500
b1100 S
b1010 Q
b1010010110001011100011101011001 G
b1010010110001011100011101011001 #
b1010010110001011100011101011001 ;
1)
11
#221000
0)
01
#221500
b11001100011000100011101011110011 U
b1 S
1)
11
#222000
0)
01
#222500
b111111100001110100010011010010 L
b10 S
b11001100011000100011101011110011 T
1)
11
#223000
0)
01
#223500
b11111001010000000001001001100 N
b111111100001110100010011010010 K
b11 S
1)
11
#224000
0)
01
#224500
b100101111000001111100101111111 P
b100 S
b11111001010000000001001001100 M
1)
11
#225000
0)
01
#225500
b101010011111011111111100001 P
b100101111000001111100101111111 O
b101 S
1)
11
#226000
0)
01
#226500
b11101101101011111111100011010100 F
b110 S
b101010011111011111111100001 O
1)
11
#227000
0)
01
#227500
b1101001101010011100111111110 L
b11101101101011111111100011010100 E
b11101101101011111111100011010100 !
b11101101101011111111100011010100 :
b111 S
1)
11
#228000
0)
01
#228500
b10111010000100100011001111000111 N
b1000 S
b1101001101010011100111111110 K
1)
11
#229000
0)
01
#229500
b1001100101000010111000111111011 P
b10111010000100100011001111000111 M
b1001 S
1)
11
#230000
0)
01
#230500
b11111011100001100111101111000010 P
b1010 S
b1001100101000010111000111111011 O
1)
11
#231000
0)
01
#231500
b1011 R
b1001110010011000100001100011011 H
b11111011100001100111101111000010 O
b1011 S
1)
11
#232000
0)
01
#232500
b1100 S
b1011 Q
b1001110010011000100001100011011 G
b1001110010011000100001100011011 #
b1001110010011000100001100011011 ;
1)
11
#233000
0)
01
#233500
b1101010100110011011010010101100 U
b1 S
1)
11
#234000
0)
01
#234500
b11110111111011110000000011110010 L
b10 S
b1101010100110011011010010101100 T
1)
11
#235000
0)
01
#235500
b10111000111001011111011111000111 N
b11110111111011110000000011110010 K
b11 S
1)
11
#236000
0)
01
#236500
b100101101111010010110101011101 P
b100 S
b10111000111001011111011111000111 M
1)
11
#237000
0)
01
#237500
b1101010101101111101101001101000 P
b100101101111010010110101011101 O
b101 S
1)
11
#238000
0)
01
#238500
b1011000011001111101001100111100 F
b110 S
b1101010101101111101101001101000 O
1)
11
#239000
0)
01
#239500
b10111000101100101110000001111110 L
b1011000011001111101001100111100 E
b1011000011001111101001100111100 !
b1011000011001111101001100111100 :
b111 S
1)
11
#240000
0)
01
#240500
b11000011000000011000011111101000 N
b1000 S
b10111000101100101110000001111110 K
1)
11
#241000
0)
01
#241500
b1000111111101110011000011001110 P
b11000011000000011000011111101000 M
b1001 S
1)
11
#242000
0)
01
#242500
b111100010001000101011101011000 P
b1010 S
b1000111111101110011000011001110 O
1)
11
#243000
0)
01
#243500
b1100 R
b10001010100100001001101001110011 H
b111100010001000101011101011000 O
b1011 S
1)
11
#244000
0)
01
#244500
b1100 S
b1100 Q
b10001010100100001001101001110011 G
b10001010100100001001101001110011 #
b10001010100100001001101001110011 ;
1)
11
#245000
0)
01
#245500
b1000110100010010111001100101 U
b1 S
1)
11
#246000
0)
01
#246500
b10111100001101000111011001110010 L
b10 S
b1000110100010010111001100101 T
1)
11
#247000
0)
01
#247500
b10010011011000011100100011011000 N
b10111100001101000111011001110010 K
b11 S
1)
11
#248000
0)
01
#248500
b100111100111110101000000011000 P
b100 S
b10010011011000011100100011011000 M
1)
11
#249000
0)
01
#249500
b1000110010101110111010110010 P
b100111100111110101000000011000 O
b101 S
1)
11
#250000
0)
01
#250500
b1100001001100101100000111101110 F
b110 S
b1000110010101110111010110010 O
1)
11
#251000
0)
01
#251500
b1000101011000011100101110011110 L
b1100001001100101100000111101110 E
b1100001001100101100000111101110 !
b1100001001100101100000111101110 :
b111 S
1)
11
#252000
0)
01
#252500
b1101010000000111111000001010011 N
b1000 S
b1000101011000011100101110011110 K
1)
11
#253000
0)
01
#253500
b1001000001111011000100001000100 P
b1101010000000111111000001010011 M
b1001 S
1)
11
#254000
0)
01
#254500
b1100111010111111011001110001001 P
b1010 S
b1001000001111011000100001000100 O
1)
11
#255000
0)
01
#255500
b1101 R
b11110001111100000100110111111100 H
b1100111010111111011001110001001 O
b1011 S
1)
11
#256000
0)
01
#256500
b1100 S
b1101 Q
b11110001111100000100110111111100 G
b11110001111100000100110111111100 #
b11110001111100000100110111111100 ;
1)
11
#257000
0)
01
#257500
b10100111000010001010100000011110 U
b1 S
1)
11
#258000
0)
01
#258500
b110010001011111010111100000010 L
b10 S
b10100111000010001010100000011110 T
1)
11
#259000
0)
01
#259500
b10011000111110001111011000011010 N
b110010001011111010111100000010 K
b11 S
1)
11
#260000
0)
01
#260500
b101010110110100100110110110100 P
b100 S
b10011000111110001111011000011010 M
1)
11
#261000
0)
01
#261500
b10000000000011010001010010101100 P
b101010110110100100110110110100 O
b101 S
1)
11
#262000
0)
01
#262500
b11100001001111111101011010011010 F
b110 S
b10000000000011010001010010101100 O
1)
11
#263000
0)
01
#263500
b1000110001100110001011001011110 L
b11100001001111111101011010011010 E
b11100001001111111101011010011010 !
b11100001001111111101011010011010 :
b111 S
1)
11
#264000
0)
01
#264500
b10001000010010000111111010111000 N
b1000 S
b1000110001100110001011001011110 K
1)
11
#265000
0)
01
#265500
b1001100001111011111000011101001 P
b10001000010010000111111010111000 M
b1001 S
1)
11
#266000
0)
01
#266500
b10000010010001101001100000001111 P
b1010 S
b1001100001111011111000011101001 O
1)
11
#267000
0)
01
#267500
b1110 R
b1110100001101101110011000001011 H
b10000010010001101001100000001111 O
b1011 S
1)
11
#268000
0)
01
#268500
b1100 S
b1110 Q
b1110100001101101110011000001011 G
b1110100001101101110011000001011 #
b1110100001101101110011000001011 ;
1)
11
#269000
0)
01
#269500
b1000101010000000010000111010111 U
b1 S
1)
11
#270000
0)
01
#270500
b1010110100110010010111111110010 L
b10 S
b1000101010000000010000111010111 T
1)
11
#271000
0)
01
#271500
b10111001011101110000011111100010 N
b1010110100110010010111111110010 K
b11 S
1)
11
#272000
0)
01
#272500
b100110111011001000001001110101 P
b100 S
b10111001011101110000011111100010 M
1)
11
#273000
0)
01
#273500
b11001001000000101010101001100101 P
b100110111011001000001001110101 O
b101 S
1)
11
#274000
0)
01
#274500
b10101010010000101000000011111111 F
b110 S
b11001001000000101010101001100101 O
1)
11
#275000
0)
01
#275500
b11010110010111011011110010101110 L
b10101010010000101000000011111111 E
b10101010010000101000000011111111 !
b10101010010000101000000011111111 :
b111 S
1)
11
#276000
0)
01
#276500
b11101111100000101010001011010110 N
b1000 S
b11010110010111011011110010101110 K
1)
11
#277000
0)
01
#277500
b1001010100001100000011000111100 P
b11101111100000101010001011010110 M
b1001 S
1)
11
#278000
0)
01
#278500
b1110011010110010001100001000100 P
b1010 S
b1001010100001100000011000111100 O
1)
11
#279000
0)
01
#279500
b1111 R
b11100111100011111111111001001111 H
b1110011010110010001100001000100 O
b1011 S
1)
11
#280000
0)
01
#280500
b1100 S
b1111 Q
b11100111100011111111111001001111 G
b11100111100011111111111001001111 #
b11100111100011111111111001001111 ;
1)
11
#281000
0)
01
#281500
b11100011011101111001101110010000 U
b1 S
1)
11
#282000
0)
01
#282500
b10001100001010101011010000110010 L
b10 S
b11100011011101111001101110010000 T
1)
11
#283000
0)
01
#283500
b11001011000001111001100111011111 N
b10001100001010101011010000110010 K
b11 S
1)
11
#284000
0)
01
#284500
b101010100001110100101100110111 P
b100 S
b11001011000001111001100111011111 M
1)
11
#285000
0)
01
#285500
b1101101101010100110011011011010 P
b101010100001110100101100110111 O
b101 S
1)
11
#286000
0)
01
