proyectoLeon/codigo/vivadoCode/tea/dut.vcd
$date
	Tue Dec  1 21:44:30 2015
$end
$version
	Icarus Verilog
$end
$timescale
	10ps
$end
$scope module testbench $end
$var wire 8 ! A_decipher [7:0] $end
$var wire 8 " B_decipher [7:0] $end
$var wire 1 # done1 $end
$var wire 2 $ oKey_address [1:0] $end
$var reg 8 % A [7:0] $end
$var reg 8 & B [7:0] $end
$var reg 1 ' clk $end
$var reg 8 ( iKey_sub_i [7:0] $end
$var reg 8 ) key0 [7:0] $end
$var reg 8 * key1 [7:0] $end
$var reg 8 + key2 [7:0] $end
$var reg 8 , key3 [7:0] $end
$var reg 1 - rst $end
$var reg 1 . start $end
$var reg 1 / start2 $end
$scope module tea $end
$var wire 1 0 clk $end
$var wire 1 1 doneKey $end
$var wire 8 2 iKey_sub_i [7:0] $end
$var wire 1 3 iStartCipher $end
$var wire 1 4 iStartDecipher $end
$var wire 8 5 iV0 [7:0] $end
$var wire 8 6 iV1 [7:0] $end
$var wire 8 7 oC0_cipher [7:0] $end
$var wire 8 8 oC0_decipher [7:0] $end
$var wire 8 9 oC1_cipher [7:0] $end
$var wire 8 : oC1_decipher [7:0] $end
$var wire 1 ; oDone_cipher $end
$var wire 1 < oDone_decipher $end
$var wire 2 = oKey_address [1:0] $end
$var wire 8 > rK0 [7:0] $end
$var wire 8 ? rK1 [7:0] $end
$var wire 8 @ rK2 [7:0] $end
$var wire 8 A rK3 [7:0] $end
$var wire 1 B rst $end
$var reg 8 C oC0 [7:0] $end
$var reg 8 D oC1 [7:0] $end
$var reg 1 E oDone $end
$scope module cifrar $end
$var wire 1 0 clk $end
$var wire 8 F iK0 [7:0] $end
$var wire 8 G iK1 [7:0] $end
$var wire 8 H iK2 [7:0] $end
$var wire 8 I iK3 [7:0] $end
$var wire 1 J iStart $end
$var wire 8 K iV0 [7:0] $end
$var wire 8 L iV1 [7:0] $end
$var wire 1 B rst $end
$var reg 8 M oC0 [7:0] $end
$var reg 8 N oC0_nxt [7:0] $end
$var reg 8 O oC1 [7:0] $end
$var reg 8 P oC1_nxt [7:0] $end
$var reg 1 Q oDone $end
$var reg 1 R oDone_nxt $end
$var reg 8 S rAux1 [7:0] $end
$var reg 8 T rAux1_nxt [7:0] $end
$var reg 8 U rAux2 [7:0] $end
$var reg 8 V rAux2_nxt [7:0] $end
$var reg 8 W rAux3 [7:0] $end
$var reg 8 X rAux3_nxt [7:0] $end
$var reg 5 Y rCount [4:0] $end
$var reg 5 Z rCount_nxt [4:0] $end
$var reg 4 [ state [3:0] $end
$var reg 8 \ sum [7:0] $end
$var reg 8 ] sum_nxt [7:0] $end
$upscope $end
$scope module descifrar $end
$var wire 1 0 clk $end
$var wire 8 ^ iK0 [7:0] $end
$var wire 8 _ iK1 [7:0] $end
$var wire 8 ` iK2 [7:0] $end
$var wire 8 a iK3 [7:0] $end
$var wire 1 b iStart $end
$var wire 8 c iV0 [7:0] $end
$var wire 8 d iV1 [7:0] $end
$var wire 1 B rst $end
$var reg 8 e oC0 [7:0] $end
$var reg 8 f oC0_nxt [7:0] $end
$var reg 8 g oC1 [7:0] $end
$var reg 8 h oC1_nxt [7:0] $end
$var reg 1 i oDone $end
$var reg 1 j oDone_nxt $end
$var reg 8 k rAux1 [7:0] $end
$var reg 8 l rAux1_nxt [7:0] $end
$var reg 8 m rAux2 [7:0] $end
$var reg 8 n rAux2_nxt [7:0] $end
$var reg 8 o rAux3 [7:0] $end
$var reg 8 p rAux3_nxt [7:0] $end
$var reg 5 q rCount [4:0] $end
$var reg 5 r rCount_nxt [4:0] $end
$var reg 4 s state [3:0] $end
$var reg 8 t sum [7:0] $end
$var reg 8 u sum_nxt [7:0] $end
$upscope $end
$scope module llave $end
$var wire 1 0 clk $end
$var wire 8 v iKey_sub_i [7:0] $end
$var wire 1 w iStart $end
$var wire 1 B rst $end
$var reg 1 x oDone $end
$var reg 1 y oDone_nxt $end
$var reg 8 z oKey0 [7:0] $end
$var reg 8 { oKey0_nxt [7:0] $end
$var reg 8 | oKey1 [7:0] $end
$var reg 8 } oKey1_nxt [7:0] $end
$var reg 8 ~ oKey2 [7:0] $end
$var reg 8 !" oKey2_nxt [7:0] $end
$var reg 8 "" oKey3 [7:0] $end
$var reg 8 #" oKey3_nxt [7:0] $end
$var reg 2 $" oKey_address [1:0] $end
$var reg 2 %" oKey_address_nxt [1:0] $end
$var reg 2 &" rCount [1:0] $end
$var reg 2 '" rCount_nxt [1:0] $end
$var reg 3 (" state [2:0] $end
$upscope $end
$upscope $end
$upscope $end
$enddefinitions $end
#0
$dumpvars
bx ("
bx '"
bx &"
bx %"
bx $"
bx #"
bx ""
bx !"
bx ~
bx }
bx |
bx {
bx z
xy
xx
0w
bx v
bx u
bx t
bx s
bx r
bx q
bx p
bx o
bx n
bx m
bx l
bx k
xj
xi
bx h
bx g
bx f
bx e
b100001 d
b10100111 c
0b
bx a
bx `
bx _
bx ^
bx ]
bx \
bx [
bx Z
bx Y
bx X
bx W
bx V
bx U
bx T
bx S
xR
xQ
bx P
bx O
bx N
bx M
b100001 L
b10100111 K
0J
bx I
bx H
bx G
bx F
xE
bx D
bx C
0B
bx A
bx @
bx ?
bx >
bx =
x<
x;
bx :
bx 9
bx 8
bx 7
b100001 6
b10100111 5
04
03
bx 2
x1
00
0/
0.
0-
b110101 ,
b10111110 +
b1000101 *
b1000010 )
bx (
0'
b100001 &
b10100111 %
bx $
x#
bx "
bx !
$end
#200
1-
1B
#500
0j
b0 r
b100000 u
b100001 h
b10100111 f
b0 p
b0 n
b0 l
0R
b0 Z
b0 ]
b100001 P
b10100111 N
b0 X
b0 V
b0 T
0y
b0 '"
b0 #"
b0 !"
b0 }
b0 {
b0 %"
b1000010 (
b1000010 2
b1000010 v
b0 [
0Q
0;
b0 Y
b0 \
b100001 O
b100001 9
b10100111 M
b10100111 7
b0 W
b0 U
b0 S
b0 s
0i
0<
b0 q
b100000 t
b100001 g
b100001 :
b10100111 e
b10100111 8
b0 o
b0 m
b0 k
b0 ("
0x
01
b0 &"
b0 ""
b0 A
b0 I
b0 a
b0 ~
b0 @
b0 H
b0 `
b0 |
b0 ?
b0 G
b0 _
b0 z
b0 >
b0 F
b0 ^
b0 $"
b0 $
b0 =
1'
10
#600
0-
0B
#1000
0'
00
#1500
1'
10
#2000
0'
00
#2500
1'
10
#3000
0'
00
#3500
1'
10
#4000
0'
00
#4500
1'
10
#5000
0'
00
#5500
1'
10
#6000
0'
00
#6500
1'
10
#7000
0'
00
#7500
1'
10
#8000
0'
00
#8500
1'
10
#9000
0'
00
#9500
1'
10
#10000
0'
00
#10500
1'
10
#11000
0'
00
#11500
1'
10
#12000
0'
00
#12500
1'
10
#13000
0'
00
#13500
1'
10
#14000
0'
00
#14500
1'
10
#15000
0'
00
#15500
1'
10
#16000
0'
00
#16500
1'
10
#17000
0'
00
#17500
1'
10
#18000
0'
00
#18500
1'
10
#19000
0'
00
#19500
1'
10
#20000
0'
00
#20500
1'
10
#21000
0'
00
#21500
1'
10
#22000
0'
00
#22500
1'
10
#23000
0'
00
#23500
1'
10
#24000
0'
00
#24500
1'
10
#25000
0'
00
#25500
1'
10
#26000
0'
00
#26500
1'
10
#27000
0'
00
#27500
1'
10
#28000
0'
00
#28500
1'
10
#29000
0'
00
#29500
1'
10
#30000
0'
00
#30500
1'
10
#31000
0'
00
#31500
1'
10
#32000
0'
00
#32500
1'
10
#33000
0'
00
#33500
1'
10
#34000
0'
00
#34500
1'
10
#35000
0'
00
#35500
1'
10
#36000
0'
00
#36500
1'
10
#37000
0'
00
#37500
1'
10
#38000
0'
00
#38500
1'
10
#39000
0'
00
#39500
1'
10
#40000
0'
00
#40500
1'
10
#41000
0'
00
#41500
1'
10
#42000
0'
00
#42500
1'
10
#43000
0'
00
#43500
1'
10
#44000
0'
00
#44500
1'
10
#45000
0'
00
#45500
1'
10
#46000
0'
00
#46500
1'
10
#47000
0'
00
#47500
1'
10
#48000
0'
00
#48500
1'
10
#49000
0'
00
#49500
1'
10
#50000
0'
00
#50500
1'
10
#51000
0'
00
#51500
1'
10
#52000
0'
00
#52500
1'
10
#53000
0'
00
#53500
1'
10
#54000
0'
00
#54500
1'
10
#55000
0'
00
#55500
1'
10
#56000
0'
00
#56500
1'
10
#57000
0'
00
#57500
1'
10
#58000
0'
00
#58500
1'
10
#59000
0'
00
#59500
1'
10
#60000
0'
00
#60500
1'
10
#61000
0'
00
#61500
1'
10
#62000
0'
00
#62500
1'
10
#63000
0'
00
#63500
1'
10
#64000
0'
00
#64500
1'
10
#65000
0'
00
#65500
1'
10
#66000
0'
00
#66500
1'
10
#67000
0'
00
#67500
1'
10
#68000
0'
00
#68500
1'
10
#69000
0'
00
#69500
1'
10
#70000
0'
00
#70500
1'
10
#71000
0'
00
#71500
1'
10
#72000
0'
00
#72500
1'
10
#73000
0'
00
#73500
1'
10
#74000
0'
00
#74500
1'
10
#75000
0'
00
#75500
1'
10
#76000
0'
00
#76500
1'
10
#77000
0'
00
#77500
1'
10
#78000
0'
00
#78500
1'
10
#79000
0'
00
#79500
1'
10
#80000
0'
00
#80500
1'
10
#81000
0'
00
#81500
1'
10
#82000
0'
00
#82500
1'
10
#83000
0'
00
#83500
1'
10
#84000
0'
00
#84500
1'
10
#85000
0'
00
#85500
1'
10
#86000
0'
00
#86500
1'
10
#87000
0'
00
#87500
1'
10
#88000
0'
00
#88500
1'
10
#89000
0'
00
#89500
1'
10
#90000
0'
00
#90500
1'
10
#91000
0'
00
#91500
1'
10
#92000
0'
00
#92500
1'
10
#93000
0'
00
#93500
1'
10
#94000
0'
00
#94500
1'
10
#95000
0'
00
#95500
1'
10
#96000
0'
00
#96500
1'
10
#97000
0'
00
#97500
1'
10
#98000
0'
00
#98500
1'
10
#99000
0'
00
#99500
1'
10
#100000
0'
00
#100500
1'
10
#100600
1w
0E
0#
b100001 D
b100001 "
b10100111 C
b10100111 !
1/
13
#101000
0'
00
#101500
b1 ("
1'
10
#102000
0'
00
#102500
b1000010 {
b10 ("
1'
10
#103000
0'
00
#103500
b1 '"
b1000010 z
b1000010 >
b1000010 F
b1000010 ^
b11 ("
1'
10
#104000
0'
00
#104500
b1 %"
b100 ("
b1 &"
1'
10
#105000
0'
00
#105500
b1000101 (
b1000101 2
b1000101 v
b1 $"
b1 $
b1 =
b1 ("
1'
10
#106000
0'
00
#106500
b1000101 }
b10 ("
1'
10
#107000
0'
00
#107500
b10 '"
b1000101 |
b1000101 ?
b1000101 G
b1000101 _
b11 ("
1'
10
#108000
0'
00
#108500
b10 %"
b100 ("
b10 &"
1'
10
#109000
0'
00
#109500
b10111110 (
b10111110 2
b10111110 v
b10 $"
b10 $
b10 =
b1 ("
1'
10
#110000
0'
00
#110500
b10111110 !"
b10 ("
1'
10
#111000
0'
00
#111500
b11 '"
b10111110 ~
b10111110 @
b10111110 H
b10111110 `
b11 ("
1'
10
#112000
0'
00
#112500
b11 %"
b100 ("
b11 &"
1'
10
#113000
0'
00
#113500
b110101 (
b110101 2
b110101 v
b11 $"
b11 $
b11 =
b1 ("
1'
10
#114000
0'
00
#114500
b110101 #"
b10 ("
1'
10
#115000
0'
00
#115500
1y
b0 '"
b110101 ""
b110101 A
b110101 I
b110101 a
b11 ("
1'
10
#116000
0'
00
#116500
1J
b0 %"
b100 ("
1x
11
b0 &"
1'
10
#117000
0'
00
#117500
b1000010 (
b1000010 2
b1000010 v
b10111001 ]
b0 $"
b0 $
b0 =
b100 ("
b1 [
1'
10
#118000
0'
00
#118500
b1010010 T
b10 [
b10111001 \
b100 ("
1'
10
#119000
0'
00
#119500
b11011010 V
b100 ("
b1010010 S
b11 [
1'
10
#120000
0'
00
#120500
b1000110 X
b100 [
b11011010 U
b100 ("
1'
10
#121000
0'
00
#121500
b11001110 X
b100 ("
b1000110 W
b101 [
1'
10
#122000
0'
00
#122500
b1110101 N
b110 [
b11001110 W
b100 ("
1'
10
#123000
0'
00
#123500
b1110101 C
b1110101 !
b1110 T
b100 ("
b1110101 M
b1110101 7
b111 [
1'
10
#124000
0'
00
#124500
b101110 V
b1000 [
b1110 S
b100 ("
1'
10
#125000
0'
00
#125500
b111000 X
b100 ("
b101110 U
b1001 [
1'
10
#126000
0'
00
#126500
b11000 X
b1010 [
b111000 W
b100 ("
1'
10
#127000
0'
00
#127500
b1 Z
b111001 P
b100 ("
b11000 W
b1011 [
1'
10
#128000
0'
00
#128500
b111001 D
b111001 "
b1100 [
b1 Y
b111001 O
b111001 9
b100 ("
1'
10
#129000
0'
00
#129500
b1110010 ]
b100 ("
b1 [
1'
10
#130000
0'
00
#130500
b11010010 T
b10 [
b1110010 \
b100 ("
1'
10
#131000
0'
00
#131500
b10101011 V
b100 ("
b11010010 S
b11 [
1'
10
#132000
0'
00
#132500
b1000110 X
b100 [
b10101011 U
b100 ("
1'
10
#133000
0'
00
#133500
b111111 X
b100 ("
b1000110 W
b101 [
1'
10
#134000
0'
00
#134500
b10110100 N
b110 [
b111111 W
b100 ("
1'
10
#135000
0'
00
#135500
b10110100 C
b10110100 !
b11111110 T
b100 ("
b10110100 M
b10110100 7
b111 [
1'
10
#136000
0'
00
#136500
b100110 V
b1000 [
b11111110 S
b100 ("
1'
10
#137000
0'
00
#137500
b111010 X
b100 ("
b100110 U
b1001 [
1'
10
#138000
0'
00
#138500
b11100010 X
b1010 [
b111010 W
b100 ("
1'
10
#139000
0'
00
#139500
b10 Z
b11011 P
b100 ("
b11100010 W
b1011 [
1'
10
#140000
0'
00
#140500
b11011 D
b11011 "
b1100 [
b10 Y
b11011 O
b11011 9
b100 ("
1'
10
#141000
0'
00
#141500
b101011 ]
b100 ("
b1 [
1'
10
#142000
0'
00
#142500
b11110010 T
b10 [
b101011 \
b100 ("
1'
10
#143000
0'
00
#143500
b1000110 V
b100 ("
b11110010 S
b11 [
1'
10
#144000
0'
00
#144500
b1000101 X
b100 [
b1000110 U
b100 ("
1'
10
#145000
0'
00
#145500
b11110001 X
b100 ("
b1000101 W
b101 [
1'
10
#146000
0'
00
#146500
b10100101 N
b110 [
b11110001 W
b100 ("
1'
10
#147000
0'
00
#147500
b10100101 C
b10100101 !
b1110 T
b100 ("
b10100101 M
b10100101 7
b111 [
1'
10
#148000
0'
00
#148500
b11010000 V
b1000 [
b1110 S
b100 ("
1'
10
#149000
0'
00
#149500
b111010 X
b100 ("
b11010000 U
b1001 [
1'
10
#150000
0'
00
#150500
b11100100 X
b1010 [
b111010 W
b100 ("
1'
10
#151000
0'
00
#151500
b11 Z
b11111111 P
b100 ("
b11100100 W
b1011 [
1'
10
#152000
0'
00
#152500
b11111111 D
b11111111 "
b1100 [
b11 Y
b11111111 O
b11111111 9
b100 ("
1'
10
#153000
0'
00
#153500
b11100100 ]
b100 ("
b1 [
1'
10
#154000
0'
00
#154500
b110010 T
b10 [
b11100100 \
b100 ("
1'
10
#155000
0'
00
#155500
b11100011 V
b100 ("
b110010 S
b11 [
1'
10
#156000
0'
00
#156500
b1001100 X
b100 [
b11100011 U
b100 ("
1'
10
#157000
0'
00
#157500
b10011101 X
b100 ("
b1001100 W
b101 [
1'
10
#158000
0'
00
#158500
b1000010 N
b110 [
b10011101 W
b100 ("
1'
10
#159000
0'
00
#159500
b1000010 C
b1000010 !
b11011110 T
b100 ("
b1000010 M
b1000010 7
b111 [
1'
10
#160000
0'
00
#160500
b100110 V
b1000 [
b11011110 S
b100 ("
1'
10
#161000
0'
00
#161500
b110111 X
b100 ("
b100110 U
b1001 [
1'
10
#162000
0'
00
#162500
b11001111 X
b1010 [
b110111 W
b100 ("
1'
10
#163000
0'
00
#163500
b100 Z
b11001110 P
b100 ("
b11001111 W
b1011 [
1'
10
#164000
0'
00
#164500
b11001110 D
b11001110 "
b1100 [
b100 Y
b11001110 O
b11001110 9
b100 ("
1'
10
#165000
0'
00
#165500
b10011101 ]
b100 ("
b1 [
1'
10
#166000
0'
00
#166500
b100010 T
b10 [
b10011101 \
b100 ("
1'
10
#167000
0'
00
#167500
b1101011 V
b100 ("
b100010 S
b11 [
1'
10
#168000
0'
00
#168500
b1001011 X
b100 [
b1101011 U
b100 ("
1'
10
#169000
0'
00
#169500
b10 X
b100 ("
b1001011 W
b101 [
1'
10
#170000
0'
00
#170500
b1000100 N
b110 [
b10 W
b100 ("
1'
10
#171000
0'
00
#171500
b1000100 C
b1000100 !
b11111110 T
b100 ("
b1000100 M
b1000100 7
b111 [
1'
10
#172000
0'
00
#172500
b11100001 V
b1000 [
b11111110 S
b100 ("
1'
10
#173000
0'
00
#173500
b110111 X
b100 ("
b11100001 U
b1001 [
1'
10
#174000
0'
00
#174500
b101000 X
b1010 [
b110111 W
b100 ("
1'
10
#175000
0'
00
#175500
b101 Z
b11110110 P
b100 ("
b101000 W
b1011 [
1'
10
#176000
0'
00
#176500
b11110110 D
b11110110 "
b1100 [
b101 Y
b11110110 O
b11110110 9
b100 ("
1'
10
#177000
0'
00
#177500
b1010110 ]
b100 ("
b1 [
1'
10
#178000
0'
00
#178500
b10100010 T
b10 [
b1010110 \
b100 ("
1'
10
#179000
0'
00
#179500
b1001100 V
b100 ("
b10100010 S
b11 [
1'
10
#180000
0'
00
#180500
b1001100 X
b100 [
b1001100 U
b100 ("
1'
10
#181000
0'
00
#181500
b10100010 X
b100 ("
b1001100 W
b101 [
1'
10
#182000
0'
00
#182500
b11100110 N
b110 [
b10100010 W
b100 ("
1'
10
#183000
0'
00
#183500
b11100110 C
b11100110 !
b11110 T
b100 ("
b11100110 M
b11100110 7
b111 [
1'
10
#184000
0'
00
#184500
b111100 V
b1000 [
b11110 S
b100 ("
1'
10
#185000
0'
00
#185500
b111100 X
b100 ("
b111100 U
b1001 [
1'
10
#186000
0'
00
#186500
b11110 X
b1010 [
b111100 W
b100 ("
1'
10
#187000
0'
00
#187500
b110 Z
b10100 P
b100 ("
b11110 W
b1011 [
1'
10
#188000
0'
00
#188500
b10100 D
b10100 "
b1100 [
b110 Y
b10100 O
b10100 9
b100 ("
1'
10
#189000
0'
00
#189500
b1111 ]
b100 ("
b1 [
1'
10
#190000
0'
00
#190500
b10000010 T
b10 [
b1111 \
b100 ("
1'
10
#191000
0'
00
#191500
b100011 V
b100 ("
b10000010 S
b11 [
1'
10
#192000
0'
00
#192500
b1000101 X
b100 [
b100011 U
b100 ("
1'
10
#193000
0'
00
#193500
b11100100 X
b100 ("
b1000101 W
b101 [
1'
10
#194000
0'
00
#194500
b11001010 N
b110 [
b11100100 W
b100 ("
1'
10
#195000
0'
00
#195500
b11001010 C
b11001010 !
b1011110 T
b100 ("
b11001010 M
b11001010 7
b111 [
1'
10
#196000
0'
00
#196500
b11011001 V
b1000 [
b1011110 S
b100 ("
1'
10
#197000
0'
00
#197500
b111011 X
b100 ("
b11011001 U
b1001 [
1'
10
#198000
0'
00
#198500
b10111100 X
b1010 [
b111011 W
b100 ("
1'
10
#199000
0'
00
#199500
b111 Z
b11010000 P
b100 ("
b10111100 W
b1011 [
1'
10
#200000
0'
00
#200500
b11010000 D
b11010000 "
b1100 [
b111 Y
b11010000 O
b11010000 9
b100 ("
1'
10
#201000
0'
00
#201500
b11001000 ]
b100 ("
b1 [
1'
10
#202000
0'
00
#202500
b1000010 T
b10 [
b11001000 \
b100 ("
1'
10
#203000
0'
00
#203500
b10011000 V
b100 ("
b1000010 S
b11 [
1'
10
#204000
0'
00
#204500
b1001011 X
b100 [
b10011000 U
b100 ("
1'
10
#205000
0'
00
#205500
b10010001 X
b100 ("
b1001011 W
b101 [
1'
10
#206000
0'
00
#206500
b1011011 N
b110 [
b10010001 W
b100 ("
1'
10
#207000
0'
00
#207500
b1011011 C
b1011011 !
b1101110 T
b100 ("
b1011011 M
b1011011 7
b111 [
1'
10
#208000
0'
00
#208500
b100011 V
b1000 [
b1101110 S
b100 ("
1'
10
#209000
0'
00
#209500
b110111 X
b100 ("
b100011 U
b1001 [
1'
10
#210000
0'
00
#210500
b1111010 X
b1010 [
b110111 W
b100 ("
1'
10
#211000
0'
00
#211500
b1000 Z
b1001010 P
b100 ("
b1111010 W
b1011 [
1'
10
#212000
0'
00
#212500
b1001010 D
b1001010 "
b1100 [
b1000 Y
b1001010 O
b1001010 9
b100 ("
1'
10
#213000
0'
00
#213500
b10000001 ]
b100 ("
b1 [
1'
10
#214000
0'
00
#214500
b11100010 T
b10 [
b10000001 \
b100 ("
1'
10
#215000
0'
00
#215500
b11001011 V
b100 ("
b11100010 S
b11 [
1'
10
#216000
0'
00
#216500
b1000111 X
b100 [
b11001011 U
b100 ("
1'
10
#217000
0'
00
#217500
b1101110 X
b100 ("
b1000111 W
b101 [
1'
10
#218000
0'
00
#218500
b11001001 N
b110 [
b1101110 W
b100 ("
1'
10
#219000
0'
00
#219500
b11001001 C
b11001001 !
b1001110 T
b100 ("
b11001001 M
b11001001 7
b111 [
1'
10
#220000
0'
00
#220500
b1001010 V
b1000 [
b1001110 S
b100 ("
1'
10
#221000
0'
00
#221500
b111011 X
b100 ("
b1001010 U
b1001 [
1'
10
#222000
0'
00
#222500
b111111 X
b1010 [
b111011 W
b100 ("
1'
10
#223000
0'
00
#223500
b1001 Z
b10001001 P
b100 ("
b111111 W
b1011 [
1'
10
#224000
0'
00
#224500
b10001001 D
b10001001 "
b1100 [
b1001 Y
b10001001 O
b10001001 9
b100 ("
1'
10
#225000
0'
00
#225500
b111010 ]
b100 ("
b1 [
1'
10
#226000
0'
00
#226500
b11010010 T
b10 [
b111010 \
b100 ("
1'
10
#227000
0'
00
#227500
b11000011 V
b100 ("
b11010010 S
b11 [
1'
10
#228000
0'
00
#228500
b1001001 X
b100 [
b11000011 U
b100 ("
1'
10
#229000
0'
00
#229500
b1011000 X
b100 ("
b1001001 W
b101 [
1'
10
#230000
0'
00
#230500
b100001 N
b110 [
b1011000 W
b100 ("
1'
10
#231000
0'
00
#231500
b100001 C
b100001 !
b11001110 T
b100 ("
b100001 M
b100001 7
b111 [
1'
10
#232000
0'
00
#232500
b1011011 V
b1000 [
b11001110 S
b100 ("
1'
10
#233000
0'
00
#233500
b110110 X
b100 ("
b1011011 U
b1001 [
1'
10
#234000
0'
00
#234500
b10100011 X
b1010 [
b110110 W
b100 ("
1'
10
#235000
0'
00
#235500
b1010 Z
b101100 P
b100 ("
b10100011 W
b1011 [
1'
10
#236000
0'
00
#236500
b101100 D
b101100 "
b1100 [
b1010 Y
b101100 O
b101100 9
b100 ("
1'
10
#237000
0'
00
#237500
b11110011 ]
b100 ("
b1 [
1'
10
#238000
0'
00
#238500
b10 T
b10 [
b11110011 \
b100 ("
1'
10
#239000
0'
00
#239500
b11111 V
b100 ("
b10 S
b11 [
1'
10
#240000
0'
00
#240500
b1000110 X
b100 [
b11111 U
b100 ("
1'
10
#241000
0'
00
#241500
b1011011 X
b100 ("
b1000110 W
b101 [
1'
10
#242000
0'
00
#242500
b1111100 N
b110 [
b1011011 W
b100 ("
1'
10
#243000
0'
00
#243500
b1111100 C
b1111100 !
b1111110 T
b100 ("
b1111100 M
b1111100 7
b111 [
1'
10
#244000
0'
00
#244500
b1101111 V
b1000 [
b1111110 S
b100 ("
1'
10
#245000
0'
00
#245500
b111000 X
b100 ("
b1101111 U
b1001 [
1'
10
#246000
0'
00
#246500
b101001 X
b1010 [
b111000 W
b100 ("
1'
10
#247000
0'
00
#247500
b1011 Z
b1010101 P
b100 ("
b101001 W
b1011 [
1'
10
#248000
0'
00
#248500
b1010101 D
b1010101 "
b1100 [
b1011 Y
b1010101 O
b1010101 9
b100 ("
1'
10
#249000
0'
00
#249500
b10101100 ]
b100 ("
b1 [
1'
10
#250000
0'
00
#250500
b10010010 T
b10 [
b10101100 \
b100 ("
1'
10
#251000
0'
00
#251500
b1 V
b100 ("
b10010010 S
b11 [
1'
10
#252000
0'
00
#252500
b1000111 X
b100 [
b1 U
b100 ("
1'
10
#253000
0'
00
#253500
b11010100 X
b100 ("
b1000111 W
b101 [
1'
10
#254000
0'
00
#254500
b1010000 N
b110 [
b11010100 W
b100 ("
1'
10
#255000
0'
00
#255500
b1010000 C
b1010000 !
b10111110 T
b100 ("
b1010000 M
b1010000 7
b111 [
1'
10
#256000
0'
00
#256500
b11111100 V
b1000 [
b10111110 S
b100 ("
1'
10
#257000
0'
00
#257500
b110111 X
b100 ("
b11111100 U
b1001 [
1'
10
#258000
0'
00
#258500
b1110101 X
b1010 [
b110111 W
b100 ("
1'
10
#259000
0'
00
#259500
b1100 Z
b11001010 P
b100 ("
b1110101 W
b1011 [
1'
10
#260000
0'
00
#260500
b11001010 D
b11001010 "
b1100 [
b1100 Y
b11001010 O
b11001010 9
b100 ("
1'
10
#261000
0'
00
#261500
b1100101 ]
b100 ("
b1 [
1'
10
#262000
0'
00
#262500
b11100010 T
b10 [
b1100101 \
b100 ("
1'
10
#263000
0'
00
#263500
b101111 V
b100 ("
b11100010 S
b11 [
1'
10
#264000
0'
00
#264500
b1001011 X
b100 [
b101111 U
b100 ("
1'
10
#265000
0'
00
#265500
b10000110 X
b100 ("
b1001011 W
b101 [
1'
10
#266000
0'
00
#266500
b11010110 N
b110 [
b10000110 W
b100 ("
1'
10
#267000
0'
00
#267500
b11010110 C
b11010110 !
b11110 T
b100 ("
b11010110 M
b11010110 7
b111 [
1'
10
#268000
0'
00
#268500
b111011 V
b1000 [
b11110 S
b100 ("
1'
10
#269000
0'
00
#269500
b111011 X
b100 ("
b111011 U
b1001 [
1'
10
#270000
0'
00
#270500
b11110 X
b1010 [
b111011 W
b100 ("
1'
10
#271000
0'
00
#271500
b1101 Z
b11101000 P
b100 ("
b11110 W
b1011 [
1'
10
#272000
0'
00
#272500
b11101000 D
b11101000 "
b1100 [
b1101 Y
b11101000 O
b11101000 9
b100 ("
1'
10
#273000
0'
00
#273500
b11110 ]
b100 ("
b1 [
1'
10
#274000
0'
00
#274500
b11000010 T
b10 [
b11110 \
b100 ("
1'
10
#275000
0'
00
#275500
b110 V
b100 ("
b11000010 S
b11 [
1'
10
#276000
0'
00
#276500
b1001100 X
b100 [
b110 U
b100 ("
1'
10
#277000
0'
00
#277500
b10001000 X
b100 ("
b1001100 W
b101 [
1'
10
#278000
0'
00
#278500
b1011110 N
b110 [
b10001000 W
b100 ("
1'
10
#279000
0'
00
#279500
b1011110 C
b1011110 !
b10011110 T
b100 ("
b1011110 M
b1011110 7
b111 [
1'
10
#280000
0'
00
#280500
b1111100 V
b1000 [
b10011110 S
b100 ("
1'
10
#281000
0'
00
#281500
b110111 X
b100 ("
b1111100 U
b1001 [
1'
10
#282000
0'
00
#282500
b11010101 X
b1010 [
b110111 W
b100 ("
1'
10
#283000
0'
00
#283500
b1110 Z
b10111101 P
b100 ("
b11010101 W
b1011 [
1'
10
#284000
0'
00
#284500
b10111101 D
b10111101 "
b1100 [
b1110 Y
b10111101 O
b10111101 9
b100 ("
1'
10
#285000
0'
00
#285500
b11010111 ]
b100 ("
b1 [
1'
10
#286000
0'
00
#286500
b10010 T
b10 [
b11010111 \
b100 ("
1'
10
#287000
0'
00
#287500
b10010100 V
b100 ("
b10010 S
b11 [
1'
10
#288000
0'
00
#288500
b1001010 X
b100 [
b10010100 U
b100 ("
1'
10
#289000
0'
00
#289500
b11001100 X
b100 ("
b1001010 W
b101 [
1'
10
#290000
0'
00
#290500
b101010 N
b110 [
b11001100 W
b100 ("
1'
10
#291000
0'
00
#291500
b101010 C
b101010 !
b1011110 T
b100 ("
b101010 M
b101010 7
b111 [
1'
10
#292000
0'
00
#292500
b1 V
b1000 [
b1011110 S
b100 ("
1'
10
#293000
0'
00
#293500
b110110 X
b100 ("
b1 U
b1001 [
1'
10
#294000
0'
00
#294500
b1101001 X
b1010 [
b110110 W
b100 ("
1'
10
#295000
0'
00
#295500
b1111 Z
b100110 P
b100 ("
b1101001 W
b1011 [
1'
10
#296000
0'
00
#296500
b100110 D
b100110 "
b1100 [
b1111 Y
b100110 O
b100110 9
b100 ("
1'
10
#297000
0'
00
#297500
b10010000 ]
b100 ("
b1 [
1'
10
#298000
0'
00
#298500
b10100010 T
b10 [
b10010000 \
b100 ("
1'
10
#299000
0'
00
#299500
b10110110 V
b100 ("
b10100010 S
b11 [
1'
10
#300000
0'
00
#300500
b1000110 X
b100 [
b10110110 U
b100 ("
1'
10
#301000
0'
00
#301500
b1010010 X
b100 ("
b1000110 W
b101 [
1'
10
#302000
0'
00
#302500
b1111100 N
b110 [
b1010010 W
b100 ("
1'
10
#303000
0'
00
#303500
b1111100 C
b1111100 !
b1111110 T
b100 ("
b1111100 M
b1111100 7
b111 [
1'
10
#304000
0'
00
#304500
b1100 V
b1000 [
b1111110 S
b100 ("
1'
10
#305000
0'
00
#305500
b111000 X
b100 ("
b1100 U
b1001 [
1'
10
#306000
0'
00
#306500
b1001010 X
b1010 [
b111000 W
b100 ("
1'
10
#307000
0'
00
#307500
b10000 Z
b1110000 P
b100 ("
b1001010 W
b1011 [
1'
10
#308000
0'
00
#308500
b1110000 D
b1110000 "
b1100 [
b10000 Y
b1110000 O
b1110000 9
b100 ("
1'
10
#309000
0'
00
#309500
b1001001 ]
b100 ("
b1 [
1'
10
#310000
0'
00
#310500
b1000010 T
b10 [
b1001001 \
b100 ("
1'
10
#311000
0'
00
#311500
b10111001 V
b100 ("
b1000010 S
b11 [
1'
10
#312000
0'
00
#312500
b1001000 X
b100 [
b10111001 U
b100 ("
1'
10
#313000
0'
00
#313500
b10110011 X
b100 ("
b1001000 W
b101 [
1'
10
#314000
0'
00
#314500
b101111 N
b110 [
b10110011 W
b100 ("
1'
10
#315000
0'
00
#315500
b101111 C
b101111 !
b10101110 T
b100 ("
b101111 M
b101111 7
b111 [
1'
10
#316000
0'
00
#316500
b1111000 V
b1000 [
b10101110 S
b100 ("
1'
10
#317000
0'
00
