proyectoLeon/codigo/rc5/version2/cipher.vcd
$date
	Sun Nov  8 23:36:52 2015
$end
$version
	Icarus Verilog
$end
$timescale
	10ps
$end
$scope module barrelShifter16 $end
$var wire 16 ! iData [15:0] $end
$var wire 1 " iDir $end
$var wire 4 # iRotate [3:0] $end
$var reg 16 $ oData [15:0] $end
$upscope $end
$scope module barrelShifter64 $end
$var wire 64 % iData [63:0] $end
$var wire 1 & iDir $end
$var wire 6 ' iRotate [5:0] $end
$var reg 64 ( oData [63:0] $end
$upscope $end
$scope module testbench $end
$var wire 32 ) A_cipher [31:0] $end
$var wire 32 * B_cipher [31:0] $end
$var wire 1 + done $end
$var reg 32 , A [31:0] $end
$var reg 32 - B [31:0] $end
$var reg 1 . clk $end
$var integer 32 / i [31:0] $end
$var reg 128 0 key [127:0] $end
$var reg 1 1 rst $end
$scope module dut $end
$var wire 2 2 L_address [1:0] $end
$var wire 32 3 L_sub_i [31:0] $end
$var wire 32 4 L_sub_i_prima [31:0] $end
$var wire 1 5 L_we $end
$var wire 5 6 S_address [4:0] $end
$var wire 5 7 S_address_expander [4:0] $end
$var wire 32 8 S_sub_i [31:0] $end
$var wire 32 9 S_sub_i_prima [31:0] $end
$var wire 1 : S_we $end
$var wire 1 ; clk $end
$var wire 32 < iA [31:0] $end
$var wire 32 = iB [31:0] $end
$var wire 32 > iS_sub_i2 [31:0] $end
$var wire 1 ? keyExpanderDone $end
$var wire 1 @ keyExpanderDone1 $end
$var wire 4 A key_address [3:0] $end
$var wire 8 B key_sub_i [7:0] $end
$var wire 32 C oA_cipher [31:0] $end
$var wire 32 D oB_cipher [31:0] $end
$var wire 1 + oDone $end
$var wire 1 E rst $end
$var wire 5 F wS_address_cipher1 [4:0] $end
$var wire 5 G wS_address_cipher2 [4:0] $end
$var wire 1 H wStartCipher $end
$scope module ff1 $end
$var wire 1 ; Clock $end
$var wire 1 ? D $end
$var wire 1 I Enable $end
$var wire 1 E Reset $end
$var reg 1 J Q $end
$upscope $end
$scope module ff2 $end
$var wire 1 ; Clock $end
$var wire 1 @ D $end
$var wire 1 K Enable $end
$var wire 1 E Reset $end
$var reg 1 L Q $end
$upscope $end
$scope module cifrador $end
$var wire 1 ; clk $end
$var wire 32 M iA [31:0] $end
$var wire 32 N iB [31:0] $end
$var wire 32 O iS_sub_i1 [31:0] $end
$var wire 32 P iS_sub_i2 [31:0] $end
$var wire 1 H iStart $end
$var wire 1 E rst $end
$var wire 32 Q wA_XOR_B_rot [31:0] $end
$var reg 32 R oA_cipher [31:0] $end
$var reg 32 S oA_cipher_nxt [31:0] $end
$var reg 32 T oB_cipher [31:0] $end
$var reg 32 U oB_cipher_nxt [31:0] $end
$var reg 1 V oDone $end
$var reg 1 W oDone_nxt $end
$var reg 5 X oS_address1 [4:0] $end
$var reg 32 Y oS_address1_nxt [31:0] $end
$var reg 5 Z oS_address2 [4:0] $end
$var reg 32 [ oS_address2_nxt [31:0] $end
$var reg 32 \ rA_XOR_B [31:0] $end
$var reg 32 ] rA_XOR_B_nxt [31:0] $end
$var reg 4 ^ rCount [3:0] $end
$var reg 4 _ rCount_nxt [3:0] $end
$var reg 5 ` rRot_value [4:0] $end
$var reg 5 a rRot_value_nxt [4:0] $end
$var reg 4 b state [3:0] $end
$scope module bar $end
$var wire 32 c iData [31:0] $end
$var wire 1 d iDir $end
$var wire 5 e iRotate [4:0] $end
$var reg 32 f oData [31:0] $end
$upscope $end
$upscope $end
$scope module expander $end
$var wire 1 ; clk $end
$var wire 8 g iKey_sub_i [7:0] $end
$var wire 32 h iL_sub_i [31:0] $end
$var wire 32 i iS_sub_i [31:0] $end
$var wire 1 ? oKeyExpanderDone $end
$var wire 4 j oKey_address [3:0] $end
$var wire 2 k oL_address [1:0] $end
$var wire 32 l oL_sub_i_prima [31:0] $end
$var wire 1 5 oL_we $end
$var wire 5 m oS_address [4:0] $end
$var wire 32 n oS_sub_i_prima [31:0] $end
$var wire 1 : oS_we $end
$var wire 1 E rst $end
$var wire 1 o start1 $end
$var wire 1 p start2 $end
$var wire 2 q wL_address1 [1:0] $end
$var wire 2 r wL_address2 [1:0] $end
$var wire 1 s wL_done $end
$var wire 32 t wL_sub_i_prima1 [31:0] $end
$var wire 32 u wL_sub_i_prima2 [31:0] $end
$var wire 1 v wL_we1 $end
$var wire 1 w wL_we2 $end
$var wire 5 x wS_address1 [4:0] $end
$var wire 5 y wS_address2 [4:0] $end
$var wire 1 z wS_done $end
$var wire 32 { wS_sub_i_prima1 [31:0] $end
$var wire 32 | wS_sub_i_prima2 [31:0] $end
$var wire 1 } wS_we1 $end
$var wire 1 ~ wS_we2 $end
$var wire 1 !" wStart $end
$scope module ff1 $end
$var wire 1 ; Clock $end
$var wire 1 o D $end
$var wire 1 "" Enable $end
$var wire 1 E Reset $end
$var reg 1 #" Q $end
$upscope $end
$scope module ff2 $end
$var wire 1 ; Clock $end
$var wire 1 p D $end
$var wire 1 $" Enable $end
$var wire 1 E Reset $end
$var reg 1 %" Q $end
$upscope $end
$scope module mixer $end
$var wire 1 ; clk $end
$var wire 32 &" iL_sub_i [31:0] $end
$var wire 32 '" iS_sub_i [31:0] $end
$var wire 1 !" iStart $end
$var wire 1 E rst $end
$var wire 32 (" wL_rotate [31:0] $end
$var reg 32 )" A [31:0] $end
$var reg 32 *" A_nxt [31:0] $end
$var reg 32 +" B [31:0] $end
$var reg 32 ," B_nxt [31:0] $end
$var reg 5 -" i [4:0] $end
$var reg 5 ." i_nxt [4:0] $end
$var reg 2 /" j [1:0] $end
$var reg 2 0" j_nxt [1:0] $end
$var reg 1 1" oDone $end
$var reg 1 2" oDone_nxt $end
$var reg 2 3" oL_address [1:0] $end
$var reg 2 4" oL_address_nxt [1:0] $end
$var reg 32 5" oL_sub_i_prima [31:0] $end
$var reg 32 6" oL_sub_i_prima_nxt [31:0] $end
$var reg 1 7" oL_we $end
$var reg 1 8" oL_we_nxt $end
$var reg 5 9" oS_address [4:0] $end
$var reg 5 :" oS_address_nxt [4:0] $end
$var reg 32 ;" oS_sub_i_prima [31:0] $end
$var reg 32 <" oS_sub_i_prima_nxt [31:0] $end
$var reg 1 =" oS_we $end
$var reg 1 >" oS_we_nxt $end
$var reg 7 ?" rCount [6:0] $end
$var reg 7 @" rCount_nxt [6:0] $end
$var reg 32 A" rSumTemp [31:0] $end
$var reg 32 B" rSumTemp_nxt [31:0] $end
$var reg 4 C" state [3:0] $end
$scope module barrel $end
$var wire 32 D" iData [31:0] $end
$var wire 1 E" iDir $end
$var wire 5 F" iRotate [4:0] $end
$var reg 32 G" oData [31:0] $end
$upscope $end
$upscope $end
$scope module S $end
$var wire 1 ; clk $end
$var wire 32 H" iS_sub_i [31:0] $end
$var wire 1 E rst $end
$var reg 1 I" oDone $end
$var reg 1 J" oDone_nxt $end
$var reg 5 K" oS_address [4:0] $end
$var reg 5 L" oS_address_nxt [4:0] $end
$var reg 32 M" oS_sub_i_prima [31:0] $end
$var reg 32 N" oS_sub_i_prima_nxt [31:0] $end
$var reg 1 O" oS_we $end
$var reg 1 P" oS_we_nxt $end
$var reg 5 Q" rCount [4:0] $end
$var reg 5 R" rCount_nxt [4:0] $end
$var reg 3 S" state [2:0] $end
$upscope $end
$scope module L $end
$var wire 32 T" L_sub_i [31:0] $end
$var wire 1 ; clk $end
$var wire 8 U" key_sub_i [7:0] $end
$var wire 1 E rst $end
$var reg 2 V" L_address [1:0] $end
$var reg 2 W" L_address_nxt [1:0] $end
$var reg 32 X" L_sub_i_prima [31:0] $end
$var reg 32 Y" L_sub_i_prima_nxt [31:0] $end
$var reg 1 Z" L_we $end
$var reg 1 [" L_we_nxt $end
$var reg 4 \" count [3:0] $end
$var reg 4 ]" count_nxt [3:0] $end
$var reg 1 ^" done $end
$var reg 1 _" done_nxt $end
$var reg 4 `" key_address [3:0] $end
$var reg 4 a" key_address_nxt [3:0] $end
$var reg 3 b" state [2:0] $end
$upscope $end
$upscope $end
$scope module S_RAM $end
$var wire 5 c" addr_a [4:0] $end
$var wire 5 d" addr_b [4:0] $end
$var wire 1 ; clk $end
$var wire 32 e" data_a [31:0] $end
$var wire 32 f" data_b [31:0] $end
$var wire 1 : we_a $end
$var wire 1 g" we_b $end
$var reg 32 h" q_a [31:0] $end
$var reg 32 i" q_b [31:0] $end
$upscope $end
$scope module key_RAM $end
$var wire 4 j" addr_a [3:0] $end
$var wire 4 k" addr_b [3:0] $end
$var wire 1 ; clk $end
$var wire 8 l" data_a [7:0] $end
$var wire 8 m" data_b [7:0] $end
$var wire 1 n" we_a $end
$var wire 1 o" we_b $end
$var reg 8 p" q_a [7:0] $end
$var reg 8 q" q_b [7:0] $end
$upscope $end
$scope module L_RAM $end
$var wire 2 r" addr_a [1:0] $end
$var wire 2 s" addr_b [1:0] $end
$var wire 1 ; clk $end
$var wire 32 t" data_a [31:0] $end
$var wire 32 u" data_b [31:0] $end
$var wire 1 5 we_a $end
$var wire 1 v" we_b $end
$var reg 32 w" q_a [31:0] $end
$var reg 32 x" q_b [31:0] $end
$upscope $end
$upscope $end
$upscope $end
$enddefinitions $end
#0
$dumpvars
bx x"
bx w"
0v"
b0 u"
bx t"
b0 s"
bx r"
bx q"
bx p"
0o"
0n"
b0 m"
b0 l"
b0 k"
bx j"
bx i"
bx h"
0g"
b0 f"
bx e"
bx d"
bx c"
bx b"
bx a"
bx `"
x_"
x^"
bx ]"
bx \"
x["
xZ"
bx Y"
bx X"
bx W"
bx V"
bx U"
bx T"
bx S"
bx R"
bx Q"
xP"
xO"
bx N"
bx M"
bx L"
bx K"
xJ"
xI"
bx H"
bx G"
bx F"
0E"
bx D"
bx C"
bx B"
bx A"
bx @"
bx ?"
x>"
x="
bx <"
bx ;"
bx :"
bx 9"
x8"
x7"
bx 6"
bx 5"
bx 4"
bx 3"
x2"
x1"
bx 0"
bx /"
bx ."
bx -"
bx ,"
bx +"
bx *"
bx )"
bx ("
bx '"
bx &"
x%"
1$"
x#"
1""
x!"
x~
x}
bx |
bx {
xz
bx y
bx x
xw
xv
bx u
bx t
xs
bx r
bx q
xp
xo
bx n
bx m
bx l
bx k
bx j
bx i
bx h
bx g
bx f
bx e
0d
bx c
bx b
bx a
bx `
bx _
bx ^
bx ]
bx \
b0xxxxx [
bx Z
b0xxxxx Y
bx X
xW
xV
bx U
bx T
bx S
bx R
bx Q
bx P
bx O
b10100 N
b1010 M
xL
1K
xJ
1I
xH
bx G
bx F
0E
bx D
bx C
bx B
bx A
x@
x?
bx >
b10100 =
b1010 <
0;
x:
bx 9
bx 8
bx 7
bx 6
x5
bx 4
bx 3
bx 2
01
b11111111111111101110111011100101100001101000010011111111111100000101111111111110010010010011100001010011000000000000010000110100 0
b10000 /
0.
b10100 -
b1010 ,
x+
bx *
bx )
bx (
bz '
z&
bz %
bx $
bz #
z"
bz !
$end
#200
11
1E
#500
b0 f
b0 Q
b0 G"
b0 ("
0W
b0 a
b0 ]
b1 _
b0 U
b1 [
b0 Y
b0 6
b0 c"
05
b0 4
b0 l
b0 t"
b0 F"
b0 2
b0 k
b0 r"
0>"
08"
b0 6"
b0 <"
02"
b0 B"
b0 ,"
b0 *"
b0 0"
b0 ."
b0 4"
b0 :"
b1111111 @"
b0 9
b0 n
b0 e"
0:
b1 R"
b0 N"
0P"
0J"
b1 L"
b0 7
b0 m
0J
0@
0L
0H
b0 b
0V
0+
b0 `
b0 e
b0 \
b0 c
b1 ^
b0 T
b0 *
b0 D
b0 R
b0 )
b0 C
b1 Z
b1 G
b1 d"
b0 X
b0 F
0#"
0p
0%"
0!"
0="
0~
07"
0w
b0 5"
b0 u
b0 D"
b0 ;"
b0 |
01"
0?
b0 A"
b0 +"
b0 )"
b0 /"
b0 -"
b0 3"
b0 r
b0 9"
b0 y
b1111111 ?"
b1 Q"
b0 M"
b0 {
0O"
0}
0I"
0z
b0 K"
b0 x
b110100 q"
b0 x"
0o
b0 Y"
b0 W"
b0 a"
0["
0_"
b1111 ]"
b0 C"
b0 S"
b0 b"
b0 X"
b0 t
b0 V"
b0 q
b0 `"
b0 A
b0 j
b0 j"
0Z"
0v
0^"
0s
b1111 \"
1.
1;
#600
01
0E
#1000
0.
0;
#1500
b1 6
b1 c"
b11 W"
b1111 a"
b1 7
b1 m
b0 L"
b0 w"
b0 3
b0 h
b0 &"
b0 T"
b110100 p"
b110100 B
b110100 g
b110100 U"
b10110111111000010101000101100011 h"
b10110111111000010101000101100011 8
b10110111111000010101000101100011 O
b10110111111000010101000101100011 i
b10110111111000010101000101100011 '"
b10110111111000010101000101100011 H"
b1 b"
b1 K"
b1 x
b1 S"
bx R
bx )
bx C
1.
1;
#2000
0.
0;
#2500
b0 6
b0 c"
b0 7
b0 m
b10 S"
b0 K"
b0 x
b10 b"
bx h"
bx 8
bx O
bx i
bx '"
bx H"
b11 2
b11 k
b11 r"
b11 V"
b11 q
b1111 `"
b1111 A
b1111 j
b1111 j"
1.
1;
#3000
0.
0;
#3500
b11111111 Y"
b1101111110000101010001011000110 N"
b1 L"
b11111111 p"
b11111111 B
b11111111 g
b11111111 U"
b10110111111000010101000101100011 h"
b10110111111000010101000101100011 8
b10110111111000010101000101100011 O
b10110111111000010101000101100011 i
b10110111111000010101000101100011 '"
b10110111111000010101000101100011 H"
b11 b"
b11 S"
1.
1;
#4000
0.
0;
#4500
b1 6
b1 c"
b1101111110000101010001011000110 9
b1101111110000101010001011000110 n
b1101111110000101010001011000110 e"
1P"
b10 R"
b1 7
b1 m
1["
b1110 ]"
b100 S"
b1101111110000101010001011000110 M"
b1101111110000101010001011000110 {
b1 K"
b1 x
b100 b"
b11111111 4
b11111111 l
b11111111 t"
b11111111 X"
b11111111 t
1.
1;
#5000
0.
0;
#5500
0["
b1110 a"
1:
0P"
bx h"
bx 8
bx O
bx i
bx '"
bx H"
b1 b"
b10 Q"
1O"
1}
b1 S"
15
b1110 ]"
1Z"
1v
b1110 \"
1.
1;
#6000
0.
0;
#6500
0:
b10 S"
0O"
0}
b10 b"
b1101111110000101010001011000110 h"
b1101111110000101010001011000110 8
b1101111110000101010001011000110 O
b1101111110000101010001011000110 i
b1101111110000101010001011000110 '"
b1101111110000101010001011000110 H"
b11111111 w"
b11111111 3
b11111111 h
b11111111 &"
b11111111 T"
05
b1110 `"
b1110 A
b1110 j
b1110 j"
0Z"
0v
1.
1;
#7000
0.
0;
#7500
b1111111111111110 Y"
b100111101000111111010000101001 N"
b10 L"
b11111110 p"
b11111110 B
b11111110 g
b11111110 U"
b1101111110000101010001011000110 i"
b1101111110000101010001011000110 >
b1101111110000101010001011000110 P
b11 b"
b11 S"
1.
1;
#8000
0.
0;
#8500
b10 6
b10 c"
b100111101000111111010000101001 9
b100111101000111111010000101001 n
b100111101000111111010000101001 e"
1P"
b11 R"
b10 7
b10 m
1["
b1101 ]"
b100 S"
b100111101000111111010000101001 M"
b100111101000111111010000101001 {
b10 K"
b10 x
b100 b"
b1111111111111110 4
b1111111111111110 l
b1111111111111110 t"
b1111111111111110 X"
b1111111111111110 t
1.
1;
#9000
0.
0;
#9500
0["
b1101 a"
1:
0P"
bx h"
bx 8
bx O
bx i
bx '"
bx H"
b1 b"
b11 Q"
1O"
1}
b1 S"
15
b1101 ]"
1Z"
1v
b1101 \"
1.
1;
#10000
0.
0;
#10500
0:
b10 S"
0O"
0}
b10 b"
b100111101000111111010000101001 h"
b100111101000111111010000101001 8
b100111101000111111010000101001 O
b100111101000111111010000101001 i
b100111101000111111010000101001 '"
b100111101000111111010000101001 H"
b1111111111111110 w"
b1111111111111110 3
b1111111111111110 h
b1111111111111110 &"
b1111111111111110 T"
05
b1101 `"
b1101 A
b1101 j
b1101 j"
0Z"
0v
1.
1;
#11000
0.
0;
#11500
b111111111111111011101110 Y"
b11011111100001010100010110001100 N"
b11 L"
b11101110 p"
b11101110 B
b11101110 g
b11101110 U"
b11 b"
b11 S"
1.
1;
#12000
0.
0;
#12500
b11 6
b11 c"
b11011111100001010100010110001100 9
b11011111100001010100010110001100 n
b11011111100001010100010110001100 e"
1P"
b100 R"
b11 7
b11 m
1["
b1100 ]"
b100 S"
b11011111100001010100010110001100 M"
b11011111100001010100010110001100 {
b11 K"
b11 x
b100 b"
b111111111111111011101110 4
b111111111111111011101110 l
b111111111111111011101110 t"
b111111111111111011101110 X"
b111111111111111011101110 t
1.
1;
#13000
0.
0;
#13500
0["
b1100 a"
1:
0P"
bx h"
bx 8
bx O
bx i
bx '"
bx H"
b1 b"
b100 Q"
1O"
1}
b1 S"
15
b1100 ]"
1Z"
1v
b1100 \"
1.
1;
#14000
0.
0;
#14500
0:
b10 S"
0O"
0}
b10 b"
b11011111100001010100010110001100 h"
b11011111100001010100010110001100 8
b11011111100001010100010110001100 O
b11011111100001010100010110001100 i
b11011111100001010100010110001100 '"
b11011111100001010100010110001100 H"
b111111111111111011101110 w"
b111111111111111011101110 3
b111111111111111011101110 h
b111111111111111011101110 &"
b111111111111111011101110 T"
05
b1100 `"
b1100 A
b1100 j
b1100 j"
0Z"
0v
1.
1;
#15000
0.
0;
#15500
b11111111111111101110111011100101 Y"
b10010111011001101001011011101111 N"
b100 L"
b11100101 p"
b11100101 B
b11100101 g
b11100101 U"
b11 b"
b11 S"
1.
1;
#16000
0.
0;
#16500
b100 6
b100 c"
b10010111011001101001011011101111 9
b10010111011001101001011011101111 n
b10010111011001101001011011101111 e"
1P"
b101 R"
b100 7
b100 m
1["
b1011 ]"
b100 S"
b10010111011001101001011011101111 M"
b10010111011001101001011011101111 {
b100 K"
b100 x
b100 b"
b11111111111111101110111011100101 4
b11111111111111101110111011100101 l
b11111111111111101110111011100101 t"
b11111111111111101110111011100101 X"
b11111111111111101110111011100101 t
1.
1;
#17000
0.
0;
#17500
0["
b10 W"
b1011 a"
1:
0P"
bx h"
bx 8
bx O
bx i
bx '"
bx H"
b1 b"
b101 Q"
1O"
1}
b1 S"
15
b1011 ]"
1Z"
1v
b1011 \"
1.
1;
#18000
0.
0;
#18500
0:
b10 S"
0O"
0}
b10 b"
b10010111011001101001011011101111 h"
b10010111011001101001011011101111 8
b10010111011001101001011011101111 O
b10010111011001101001011011101111 i
b10010111011001101001011011101111 '"
b10010111011001101001011011101111 H"
b11111111111111101110111011100101 w"
b11111111111111101110111011100101 3
b11111111111111101110111011100101 h
b11111111111111101110111011100101 &"
b11111111111111101110111011100101 T"
b10 2
b10 k
b10 r"
05
b10 V"
b10 q
b1011 `"
b1011 A
b1011 j
b1011 j"
0Z"
0v
1.
1;
#19000
0.
0;
#19500
b10000110 Y"
b1001111010001111110100001010010 N"
b101 L"
b0 w"
b0 3
b0 h
b0 &"
b0 T"
b10000110 p"
b10000110 B
b10000110 g
b10000110 U"
b11 b"
b11 S"
1.
1;
#20000
0.
0;
#20500
b101 6
b101 c"
b1001111010001111110100001010010 9
b1001111010001111110100001010010 n
b1001111010001111110100001010010 e"
1P"
b110 R"
b101 7
b101 m
1["
b1010 ]"
b100 S"
b1001111010001111110100001010010 M"
b1001111010001111110100001010010 {
b101 K"
b101 x
b100 b"
b10000110 4
b10000110 l
b10000110 t"
b10000110 X"
b10000110 t
1.
1;
#21000
0.
0;
#21500
0["
b1010 a"
1:
0P"
bx h"
bx 8
bx O
bx i
bx '"
bx H"
b1 b"
b110 Q"
1O"
1}
b1 S"
15
b1010 ]"
1Z"
1v
b1010 \"
1.
1;
#22000
0.
0;
#22500
0:
b10 S"
0O"
0}
b10 b"
b1001111010001111110100001010010 h"
b1001111010001111110100001010010 8
b1001111010001111110100001010010 O
b1001111010001111110100001010010 i
b1001111010001111110100001010010 '"
b1001111010001111110100001010010 H"
b10000110 w"
b10000110 3
b10000110 h
b10000110 &"
b10000110 T"
05
b1010 `"
b1010 A
b1010 j
b1010 j"
0Z"
0v
1.
1;
#23000
0.
0;
#23500
b1000011010000100 Y"
b111001010010011100110110101 N"
b110 L"
b10000100 p"
b10000100 B
b10000100 g
b10000100 U"
b11 b"
b11 S"
1.
1;
#24000
0.
0;
#24500
b110 6
b110 c"
b111001010010011100110110101 9
b111001010010011100110110101 n
b111001010010011100110110101 e"
1P"
b111 R"
b110 7
b110 m
1["
b1001 ]"
b100 S"
b111001010010011100110110101 M"
b111001010010011100110110101 {
b110 K"
b110 x
b100 b"
b1000011010000100 4
b1000011010000100 l
b1000011010000100 t"
b1000011010000100 X"
b1000011010000100 t
1.
1;
#25000
0.
0;
#25500
0["
b1001 a"
1:
0P"
bx h"
bx 8
bx O
bx i
bx '"
bx H"
b1 b"
b111 Q"
1O"
1}
b1 S"
15
b1001 ]"
1Z"
1v
b1001 \"
1.
1;
#26000
0.
0;
#26500
0:
b10 S"
0O"
0}
b10 b"
b111001010010011100110110101 h"
b111001010010011100110110101 8
b111001010010011100110110101 O
b111001010010011100110110101 i
b111001010010011100110110101 '"
b111001010010011100110110101 H"
b1000011010000100 w"
b1000011010000100 3
b1000011010000100 h
b1000011010000100 &"
b1000011010000100 T"
05
b1001 `"
b1001 A
b1001 j
b1001 j"
0Z"
0v
1.
1;
#27000
0.
0;
#27500
b100001101000010011111111 Y"
b10111111000010101000101100011000 N"
b111 L"
b11111111 p"
b11111111 B
b11111111 g
b11111111 U"
b11 b"
b11 S"
1.
1;
#28000
0.
0;
#28500
b111 6
b111 c"
b10111111000010101000101100011000 9
b10111111000010101000101100011000 n
b10111111000010101000101100011000 e"
1P"
b1000 R"
b111 7
b111 m
1["
b1000 ]"
b100 S"
b10111111000010101000101100011000 M"
b10111111000010101000101100011000 {
b111 K"
b111 x
b100 b"
b100001101000010011111111 4
b100001101000010011111111 l
b100001101000010011111111 t"
b100001101000010011111111 X"
b100001101000010011111111 t
1.
1;
#29000
0.
0;
#29500
0["
b1000 a"
1:
0P"
bx h"
bx 8
bx O
bx i
bx '"
bx H"
b1 b"
b1000 Q"
1O"
1}
b1 S"
15
b1000 ]"
1Z"
1v
b1000 \"
1.
1;
#30000
0.
0;
#30500
0:
b10 S"
0O"
0}
b10 b"
b10111111000010101000101100011000 h"
b10111111000010101000101100011000 8
b10111111000010101000101100011000 O
b10111111000010101000101100011000 i
b10111111000010101000101100011000 '"
b10111111000010101000101100011000 H"
b100001101000010011111111 w"
b100001101000010011111111 3
b100001101000010011111111 h
b100001101000010011111111 &"
b100001101000010011111111 T"
05
b1000 `"
b1000 A
b1000 j
b1000 j"
0Z"
0v
1.
1;
#31000
0.
0;
#31500
b10000110100001001111111111110000 Y"
b1110110111010111101110001111011 N"
b1000 L"
b11110000 p"
b11110000 B
b11110000 g
b11110000 U"
b11 b"
b11 S"
1.
1;
#32000
0.
0;
#32500
b1000 6
b1000 c"
b1110110111010111101110001111011 9
b1110110111010111101110001111011 n
b1110110111010111101110001111011 e"
1P"
b1001 R"
b1000 7
b1000 m
1["
b111 ]"
b100 S"
b1110110111010111101110001111011 M"
b1110110111010111101110001111011 {
b1000 K"
b1000 x
b100 b"
b10000110100001001111111111110000 4
b10000110100001001111111111110000 l
b10000110100001001111111111110000 t"
b10000110100001001111111111110000 X"
b10000110100001001111111111110000 t
1.
1;
#33000
0.
0;
#33500
0["
b1 W"
b111 a"
1:
0P"
bx h"
bx 8
bx O
bx i
bx '"
bx H"
b1 b"
b1001 Q"
1O"
1}
b1 S"
15
b111 ]"
1Z"
1v
b111 \"
1.
1;
#34000
0.
0;
#34500
0:
b10 S"
0O"
0}
b10 b"
b1110110111010111101110001111011 h"
b1110110111010111101110001111011 8
b1110110111010111101110001111011 O
b1110110111010111101110001111011 i
b1110110111010111101110001111011 '"
b1110110111010111101110001111011 H"
b10000110100001001111111111110000 w"
b10000110100001001111111111110000 3
b10000110100001001111111111110000 h
b10000110100001001111111111110000 &"
b10000110100001001111111111110000 T"
b1 2
b1 k
b1 r"
05
b1 V"
b1 q
b111 `"
b111 A
b111 j
b111 j"
0Z"
0v
1.
1;
#35000
0.
0;
#35500
b1011111 Y"
b101110110011010010110111011110 N"
b1001 L"
b0 w"
b0 3
b0 h
b0 &"
b0 T"
b1011111 p"
b1011111 B
b1011111 g
b1011111 U"
b11 b"
b11 S"
1.
1;
#36000
0.
0;
#36500
b1001 6
b1001 c"
b101110110011010010110111011110 9
b101110110011010010110111011110 n
b101110110011010010110111011110 e"
1P"
b1010 R"
b1001 7
b1001 m
1["
b110 ]"
b100 S"
b101110110011010010110111011110 M"
b101110110011010010110111011110 {
b1001 K"
b1001 x
b100 b"
b1011111 4
b1011111 l
b1011111 t"
b1011111 X"
b1011111 t
1.
1;
#37000
0.
0;
#37500
0["
b110 a"
1:
0P"
bx h"
bx 8
bx O
bx i
bx '"
bx H"
b1 b"
b1010 Q"
1O"
1}
b1 S"
15
b110 ]"
1Z"
1v
b110 \"
1.
1;
#38000
0.
0;
#38500
0:
b10 S"
0O"
0}
b10 b"
b101110110011010010110111011110 h"
b101110110011010010110111011110 8
b101110110011010010110111011110 O
b101110110011010010110111011110 i
b101110110011010010110111011110 '"
b101110110011010010110111011110 H"
b1011111 w"
b1011111 3
b1011111 h
b1011111 &"
b1011111 T"
05
b110 `"
b110 A
b110 j
b110 j"
0Z"
0v
1.
1;
#39000
0.
0;
#39500
b101111111111110 Y"
b11100110101011100111111101000001 N"
b1010 L"
b11111110 p"
b11111110 B
b11111110 g
b11111110 U"
b11 b"
b11 S"
1.
1;
#40000
0.
0;
#40500
b1010 6
b1010 c"
b11100110101011100111111101000001 9
b11100110101011100111111101000001 n
b11100110101011100111111101000001 e"
1P"
b1011 R"
b1010 7
b1010 m
1["
b101 ]"
b100 S"
b11100110101011100111111101000001 M"
b11100110101011100111111101000001 {
b1010 K"
b1010 x
b100 b"
b101111111111110 4
b101111111111110 l
b101111111111110 t"
b101111111111110 X"
b101111111111110 t
1.
1;
#41000
0.
0;
#41500
0["
b101 a"
1:
0P"
bx h"
bx 8
bx O
bx i
bx '"
bx H"
b1 b"
b1011 Q"
1O"
1}
b1 S"
15
b101 ]"
1Z"
1v
b101 \"
1.
1;
#42000
0.
0;
#42500
0:
b10 S"
0O"
0}
b10 b"
b11100110101011100111111101000001 h"
b11100110101011100111111101000001 8
b11100110101011100111111101000001 O
b11100110101011100111111101000001 i
b11100110101011100111111101000001 '"
b11100110101011100111111101000001 H"
b101111111111110 w"
b101111111111110 3
b101111111111110 h
b101111111111110 &"
b101111111111110 T"
05
b101 `"
b101 A
b101 j
b101 j"
0Z"
0v
1.
1;
#43000
0.
0;
#43500
b10111111111111001001001 Y"
b10011110100011111101000010100100 N"
b1011 L"
b1001001 p"
b1001001 B
b1001001 g
b1001001 U"
b11 b"
b11 S"
1.
1;
#44000
0.
0;
#44500
b1011 6
b1011 c"
b10011110100011111101000010100100 9
b10011110100011111101000010100100 n
b10011110100011111101000010100100 e"
1P"
b1100 R"
b1011 7
b1011 m
1["
b100 ]"
b100 S"
b10011110100011111101000010100100 M"
b10011110100011111101000010100100 {
b1011 K"
b1011 x
b100 b"
b10111111111111001001001 4
b10111111111111001001001 l
b10111111111111001001001 t"
b10111111111111001001001 X"
b10111111111111001001001 t
1.
1;
#45000
0.
0;
#45500
0["
b100 a"
1:
0P"
bx h"
bx 8
bx O
bx i
bx '"
bx H"
b1 b"
b1100 Q"
1O"
1}
b1 S"
15
b100 ]"
1Z"
1v
b100 \"
1.
1;
#46000
0.
0;
#46500
0:
b10 S"
0O"
0}
b10 b"
b10011110100011111101000010100100 h"
b10011110100011111101000010100100 8
b10011110100011111101000010100100 O
b10011110100011111101000010100100 i
b10011110100011111101000010100100 '"
b10011110100011111101000010100100 H"
b10111111111111001001001 w"
b10111111111111001001001 3
b10111111111111001001001 h
b10111111111111001001001 &"
b10111111111111001001001 T"
05
b100 `"
b100 A
b100 j
b100 j"
0Z"
0v
1.
1;
#47000
0.
0;
#47500
b1011111111111100100100100111000 Y"
b1010110011100010010001000000111 N"
b1100 L"
b111000 p"
b111000 B
b111000 g
b111000 U"
b11 b"
b11 S"
1.
1;
#48000
0.
0;
#48500
b1100 6
b1100 c"
b1010110011100010010001000000111 9
b1010110011100010010001000000111 n
b1010110011100010010001000000111 e"
1P"
b1101 R"
b1100 7
b1100 m
1["
b11 ]"
b100 S"
b1010110011100010010001000000111 M"
b1010110011100010010001000000111 {
b1100 K"
b1100 x
b100 b"
b1011111111111100100100100111000 4
b1011111111111100100100100111000 l
b1011111111111100100100100111000 t"
b1011111111111100100100100111000 X"
b1011111111111100100100100111000 t
1.
1;
#49000
0.
0;
#49500
0["
b0 W"
b11 a"
1:
0P"
bx h"
bx 8
bx O
bx i
bx '"
bx H"
b1 b"
b1101 Q"
1O"
1}
b1 S"
15
b11 ]"
1Z"
1v
b11 \"
1.
1;
#50000
0.
0;
#50500
0:
b10 S"
0O"
0}
b10 b"
b1010110011100010010001000000111 h"
b1010110011100010010001000000111 8
b1010110011100010010001000000111 O
b1010110011100010010001000000111 i
b1010110011100010010001000000111 '"
b1010110011100010010001000000111 H"
b1011111111111100100100100111000 w"
b1011111111111100100100100111000 3
b1011111111111100100100100111000 h
b1011111111111100100100100111000 &"
b1011111111111100100100100111000 T"
b0 2
b0 k
b0 r"
05
b0 V"
b0 q
b11 `"
b11 A
b11 j
b11 j"
0Z"
0v
1.
1;
#51000
0.
0;
#51500
b1010011 Y"
b1110010100100111001101101010 N"
b1101 L"
b0 w"
b0 3
b0 h
b0 &"
b0 T"
b1010011 p"
b1010011 B
b1010011 g
b1010011 U"
b11 b"
b11 S"
1.
1;
#52000
0.
0;
