proyectoLeon/codigo/rc5/version2/decipher.vcd
$date
	Mon Nov 23 23:52:33 2015
$end
$version
	Icarus Verilog
$end
$timescale
	10ps
$end
$scope module testbench $end
$var wire 64 ! A_decipher [63:0] $end
$var wire 64 " B_decipher [63:0] $end
$var wire 1 # done $end
$var reg 64 $ A [63:0] $end
$var reg 64 % B [63:0] $end
$var reg 1 & clk $end
$var integer 32 ' i [31:0] $end
$var reg 128 ( key [127:0] $end
$var reg 1 ) rst $end
$scope module dut $end
$var wire 1 * L_address $end
$var wire 64 + L_sub_i [63:0] $end
$var wire 64 , L_sub_i_prima [63:0] $end
$var wire 1 - L_we $end
$var wire 5 . S_address [4:0] $end
$var wire 5 / S_address_expander [4:0] $end
$var wire 64 0 S_sub_i [63:0] $end
$var wire 64 1 S_sub_i_prima [63:0] $end
$var wire 1 2 S_we $end
$var wire 1 3 cipherDone $end
$var wire 1 4 cipherDone1 $end
$var wire 1 5 clk $end
$var wire 64 6 iA [63:0] $end
$var wire 64 7 iB [63:0] $end
$var wire 64 8 iS_sub_i2 [63:0] $end
$var wire 1 9 keyExpanderDone $end
$var wire 1 : keyExpanderDone1 $end
$var wire 4 ; key_address [3:0] $end
$var wire 8 < key_sub_i [7:0] $end
$var wire 64 = oA_cipher [63:0] $end
$var wire 64 > oA_decipher [63:0] $end
$var wire 64 ? oB_cipher [63:0] $end
$var wire 64 @ oB_decipher [63:0] $end
$var wire 1 # oDone $end
$var wire 1 A rst $end
$var wire 5 B wS_address2 [4:0] $end
$var wire 5 C wS_address_cipher [4:0] $end
$var wire 5 D wS_address_cipher1 [4:0] $end
$var wire 5 E wS_address_cipher2 [4:0] $end
$var wire 5 F wS_address_decipher1 [4:0] $end
$var wire 5 G wS_address_decipher2 [4:0] $end
$var wire 1 H wStartCipher $end
$var wire 1 I wStartDecipher $end
$scope module ff1 $end
$var wire 1 5 Clock $end
$var wire 1 9 D $end
$var wire 1 J Enable $end
$var wire 1 A Reset $end
$var reg 1 K Q $end
$upscope $end
$scope module ff2 $end
$var wire 1 5 Clock $end
$var wire 1 : D $end
$var wire 1 L Enable $end
$var wire 1 A Reset $end
$var reg 1 M Q $end
$upscope $end
$scope module ff3 $end
$var wire 1 5 Clock $end
$var wire 1 3 D $end
$var wire 1 N Enable $end
$var wire 1 A Reset $end
$var reg 1 O Q $end
$upscope $end
$scope module ff4 $end
$var wire 1 5 Clock $end
$var wire 1 4 D $end
$var wire 1 P Enable $end
$var wire 1 A Reset $end
$var reg 1 Q Q $end
$upscope $end
$scope module descifrador $end
$var wire 1 5 clk $end
$var wire 64 R iA [63:0] $end
$var wire 64 S iB [63:0] $end
$var wire 64 T iS_sub_i1 [63:0] $end
$var wire 64 U iS_sub_i2 [63:0] $end
$var wire 1 I iStart $end
$var wire 1 A rst $end
$var wire 64 V wAorB_rot [63:0] $end
$var reg 64 W oA_decipher [63:0] $end
$var reg 64 X oA_decipher_nxt [63:0] $end
$var reg 64 Y oB_decipher [63:0] $end
$var reg 64 Z oB_decipher_nxt [63:0] $end
$var reg 1 [ oDone $end
$var reg 1 \ oDone_nxt $end
$var reg 5 ] oS_address1 [4:0] $end
$var reg 64 ^ oS_address1_nxt [63:0] $end
$var reg 5 _ oS_address2 [4:0] $end
$var reg 64 ` oS_address2_nxt [63:0] $end
$var reg 64 a rAorB [63:0] $end
$var reg 64 b rAorB_nxt [63:0] $end
$var reg 4 c rCount [3:0] $end
$var reg 4 d rCount_nxt [3:0] $end
$var reg 6 e rRot_value [5:0] $end
$var reg 6 f rRot_value_nxt [5:0] $end
$var reg 4 g state [3:0] $end
$scope module bar $end
$var wire 64 h iData [63:0] $end
$var wire 1 i iDir $end
$var wire 6 j iRotate [5:0] $end
$var reg 64 k oData [63:0] $end
$upscope $end
$upscope $end
$scope module cifrador $end
$var wire 1 5 clk $end
$var wire 64 l iA [63:0] $end
$var wire 64 m iB [63:0] $end
$var wire 64 n iS_sub_i1 [63:0] $end
$var wire 64 o iS_sub_i2 [63:0] $end
$var wire 1 H iStart $end
$var wire 1 A rst $end
$var wire 64 p wA_XOR_B_rot [63:0] $end
$var reg 64 q oA_cipher [63:0] $end
$var reg 64 r oA_cipher_nxt [63:0] $end
$var reg 64 s oB_cipher [63:0] $end
$var reg 64 t oB_cipher_nxt [63:0] $end
$var reg 1 u oDone $end
$var reg 1 v oDone_nxt $end
$var reg 5 w oS_address1 [4:0] $end
$var reg 64 x oS_address1_nxt [63:0] $end
$var reg 5 y oS_address2 [4:0] $end
$var reg 64 z oS_address2_nxt [63:0] $end
$var reg 64 { rA_XOR_B [63:0] $end
$var reg 64 | rA_XOR_B_nxt [63:0] $end
$var reg 4 } rCount [3:0] $end
$var reg 4 ~ rCount_nxt [3:0] $end
$var reg 6 !" rRot_value [5:0] $end
$var reg 6 "" rRot_value_nxt [5:0] $end
$var reg 4 #" state [3:0] $end
$scope module bar $end
$var wire 64 $" iData [63:0] $end
$var wire 1 %" iDir $end
$var wire 6 &" iRotate [5:0] $end
$var reg 64 '" oData [63:0] $end
$upscope $end
$upscope $end
$scope module expander $end
$var wire 1 5 clk $end
$var wire 8 (" iKey_sub_i [7:0] $end
$var wire 64 )" iL_sub_i [63:0] $end
$var wire 64 *" iS_sub_i [63:0] $end
$var wire 1 9 oKeyExpanderDone $end
$var wire 4 +" oKey_address [3:0] $end
$var wire 1 * oL_address $end
$var wire 64 ," oL_sub_i_prima [63:0] $end
$var wire 1 - oL_we $end
$var wire 5 -" oS_address [4:0] $end
$var wire 64 ." oS_sub_i_prima [63:0] $end
$var wire 1 2 oS_we $end
$var wire 1 A rst $end
$var wire 1 /" start1 $end
$var wire 1 0" start2 $end
$var wire 1 1" wL_address1 $end
$var wire 1 2" wL_address2 $end
$var wire 1 3" wL_done $end
$var wire 64 4" wL_sub_i_prima1 [63:0] $end
$var wire 64 5" wL_sub_i_prima2 [63:0] $end
$var wire 1 6" wL_we1 $end
$var wire 1 7" wL_we2 $end
$var wire 5 8" wS_address1 [4:0] $end
$var wire 5 9" wS_address2 [4:0] $end
$var wire 1 :" wS_done $end
$var wire 64 ;" wS_sub_i_prima1 [63:0] $end
$var wire 64 <" wS_sub_i_prima2 [63:0] $end
$var wire 1 =" wS_we1 $end
$var wire 1 >" wS_we2 $end
$var wire 1 ?" wStart $end
$scope module ff1 $end
$var wire 1 5 Clock $end
$var wire 1 /" D $end
$var wire 1 @" Enable $end
$var wire 1 A Reset $end
$var reg 1 A" Q $end
$upscope $end
$scope module ff2 $end
$var wire 1 5 Clock $end
$var wire 1 0" D $end
$var wire 1 B" Enable $end
$var wire 1 A Reset $end
$var reg 1 C" Q $end
$upscope $end
$scope module mixer $end
$var wire 1 5 clk $end
$var wire 64 D" iL_sub_i [63:0] $end
$var wire 64 E" iS_sub_i [63:0] $end
$var wire 1 ?" iStart $end
$var wire 1 A rst $end
$var wire 64 F" wL_rotate [63:0] $end
$var reg 64 G" A [63:0] $end
$var reg 64 H" A_nxt [63:0] $end
$var reg 64 I" B [63:0] $end
$var reg 64 J" B_nxt [63:0] $end
$var reg 1 K" oDone $end
$var reg 1 L" oDone_nxt $end
$var reg 1 M" oL_address $end
$var reg 1 N" oL_address_nxt $end
$var reg 64 O" oL_sub_i_prima [63:0] $end
$var reg 64 P" oL_sub_i_prima_nxt [63:0] $end
$var reg 1 Q" oL_we $end
$var reg 1 R" oL_we_nxt $end
$var reg 5 S" oS_address [4:0] $end
$var reg 5 T" oS_address_nxt [4:0] $end
$var reg 64 U" oS_sub_i_prima [63:0] $end
$var reg 64 V" oS_sub_i_prima_nxt [63:0] $end
$var reg 1 W" oS_we $end
$var reg 1 X" oS_we_nxt $end
$var reg 7 Y" rCount [6:0] $end
$var reg 7 Z" rCount_nxt [6:0] $end
$var reg 64 [" rSumTemp [63:0] $end
$var reg 64 \" rSumTemp_nxt [63:0] $end
$var reg 4 ]" state [3:0] $end
$scope module barrel $end
$var wire 64 ^" iData [63:0] $end
$var wire 1 _" iDir $end
$var wire 6 `" iRotate [5:0] $end
$var reg 64 a" oData [63:0] $end
$upscope $end
$upscope $end
$scope module S $end
$var wire 1 5 clk $end
$var wire 64 b" iS_sub_i [63:0] $end
$var wire 1 A rst $end
$var reg 1 c" oDone $end
$var reg 1 d" oDone_nxt $end
$var reg 5 e" oS_address [4:0] $end
$var reg 5 f" oS_address_nxt [4:0] $end
$var reg 64 g" oS_sub_i_prima [63:0] $end
$var reg 64 h" oS_sub_i_prima_nxt [63:0] $end
$var reg 1 i" oS_we $end
$var reg 1 j" oS_we_nxt $end
$var reg 5 k" rCount [4:0] $end
$var reg 5 l" rCount_nxt [4:0] $end
$var reg 3 m" state [2:0] $end
$upscope $end
$scope module L $end
$var wire 64 n" L_sub_i [63:0] $end
$var wire 1 5 clk $end
$var wire 8 o" key_sub_i [7:0] $end
$var wire 1 A rst $end
$var reg 1 p" L_address $end
$var reg 1 q" L_address_nxt $end
$var reg 64 r" L_sub_i_prima [63:0] $end
$var reg 64 s" L_sub_i_prima_nxt [63:0] $end
$var reg 1 t" L_we $end
$var reg 1 u" L_we_nxt $end
$var reg 4 v" count [3:0] $end
$var reg 4 w" count_nxt [3:0] $end
$var reg 1 x" done $end
$var reg 1 y" done_nxt $end
$var reg 4 z" key_address [3:0] $end
$var reg 4 {" key_address_nxt [3:0] $end
$var reg 3 |" state [2:0] $end
$upscope $end
$upscope $end
$scope module S_RAM $end
$var wire 5 }" addr_a [4:0] $end
$var wire 5 ~" addr_b [4:0] $end
$var wire 1 5 clk $end
$var wire 64 !# data_a [63:0] $end
$var wire 64 "# data_b [63:0] $end
$var wire 1 2 we_a $end
$var wire 1 ## we_b $end
$var reg 64 $# q_a [63:0] $end
$var reg 64 %# q_b [63:0] $end
$upscope $end
$scope module key_RAM $end
$var wire 4 &# addr_a [3:0] $end
$var wire 4 '# addr_b [3:0] $end
$var wire 1 5 clk $end
$var wire 8 (# data_a [7:0] $end
$var wire 8 )# data_b [7:0] $end
$var wire 1 *# we_a $end
$var wire 1 +# we_b $end
$var reg 8 ,# q_a [7:0] $end
$var reg 8 -# q_b [7:0] $end
$upscope $end
$scope module L_RAM $end
$var wire 1 * addr_a $end
$var wire 1 .# addr_b $end
$var wire 1 5 clk $end
$var wire 64 /# data_a [63:0] $end
$var wire 64 0# data_b [63:0] $end
$var wire 1 - we_a $end
$var wire 1 1# we_b $end
$var reg 64 2# q_a [63:0] $end
$var reg 64 3# q_b [63:0] $end
$upscope $end
$upscope $end
$upscope $end
$enddefinitions $end
#0
$dumpvars
bx 3#
bx 2#
01#
b0 0#
bx /#
0.#
bx -#
bx ,#
0+#
0*#
b0 )#
b0 (#
b0 '#
bx &#
bx %#
bx $#
0##
b0 "#
bx !#
bx ~"
bx }"
bx |"
bx {"
bx z"
xy"
xx"
bx w"
bx v"
xu"
xt"
bx s"
bx r"
xq"
xp"
bx o"
bx n"
bx m"
bx l"
bx k"
xj"
xi"
bx h"
bx g"
bx f"
bx e"
xd"
xc"
bx b"
bx a"
bx `"
0_"
bx ^"
bx ]"
bx \"
bx ["
bx Z"
bx Y"
xX"
xW"
bx V"
bx U"
bx T"
bx S"
xR"
xQ"
bx P"
bx O"
xN"
xM"
xL"
xK"
bx J"
bx I"
bx H"
bx G"
bx F"
bx E"
bx D"
xC"
1B"
xA"
1@"
x?"
x>"
x="
bx <"
bx ;"
x:"
bx 9"
bx 8"
x7"
x6"
bx 5"
bx 4"
x3"
x2"
x1"
x0"
x/"
bx ."
bx -"
bx ,"
bx +"
bx *"
bx )"
bx ("
bx '"
bx &"
0%"
bx $"
bx #"
bx ""
bx !"
bx ~
bx }
bx |
bx {
b0xxxxx z
bx y
b0xxxxx x
bx w
xv
xu
bx t
bx s
bx r
bx q
bx p
bx o
bx n
b1101101100011110100101100010101 m
b11101110110110111010010100100001 l
bx k
bx j
1i
bx h
bx g
bx f
bx e
bx d
bx c
bx b
bx a
bx `
bx _
bx ^
bx ]
x\
x[
bx Z
bx Y
bx X
bx W
bx V
bx U
bx T
bx S
bx R
xQ
1P
xO
1N
xM
1L
xK
1J
xI
xH
bx G
bx F
bx E
bx D
bx C
bx B
0A
bx @
bx ?
bx >
bx =
bx <
bx ;
x:
x9
bx 8
b1101101100011110100101100010101 7
b11101110110110111010010100100001 6
05
x4
x3
x2
bx 1
bx 0
bx /
bx .
x-
bx ,
bx +
x*
0)
b10010001110011101010100100010000000000011010010101010101011000110101000110110010010000011011111000011001010001100101111110010001 (
b10000 '
0&
b1101101100011110100101100010101 %
b11101110110110111010010100100001 $
x#
bx "
bx !
$end
#200
1)
1A
#500
b0 k
b0 V
b0 '"
b0 p
b0 a"
b0 F"
b0 .
b0 }"
0\
b0 f
b0 b
b1100 d
b0 Z
b11001 `
b11000 ^
b1 B
b1 ~"
0v
b0 ""
b0 |
b1 ~
b0 t
b1 z
b0 x
b0 C
b0 `"
0X"
0R"
b0 P"
b0 V"
0L"
b0 \"
b0 J"
b0 H"
1N"
b11001 T"
b1111111 Z"
b0 1
b0 ."
b0 !#
02
b1 l"
b0 h"
0j"
0d"
b1 f"
b0 /
b0 -"
b0 ,
b0 ,"
b0 /#
0*
0-
0/"
b0 s"
0q"
b0 {"
0u"
0y"
b1111 w"
0K
0:
0M
0H
0O
04
0Q
0I
b0 g
0[
0#
b0 e
b0 j
b0 a
b0 h
b1100 c
b0 Y
b0 "
b0 @
b0 W
b0 !
b0 >
b11001 _
b11001 G
b11000 ]
b11000 F
b0 #"
0u
03
b0 !"
b0 &"
b0 {
b0 $"
b1 }
b0 s
b0 ?
b0 S
b0 q
b0 =
b0 R
b1 y
b1 E
b0 w
b0 D
0A"
00"
0C"
0?"
0W"
0>"
0Q"
07"
b0 O"
b0 5"
b0 ^"
b0 U"
b0 <"
0K"
09
b0 ["
b0 I"
b0 G"
1M"
12"
b11001 S"
b11001 9"
b1111111 Y"
b1 k"
b0 g"
b0 ;"
0i"
0="
0c"
0:"
b0 e"
b0 8"
b0 |"
b0 r"
b0 4"
0p"
01"
b0 z"
b0 ;
b0 +"
b0 &#
0t"
06"
0x"
03"
b1111 v"
b10010001 -#
b0 3#
b0 ]"
b0 m"
1&
15
#600
0)
0A
#1000
0&
05
#1500
b1 .
b1 }"
b1 C
1q"
b1111 {"
b1 /
b1 -"
b0 f"
b0 2#
b0 +
b0 )"
b0 D"
b0 n"
b10010001 ,#
b10010001 <
b10010001 ("
b10010001 o"
b10110111111000010101000101100011 $#
b10110111111000010101000101100011 0
b10110111111000010101000101100011 T
b10110111111000010101000101100011 n
b10110111111000010101000101100011 *"
b10110111111000010101000101100011 E"
b10110111111000010101000101100011 b"
b1 |"
b1 e"
b1 8"
b1 m"
bx q
bx =
bx R
bx W
bx !
bx >
1&
15
#2000
0&
05
#2500
b0 .
b0 }"
b0 C
b0 /
b0 -"
1*
b10 m"
b0 e"
b0 8"
b10 |"
1p"
11"
b1111 z"
b1111 ;
b1111 +"
b1111 &#
bx $#
bx 0
bx T
bx n
bx *"
bx E"
bx b"
1&
15
#3000
0&
05
#3500
b10010001 s"
b101010110000110001100101100011100 h"
b1 f"
b10110111111000010101000101100011 $#
b10110111111000010101000101100011 0
b10110111111000010101000101100011 T
b10110111111000010101000101100011 n
b10110111111000010101000101100011 *"
b10110111111000010101000101100011 E"
b10110111111000010101000101100011 b"
b11 |"
b11 m"
1&
15
#4000
0&
05
#4500
b1 .
b1 }"
b1 C
b101010110000110001100101100011100 1
b101010110000110001100101100011100 ."
b101010110000110001100101100011100 !#
1j"
b10 l"
b1 /
b1 -"
1u"
b1110 w"
b10010001 ,
b10010001 ,"
b10010001 /#
b100 m"
b101010110000110001100101100011100 g"
b101010110000110001100101100011100 ;"
b1 e"
b1 8"
b100 |"
b10010001 r"
b10010001 4"
1&
15
#5000
0&
05
#5500
1-
0u"
b1110 {"
12
0j"
bx $#
bx 0
bx T
bx n
bx *"
bx E"
bx b"
1t"
16"
b1110 v"
b1 |"
b10 k"
1i"
1="
b1 m"
1&
15
#6000
0&
05
#6500
02
0-
b10 m"
0i"
0="
b10 |"
b1110 z"
b1110 ;
b1110 +"
b1110 &#
0t"
06"
b101010110000110001100101100011100 $#
b101010110000110001100101100011100 0
b101010110000110001100101100011100 T
b101010110000110001100101100011100 n
b101010110000110001100101100011100 *"
b101010110000110001100101100011100 E"
b101010110000110001100101100011100 b"
b10010001 2#
b10010001 +
b10010001 )"
b10010001 D"
b10010001 n"
1&
15
#7000
0&
05
#7500
b1001000111001110 s"
b111110100010100000100010011010101 h"
b10 f"
b11001110 ,#
b11001110 <
b11001110 ("
b11001110 o"
b101010110000110001100101100011100 %#
b101010110000110001100101100011100 8
b101010110000110001100101100011100 U
b101010110000110001100101100011100 o
b11 |"
b11 m"
1&
15
#8000
0&
05
#8500
b10 .
b10 }"
b10 C
b111110100010100000100010011010101 1
b111110100010100000100010011010101 ."
b111110100010100000100010011010101 !#
1j"
b11 l"
b10 /
b10 -"
1u"
b1101 w"
b1001000111001110 ,
b1001000111001110 ,"
b1001000111001110 /#
b100 m"
b111110100010100000100010011010101 g"
b111110100010100000100010011010101 ;"
b10 e"
b10 8"
b100 |"
b1001000111001110 r"
b1001000111001110 4"
1&
15
#9000
0&
05
#9500
1-
0u"
b1101 {"
12
0j"
bx $#
bx 0
bx T
bx n
bx *"
bx E"
bx b"
1t"
16"
b1101 v"
b1 |"
b11 k"
1i"
1="
b1 m"
1&
15
#10000
0&
05
#10500
02
0-
b10 m"
0i"
0="
b10 |"
b1101 z"
b1101 ;
b1101 +"
b1101 &#
0t"
06"
b111110100010100000100010011010101 $#
b111110100010100000100010011010101 0
b111110100010100000100010011010101 T
b111110100010100000100010011010101 n
b111110100010100000100010011010101 *"
b111110100010100000100010011010101 E"
b111110100010100000100010011010101 b"
b1001000111001110 2#
b1001000111001110 +
b1001000111001110 )"
b1001000111001110 D"
b1001000111001110 n"
1&
15
#11000
0&
05
#11500
b100100011100111010101001 s"
b1010010010100001111011111010001110 h"
b11 f"
b10101001 ,#
b10101001 <
b10101001 ("
b10101001 o"
b11 |"
b11 m"
1&
15
#12000
0&
05
#12500
b11 .
b11 }"
b11 C
b1010010010100001111011111010001110 1
b1010010010100001111011111010001110 ."
b1010010010100001111011111010001110 !#
1j"
b100 l"
b11 /
b11 -"
1u"
b1100 w"
b100100011100111010101001 ,
b100100011100111010101001 ,"
b100100011100111010101001 /#
b100 m"
b1010010010100001111011111010001110 g"
b1010010010100001111011111010001110 ;"
b11 e"
b11 8"
b100 |"
b100100011100111010101001 r"
b100100011100111010101001 4"
1&
15
#13000
0&
05
#13500
1-
0u"
b1100 {"
12
0j"
bx $#
bx 0
bx T
bx n
bx *"
bx E"
bx b"
1t"
16"
b1100 v"
b1 |"
b100 k"
1i"
1="
b1 m"
1&
15
#14000
0&
05
#14500
02
0-
b10 m"
0i"
0="
b10 |"
b1100 z"
b1100 ;
b1100 +"
b1100 &#
0t"
06"
b1010010010100001111011111010001110 $#
b1010010010100001111011111010001110 0
b1010010010100001111011111010001110 T
b1010010010100001111011111010001110 n
b1010010010100001111011111010001110 *"
b1010010010100001111011111010001110 E"
b1010010010100001111011111010001110 b"
b100100011100111010101001 2#
b100100011100111010101001 +
b100100011100111010101001 )"
b100100011100111010101001 D"
b100100011100111010101001 n"
1&
15
#15000
0&
05
#15500
b10010001110011101010100100010000 s"
b1100110000101111110011100001000111 h"
b100 f"
b10000 ,#
b10000 <
b10000 ("
b10000 o"
b11 |"
b11 m"
1&
15
#16000
0&
05
#16500
b100 .
b100 }"
b100 C
b1100110000101111110011100001000111 1
b1100110000101111110011100001000111 ."
b1100110000101111110011100001000111 !#
1j"
b101 l"
b100 /
b100 -"
1u"
b1011 w"
b10010001110011101010100100010000 ,
b10010001110011101010100100010000 ,"
b10010001110011101010100100010000 /#
b100 m"
b1100110000101111110011100001000111 g"
b1100110000101111110011100001000111 ;"
b100 e"
b100 8"
b100 |"
b10010001110011101010100100010000 r"
b10010001110011101010100100010000 4"
1&
15
#17000
0&
05
#17500
1-
0u"
b1011 {"
12
0j"
bx $#
bx 0
bx T
bx n
bx *"
bx E"
bx b"
1t"
16"
b1011 v"
b1 |"
b101 k"
1i"
1="
b1 m"
1&
15
#18000
0&
05
#18500
02
0-
b10 m"
0i"
0="
b10 |"
b1011 z"
b1011 ;
b1011 +"
b1011 &#
0t"
06"
b1100110000101111110011100001000111 $#
b1100110000101111110011100001000111 0
b1100110000101111110011100001000111 T
b1100110000101111110011100001000111 n
b1100110000101111110011100001000111 *"
b1100110000101111110011100001000111 E"
b1100110000101111110011100001000111 b"
b10010001110011101010100100010000 2#
b10010001110011101010100100010000 +
b10010001110011101010100100010000 )"
b10010001110011101010100100010000 D"
b10010001110011101010100100010000 n"
1&
15
#19000
0&
05
#19500
b1001000111001110101010010001000000000001 s"
b1111001110111101101011001000000000 h"
b101 f"
b1 ,#
b1 <
b1 ("
b1 o"
b11 |"
b11 m"
1&
15
#20000
0&
05
#20500
b101 .
b101 }"
b101 C
b1111001110111101101011001000000000 1
b1111001110111101101011001000000000 ."
b1111001110111101101011001000000000 !#
1j"
b110 l"
b101 /
b101 -"
1u"
b1010 w"
b1001000111001110101010010001000000000001 ,
b1001000111001110101010010001000000000001 ,"
b1001000111001110101010010001000000000001 /#
b100 m"
b1111001110111101101011001000000000 g"
b1111001110111101101011001000000000 ;"
b101 e"
b101 8"
b100 |"
b1001000111001110101010010001000000000001 r"
b1001000111001110101010010001000000000001 4"
1&
15
#21000
0&
05
#21500
1-
0u"
b1010 {"
12
0j"
bx $#
bx 0
bx T
bx n
bx *"
bx E"
bx b"
1t"
16"
b1010 v"
b1 |"
b110 k"
1i"
1="
b1 m"
1&
15
#22000
0&
05
#22500
02
0-
b10 m"
0i"
0="
b10 |"
b1010 z"
b1010 ;
b1010 +"
b1010 &#
0t"
06"
b1111001110111101101011001000000000 $#
b1111001110111101101011001000000000 0
b1111001110111101101011001000000000 T
b1111001110111101101011001000000000 n
b1111001110111101101011001000000000 *"
b1111001110111101101011001000000000 E"
b1111001110111101101011001000000000 b"
b1001000111001110101010010001000000000001 2#
b1001000111001110101010010001000000000001 +
b1001000111001110101010010001000000000001 )"
b1001000111001110101010010001000000000001 D"
b1001000111001110101010010001000000000001 n"
1&
15
#23000
0&
05
#23500
b100100011100111010101001000100000000000110100101 s"
b10001101101001011100010101110111001 h"
b110 f"
b10100101 ,#
b10100101 <
b10100101 ("
b10100101 o"
b11 |"
b11 m"
1&
15
#24000
0&
05
#24500
b110 .
b110 }"
b110 C
b10001101101001011100010101110111001 1
b10001101101001011100010101110111001 ."
b10001101101001011100010101110111001 !#
1j"
b111 l"
b110 /
b110 -"
1u"
b1001 w"
b100100011100111010101001000100000000000110100101 ,
b100100011100111010101001000100000000000110100101 ,"
b100100011100111010101001000100000000000110100101 /#
b100 m"
b10001101101001011100010101110111001 g"
b10001101101001011100010101110111001 ;"
b110 e"
b110 8"
b100 |"
b100100011100111010101001000100000000000110100101 r"
b100100011100111010101001000100000000000110100101 4"
1&
15
#25000
0&
05
#25500
1-
0u"
b1001 {"
12
0j"
bx $#
bx 0
bx T
bx n
bx *"
bx E"
bx b"
1t"
16"
b1001 v"
b1 |"
b111 k"
1i"
1="
b1 m"
1&
15
#26000
0&
05
#26500
02
0-
b10 m"
0i"
0="
b10 |"
b1001 z"
b1001 ;
b1001 +"
b1001 &#
0t"
06"
b10001101101001011100010101110111001 $#
b10001101101001011100010101110111001 0
b10001101101001011100010101110111001 T
b10001101101001011100010101110111001 n
b10001101101001011100010101110111001 *"
b10001101101001011100010101110111001 E"
b10001101101001011100010101110111001 b"
b100100011100111010101001000100000000000110100101 2#
b100100011100111010101001000100000000000110100101 +
b100100011100111010101001000100000000000110100101 )"
b100100011100111010101001000100000000000110100101 D"
b100100011100111010101001000100000000000110100101 n"
1&
15
#27000
0&
05
#27500
b10010001110011101010100100010000000000011010010101010101 s"
b10100001011011001011010010101110010 h"
b111 f"
b1010101 ,#
b1010101 <
b1010101 ("
b1010101 o"
b11 |"
b11 m"
1&
15
#28000
0&
05
#28500
b111 .
b111 }"
b111 C
b10100001011011001011010010101110010 1
b10100001011011001011010010101110010 ."
b10100001011011001011010010101110010 !#
1j"
b1000 l"
b111 /
b111 -"
1u"
b1000 w"
b10010001110011101010100100010000000000011010010101010101 ,
b10010001110011101010100100010000000000011010010101010101 ,"
b10010001110011101010100100010000000000011010010101010101 /#
b100 m"
b10100001011011001011010010101110010 g"
b10100001011011001011010010101110010 ;"
b111 e"
b111 8"
b100 |"
b10010001110011101010100100010000000000011010010101010101 r"
b10010001110011101010100100010000000000011010010101010101 4"
1&
15
#29000
0&
05
#29500
1-
0u"
b1000 {"
12
0j"
bx $#
bx 0
bx T
bx n
bx *"
bx E"
bx b"
1t"
16"
b1000 v"
b1 |"
b1000 k"
1i"
1="
b1 m"
1&
15
#30000
0&
05
#30500
02
0-
b10 m"
0i"
0="
b10 |"
b1000 z"
b1000 ;
b1000 +"
b1000 &#
0t"
06"
b10100001011011001011010010101110010 $#
b10100001011011001011010010101110010 0
b10100001011011001011010010101110010 T
b10100001011011001011010010101110010 n
b10100001011011001011010010101110010 *"
b10100001011011001011010010101110010 E"
b10100001011011001011010010101110010 b"
b10010001110011101010100100010000000000011010010101010101 2#
b10010001110011101010100100010000000000011010010101010101 +
b10010001110011101010100100010000000000011010010101010101 )"
b10010001110011101010100100010000000000011010010101010101 D"
b10010001110011101010100100010000000000011010010101010101 n"
1&
15
#31000
0&
05
#31500
b1001000111001110101010010001000000000001101001010101010101100011 s"
b10110101001100111010001111100101011 h"
b1000 f"
b1100011 ,#
b1100011 <
b1100011 ("
b1100011 o"
b11 |"
b11 m"
1&
15
#32000
0&
05
#32500
b1000 .
b1000 }"
b1000 C
b10110101001100111010001111100101011 1
b10110101001100111010001111100101011 ."
b10110101001100111010001111100101011 !#
1j"
b1001 l"
b1000 /
b1000 -"
1u"
b111 w"
b1001000111001110101010010001000000000001101001010101010101100011 ,
b1001000111001110101010010001000000000001101001010101010101100011 ,"
b1001000111001110101010010001000000000001101001010101010101100011 /#
b100 m"
b10110101001100111010001111100101011 g"
b10110101001100111010001111100101011 ;"
b1000 e"
b1000 8"
b100 |"
b1001000111001110101010010001000000000001101001010101010101100011 r"
b1001000111001110101010010001000000000001101001010101010101100011 4"
1&
15
#33000
0&
05
#33500
1-
0u"
0q"
b111 {"
12
0j"
bx $#
bx 0
bx T
bx n
bx *"
bx E"
bx b"
1t"
16"
b111 v"
b1 |"
b1001 k"
1i"
1="
b1 m"
1&
15
#34000
0&
05
#34500
02
0*
0-
b10 m"
0i"
0="
b10 |"
0p"
01"
b111 z"
b111 ;
b111 +"
b111 &#
0t"
06"
b10110101001100111010001111100101011 $#
b10110101001100111010001111100101011 0
b10110101001100111010001111100101011 T
b10110101001100111010001111100101011 n
b10110101001100111010001111100101011 *"
b10110101001100111010001111100101011 E"
b10110101001100111010001111100101011 b"
b1001000111001110101010010001000000000001101001010101010101100011 2#
b1001000111001110101010010001000000000001101001010101010101100011 +
b1001000111001110101010010001000000000001101001010101010101100011 )"
b1001000111001110101010010001000000000001101001010101010101100011 D"
b1001000111001110101010010001000000000001101001010101010101100011 n"
1&
15
#35000
0&
05
#35500
b1010001 s"
b11001000111110101001001100011100100 h"
b1001 f"
b0 2#
b0 +
b0 )"
b0 D"
b0 n"
b1010001 ,#
b1010001 <
b1010001 ("
b1010001 o"
b11 |"
b11 m"
1&
15
#36000
0&
05
#36500
b1001 .
b1001 }"
b1001 C
b11001000111110101001001100011100100 1
b11001000111110101001001100011100100 ."
b11001000111110101001001100011100100 !#
1j"
b1010 l"
b1001 /
b1001 -"
1u"
b110 w"
b1010001 ,
b1010001 ,"
b1010001 /#
b100 m"
b11001000111110101001001100011100100 g"
b11001000111110101001001100011100100 ;"
b1001 e"
b1001 8"
b100 |"
b1010001 r"
b1010001 4"
1&
15
#37000
0&
05
#37500
1-
0u"
b110 {"
12
0j"
bx $#
bx 0
bx T
bx n
bx *"
bx E"
bx b"
1t"
16"
b110 v"
b1 |"
b1010 k"
1i"
1="
b1 m"
1&
15
#38000
0&
05
#38500
02
0-
b10 m"
0i"
0="
b10 |"
b110 z"
b110 ;
b110 +"
b110 &#
0t"
06"
b11001000111110101001001100011100100 $#
b11001000111110101001001100011100100 0
b11001000111110101001001100011100100 T
b11001000111110101001001100011100100 n
b11001000111110101001001100011100100 *"
b11001000111110101001001100011100100 E"
b11001000111110101001001100011100100 b"
b1010001 2#
b1010001 +
b1010001 )"
b1010001 D"
b1010001 n"
1&
15
#39000
0&
05
#39500
b101000110110010 s"
b11011100110000011000001001010011101 h"
b1010 f"
b1010001 3#
b10110010 ,#
b10110010 <
b10110010 ("
b10110010 o"
b11 |"
b11 m"
1&
15
#40000
0&
05
#40500
b1010 .
b1010 }"
b1010 C
b11011100110000011000001001010011101 1
b11011100110000011000001001010011101 ."
b11011100110000011000001001010011101 !#
1j"
b1011 l"
b1010 /
b1010 -"
1u"
b101 w"
b101000110110010 ,
b101000110110010 ,"
b101000110110010 /#
b100 m"
b11011100110000011000001001010011101 g"
b11011100110000011000001001010011101 ;"
b1010 e"
b1010 8"
b100 |"
b101000110110010 r"
b101000110110010 4"
1&
15
#41000
0&
05
#41500
1-
0u"
b101 {"
12
0j"
bx $#
bx 0
bx T
bx n
bx *"
bx E"
bx b"
1t"
16"
b101 v"
b1 |"
b1011 k"
1i"
1="
b1 m"
1&
15
#42000
0&
05
