proyectoLeon/codigo/rc5/version2/S.vcd
$date
	Fri Nov  6 00:10:11 2015
$end
$version
	Icarus Verilog
$end
$timescale
	10ps
$end
$scope module probador $end
$var wire 5 ! S_address [4:0] $end
$var wire 32 " S_sub_i [31:0] $end
$var wire 32 # S_sub_i_prima [31:0] $end
$var wire 1 $ S_we $end
$var wire 1 % clk $end
$var wire 1 & done $end
$var wire 1 ' rst $end
$scope module test $end
$var reg 1 ( clk $end
$var integer 32 ) i [31:0] $end
$var reg 128 * key [127:0] $end
$var reg 1 + rst $end
$upscope $end
$scope module operation $end
$var wire 1 % clk $end
$var wire 32 , iS_sub_i [31:0] $end
$var wire 1 ' rst $end
$var reg 1 - oDone $end
$var reg 1 . oDone_nxt $end
$var reg 5 / oS_address [4:0] $end
$var reg 5 0 oS_address_nxt [4:0] $end
$var reg 32 1 oS_sub_i_prima [31:0] $end
$var reg 32 2 oS_sub_i_prima_nxt [31:0] $end
$var reg 1 3 oS_we $end
$var reg 1 4 oS_we_nxt $end
$var reg 5 5 rCount [4:0] $end
$var reg 5 6 rCount_nxt [4:0] $end
$var reg 3 7 state [2:0] $end
$upscope $end
$scope module S_RAM $end
$var wire 5 8 addr_a [4:0] $end
$var wire 5 9 addr_b [4:0] $end
$var wire 1 % clk $end
$var wire 32 : data_a [31:0] $end
$var wire 32 ; data_b [31:0] $end
$var wire 1 $ we_a $end
$var wire 1 < we_b $end
$var reg 32 = q_a [31:0] $end
$var reg 32 > q_b [31:0] $end
$upscope $end
$upscope $end
$enddefinitions $end
#0
$dumpvars
bx >
bx =
0<
b0 ;
bx :
b0 9
bx 8
bx 7
bx 6
bx 5
x4
x3
bx 2
bx 1
bx 0
bx /
x.
x-
bx ,
0+
b11111111111111101110111011100101100001101000010011111111111100000101111111111110010010010011100001010011000000000000010000110100 *
bx )
0(
0'
x&
0%
x$
bx #
bx "
bx !
$end
#200
1+
1'
#500
b1 6
b0 2
04
0.
b1 0
b1 5
b0 1
b0 #
b0 :
03
0$
0-
0&
b0 /
b0 !
b0 8
b1010 >
b0 7
1(
1%
#600
0+
0'
#1000
0(
0%
#1500
b0 0
b1010 =
b1010 "
b1010 ,
b1 /
b1 !
b1 8
b1 7
1(
1%
#2000
0(
0%
#2500
b10 7
b0 /
b0 !
b0 8
bx =
bx "
bx ,
1(
1%
#3000
0(
0%
#3500
b1111 2
b1 0
b1010 =
b1010 "
b1010 ,
b11 7
1(
1%
#4000
0(
0%
#4500
14
b10 6
b100 7
b1111 1
b1111 #
b1111 :
b1 /
b1 !
b1 8
1(
1%
#5000
0(
0%
#5500
04
bx =
bx "
bx ,
b10 5
13
1$
b1 7
1(
1%
#6000
0(
0%
#6500
b10 7
03
0$
b1111 =
b1111 "
b1111 ,
1(
1%
#7000
0(
0%
#7500
b10100 2
b10 0
b11 7
1(
1%
#8000
0(
0%
#8500
14
b11 6
b100 7
b10100 1
b10100 #
b10100 :
b10 /
b10 !
b10 8
1(
1%
#9000
0(
0%
#9500
04
bx =
bx "
bx ,
b11 5
13
1$
b1 7
1(
1%
#10000
0(
0%
#10500
b10 7
03
0$
b10100 =
b10100 "
b10100 ,
1(
1%
#11000
0(
0%
#11500
b11001 2
b11 0
b11 7
1(
1%
#12000
0(
0%
#12500
14
b100 6
b100 7
b11001 1
b11001 #
b11001 :
b11 /
b11 !
b11 8
1(
1%
#13000
0(
0%
#13500
04
bx =
bx "
bx ,
b100 5
13
1$
b1 7
1(
1%
#14000
0(
0%
#14500
b10 7
03
0$
b11001 =
b11001 "
b11001 ,
1(
1%
#15000
0(
0%
#15500
b11110 2
b100 0
b11 7
1(
1%
#16000
0(
0%
#16500
14
b101 6
b100 7
b11110 1
b11110 #
b11110 :
b100 /
b100 !
b100 8
1(
1%
#17000
0(
0%
#17500
04
bx =
bx "
bx ,
b101 5
13
1$
b1 7
1(
1%
#18000
0(
0%
#18500
b10 7
03
0$
b11110 =
b11110 "
b11110 ,
1(
1%
#19000
0(
0%
#19500
b100011 2
b101 0
b11 7
1(
1%
#20000
0(
0%
#20500
14
b110 6
b100 7
b100011 1
b100011 #
b100011 :
b101 /
b101 !
b101 8
1(
1%
#21000
0(
0%
#21500
04
bx =
bx "
bx ,
b110 5
13
1$
b1 7
1(
1%
#22000
0(
0%
#22500
b10 7
03
0$
b100011 =
b100011 "
b100011 ,
1(
1%
#23000
0(
0%
#23500
b101000 2
b110 0
b11 7
1(
1%
#24000
0(
0%
#24500
14
b111 6
b100 7
b101000 1
b101000 #
b101000 :
b110 /
b110 !
b110 8
1(
1%
#25000
0(
0%
#25500
04
bx =
bx "
bx ,
b111 5
13
1$
b1 7
1(
1%
#26000
0(
0%
#26500
b10 7
03
0$
b101000 =
b101000 "
b101000 ,
1(
1%
#27000
0(
0%
#27500
b101101 2
b111 0
b11 7
1(
1%
#28000
0(
0%
#28500
14
b1000 6
b100 7
b101101 1
b101101 #
b101101 :
b111 /
b111 !
b111 8
1(
1%
#29000
0(
0%
#29500
04
bx =
bx "
bx ,
b1000 5
13
1$
b1 7
1(
1%
#30000
0(
0%
#30500
b10 7
03
0$
b101101 =
b101101 "
b101101 ,
1(
1%
#31000
0(
0%
#31500
b110010 2
b1000 0
b11 7
1(
1%
#32000
0(
0%
#32500
14
b1001 6
b100 7
b110010 1
b110010 #
b110010 :
b1000 /
b1000 !
b1000 8
1(
1%
#33000
0(
0%
#33500
04
bx =
bx "
bx ,
b1001 5
13
1$
b1 7
1(
1%
#34000
0(
0%
#34500
b10 7
03
0$
b110010 =
b110010 "
b110010 ,
1(
1%
#35000
0(
0%
#35500
b110111 2
b1001 0
b11 7
1(
1%
#36000
0(
0%
#36500
14
b1010 6
b100 7
b110111 1
b110111 #
b110111 :
b1001 /
b1001 !
b1001 8
1(
1%
#37000
0(
0%
#37500
04
bx =
bx "
bx ,
b1010 5
13
1$
b1 7
1(
1%
#38000
0(
0%
#38500
b10 7
03
0$
b110111 =
b110111 "
b110111 ,
1(
1%
#39000
0(
0%
#39500
b111100 2
b1010 0
b11 7
1(
1%
#40000
0(
0%
#40500
14
b1011 6
b100 7
b111100 1
b111100 #
b111100 :
b1010 /
b1010 !
b1010 8
1(
1%
#41000
0(
0%
#41500
04
bx =
bx "
bx ,
b1011 5
13
1$
b1 7
1(
1%
#42000
0(
0%
#42500
b10 7
03
0$
b111100 =
b111100 "
b111100 ,
1(
1%
#43000
0(
0%
#43500
b1000001 2
b1011 0
b11 7
1(
1%
#44000
0(
0%
#44500
14
b1100 6
b100 7
b1000001 1
b1000001 #
b1000001 :
b1011 /
b1011 !
b1011 8
1(
1%
#45000
0(
0%
#45500
04
bx =
bx "
bx ,
b1100 5
13
1$
b1 7
1(
1%
#46000
0(
0%
#46500
b10 7
03
0$
b1000001 =
b1000001 "
b1000001 ,
1(
1%
#47000
0(
0%
#47500
b1000110 2
b1100 0
b11 7
1(
1%
#48000
0(
0%
#48500
14
b1101 6
b100 7
b1000110 1
b1000110 #
b1000110 :
b1100 /
b1100 !
b1100 8
1(
1%
#49000
0(
0%
#49500
04
bx =
bx "
bx ,
b1101 5
13
1$
b1 7
1(
1%
#50000
0(
0%
#50500
b10 7
03
0$
b1000110 =
b1000110 "
b1000110 ,
1(
1%
#51000
0(
0%
#51500
b1001011 2
b1101 0
b11 7
1(
1%
#52000
0(
0%
#52500
14
b1110 6
b100 7
b1001011 1
b1001011 #
b1001011 :
b1101 /
b1101 !
b1101 8
1(
1%
#53000
0(
0%
#53500
04
bx =
bx "
bx ,
b1110 5
13
1$
b1 7
1(
1%
#54000
0(
0%
#54500
b10 7
03
0$
b1001011 =
b1001011 "
b1001011 ,
1(
1%
#55000
0(
0%
#55500
b1010000 2
b1110 0
b11 7
1(
1%
#56000
0(
0%
#56500
14
b1111 6
b100 7
b1010000 1
b1010000 #
b1010000 :
b1110 /
b1110 !
b1110 8
1(
1%
#57000
0(
0%
#57500
04
bx =
bx "
bx ,
b1111 5
13
1$
b1 7
1(
1%
#58000
0(
0%
#58500
b10 7
03
0$
b1010000 =
b1010000 "
b1010000 ,
1(
1%
#59000
0(
0%
#59500
b1010101 2
b1111 0
b11 7
1(
1%
#60000
0(
0%
#60500
14
b10000 6
b100 7
b1010101 1
b1010101 #
b1010101 :
b1111 /
b1111 !
b1111 8
1(
1%
#61000
0(
0%
#61500
04
bx =
bx "
bx ,
b10000 5
13
1$
b1 7
1(
1%
#62000
0(
0%
#62500
b10 7
03
0$
b1010101 =
b1010101 "
b1010101 ,
1(
1%
#63000
0(
0%
#63500
b1011010 2
b10000 0
b11 7
1(
1%
#64000
0(
0%
#64500
14
b10001 6
b100 7
b1011010 1
b1011010 #
b1011010 :
b10000 /
b10000 !
b10000 8
1(
1%
#65000
0(
0%
#65500
04
bx =
bx "
bx ,
b10001 5
13
1$
b1 7
1(
1%
#66000
0(
0%
#66500
b10 7
03
0$
b1011010 =
b1011010 "
b1011010 ,
1(
1%
#67000
0(
0%
#67500
b1011111 2
b10001 0
b11 7
1(
1%
#68000
0(
0%
#68500
14
b10010 6
b100 7
b1011111 1
b1011111 #
b1011111 :
b10001 /
b10001 !
b10001 8
1(
1%
#69000
0(
0%
#69500
04
bx =
bx "
bx ,
b10010 5
13
1$
b1 7
1(
1%
#70000
0(
0%
#70500
b10 7
03
0$
b1011111 =
b1011111 "
b1011111 ,
1(
1%
#71000
0(
0%
#71500
b1100100 2
b10010 0
b11 7
1(
1%
#72000
0(
0%
#72500
14
b10011 6
b100 7
b1100100 1
b1100100 #
b1100100 :
b10010 /
b10010 !
b10010 8
1(
1%
#73000
0(
0%
#73500
04
bx =
bx "
bx ,
b10011 5
13
1$
b1 7
1(
1%
#74000
0(
0%
#74500
b10 7
03
0$
b1100100 =
b1100100 "
b1100100 ,
1(
1%
#75000
0(
0%
#75500
b1101001 2
b10011 0
b11 7
1(
1%
#76000
0(
0%
#76500
14
b10100 6
b100 7
b1101001 1
b1101001 #
b1101001 :
b10011 /
b10011 !
b10011 8
1(
1%
#77000
0(
0%
#77500
04
bx =
bx "
bx ,
b10100 5
13
1$
b1 7
1(
1%
#78000
0(
0%
#78500
b10 7
03
0$
b1101001 =
b1101001 "
b1101001 ,
1(
1%
#79000
0(
0%
#79500
b1101110 2
b10100 0
b11 7
1(
1%
#80000
0(
0%
#80500
14
b10101 6
b100 7
b1101110 1
b1101110 #
b1101110 :
b10100 /
b10100 !
b10100 8
1(
1%
#81000
0(
0%
#81500
04
bx =
bx "
bx ,
b10101 5
13
1$
b1 7
1(
1%
#82000
0(
0%
#82500
b10 7
03
0$
b1101110 =
b1101110 "
b1101110 ,
1(
1%
#83000
0(
0%
#83500
b1110011 2
b10101 0
b11 7
1(
1%
#84000
0(
0%
#84500
14
b10110 6
b100 7
b1110011 1
b1110011 #
b1110011 :
b10101 /
b10101 !
b10101 8
1(
1%
#85000
0(
0%
#85500
04
bx =
bx "
bx ,
b10110 5
13
1$
b1 7
1(
1%
#86000
0(
0%
#86500
b10 7
03
0$
b1110011 =
b1110011 "
b1110011 ,
1(
1%
#87000
0(
0%
#87500
b1111000 2
b10110 0
b11 7
1(
1%
#88000
0(
0%
#88500
14
b10111 6
b100 7
b1111000 1
b1111000 #
b1111000 :
b10110 /
b10110 !
b10110 8
1(
1%
#89000
0(
0%
#89500
04
bx =
bx "
bx ,
b10111 5
13
1$
b1 7
1(
1%
#90000
0(
0%
#90500
b10 7
03
0$
b1111000 =
b1111000 "
b1111000 ,
1(
1%
#91000
0(
0%
#91500
b1111101 2
b10111 0
b11 7
1(
1%
#92000
0(
0%
#92500
14
b11000 6
b100 7
b1111101 1
b1111101 #
b1111101 :
b10111 /
b10111 !
b10111 8
1(
1%
#93000
0(
0%
#93500
04
bx =
bx "
bx ,
b11000 5
13
1$
b1 7
1(
1%
#94000
0(
0%
#94500
b10 7
03
0$
b1111101 =
b1111101 "
b1111101 ,
1(
1%
#95000
0(
0%
#95500
b10000010 2
b11000 0
b11 7
1(
1%
#96000
0(
0%
#96500
14
b11001 6
b100 7
b10000010 1
b10000010 #
b10000010 :
b11000 /
b11000 !
b11000 8
1(
1%
#97000
0(
0%
#97500
04
bx =
bx "
bx ,
b11001 5
13
1$
b1 7
1(
1%
#98000
0(
0%
#98500
b10 7
03
0$
b10000010 =
b10000010 "
b10000010 ,
1(
1%
#99000
0(
0%
#99500
b10000111 2
b11001 0
b11 7
1(
1%
#100000
0(
0%
#100500
14
b11010 6
b100 7
b10000111 1
b10000111 #
b10000111 :
b11001 /
b11001 !
b11001 8
1(
1%
#101000
0(
0%
#101500
04
bx =
bx "
bx ,
b11010 5
13
1$
b1 7
1(
1%
#102000
0(
0%
#102500
b10 7
03
0$
b10000111 =
b10000111 "
b10000111 ,
1(
1%
#103000
0(
0%
#103500
b10001100 2
b11010 0
b11 7
1(
1%
#104000
0(
0%
#104500
1.
14
b11011 6
b100 7
b10001100 1
b10001100 #
b10001100 :
b11010 /
b11010 !
b11010 8
1(
1%
#105000
0(
0%
#105500
04
bx =
bx "
bx ,
b11011 5
13
1$
1-
1&
b1 7
1(
1%
#106000
0(
0%
#106500
03
0$
b10001100 =
b10001100 "
b10001100 ,
1(
1%
#107000
0(
0%
#107500
1(
1%
#108000
0(
0%
#108500
1(
1%
#109000
0(
0%
#109500
1(
1%
#110000
0(
0%
#110500
1(
1%
#111000
0(
0%
#111500
1(
1%
#112000
0(
0%
#112500
1(
1%
#113000
0(
0%
#113500
1(
1%
#114000
0(
0%
#114500
1(
1%
#115000
0(
0%
#115500
1(
1%
#116000
0(
0%
#116500
1(
1%
#117000
0(
0%
#117500
1(
1%
#118000
0(
0%
#118500
1(
1%
#119000
0(
0%
#119500
1(
1%
#120000
0(
0%
#120500
1(
1%
#120600
b11010 )
