proyectoLeon/codigo/rc5/version2/SL.vcd
$date
	Sat Oct 31 17:55:24 2015
$end
$version
	Icarus Verilog
$end
$timescale
	10ps
$end
$scope module testbench $end
$var reg 1 ! clk $end
$var integer 32 " i [31:0] $end
$var reg 128 # key [127:0] $end
$var reg 1 $ rst $end
$scope module SL $end
$var wire 2 % L_address [1:0] $end
$var wire 1 & L_done $end
$var wire 32 ' L_sub_i [31:0] $end
$var wire 32 ( L_sub_i_prima [31:0] $end
$var wire 1 ) L_we $end
$var wire 5 * S_address [4:0] $end
$var wire 1 + S_done $end
$var wire 32 , S_sub_i [31:0] $end
$var wire 32 - S_sub_i_prima [31:0] $end
$var wire 1 . S_we $end
$var wire 1 / clk $end
$var wire 4 0 key_address [3:0] $end
$var wire 8 1 key_sub_i [7:0] $end
$var wire 1 2 rst $end
$scope module S $end
$var wire 1 / clk $end
$var wire 32 3 iS_sub_i [31:0] $end
$var wire 1 2 rst $end
$var reg 1 4 oDone $end
$var reg 5 5 oS_address [4:0] $end
$var reg 32 6 oS_sub_i_prima [31:0] $end
$var reg 1 7 oS_we $end
$var reg 5 8 rCount [4:0] $end
$var reg 3 9 state [2:0] $end
$upscope $end
$scope module S_RAM $end
$var wire 5 : addr_a [4:0] $end
$var wire 5 ; addr_b [4:0] $end
$var wire 1 / clk $end
$var wire 32 < data_a [31:0] $end
$var wire 32 = data_b [31:0] $end
$var wire 1 . we_a $end
$var wire 1 > we_b $end
$var reg 32 ? q_a [31:0] $end
$var reg 32 @ q_b [31:0] $end
$upscope $end
$scope module L $end
$var wire 32 A L_sub_i [31:0] $end
$var wire 1 / clk $end
$var wire 8 B key_sub_i [7:0] $end
$var wire 1 2 rst $end
$var reg 2 C L_address [1:0] $end
$var reg 32 D L_sub_i_prima [31:0] $end
$var reg 1 E L_we $end
$var reg 4 F count [3:0] $end
$var reg 1 G done $end
$var reg 4 H key_address [3:0] $end
$var reg 3 I state [2:0] $end
$upscope $end
$scope module key_RAM $end
$var wire 4 J addr_a [3:0] $end
$var wire 4 K addr_b [3:0] $end
$var wire 1 / clk $end
$var wire 8 L data_a [7:0] $end
$var wire 8 M data_b [7:0] $end
$var wire 1 N we_a $end
$var wire 1 O we_b $end
$var reg 8 P q_a [7:0] $end
$var reg 8 Q q_b [7:0] $end
$upscope $end
$scope module L_RAM $end
$var wire 2 R addr_a [1:0] $end
$var wire 2 S addr_b [1:0] $end
$var wire 1 / clk $end
$var wire 32 T data_a [31:0] $end
$var wire 32 U data_b [31:0] $end
$var wire 1 ) we_a $end
$var wire 1 V we_b $end
$var reg 32 W q_a [31:0] $end
$var reg 32 X q_b [31:0] $end
$upscope $end
$upscope $end
$upscope $end
$enddefinitions $end
#0
$dumpvars
bx X
bx W
0V
b0 U
bx T
b0 S
bx R
bx Q
bx P
0O
0N
b0 M
b0 L
b0 K
bx J
bx I
bx H
xG
bx F
xE
bx D
bx C
bx B
bx A
bx @
bx ?
0>
b0 =
bx <
b0 ;
bx :
bx 9
bx 8
x7
bx 6
bx 5
x4
bx 3
02
bx 1
bx 0
0/
x.
bx -
bx ,
x+
bx *
x)
bx (
bx '
x&
bx %
0$
b11111111111111101110111011100101100001101000010011111111111100000101111111111110010010010011100001010011000000000000010000110100 #
b10000 "
0!
$end
#200
07
0.
04
0+
b1 8
0E
0)
0G
0&
b1111 F
b0 9
b0 I
1$
12
#500
b1010 @
b110100 Q
b0 X
1!
1/
#600
0$
02
#1000
0!
0/
#1500
b0 5
b0 *
b0 :
b11 C
b11 %
b11 R
b1111 H
b1111 0
b1111 J
b1 9
b1 I
1!
1/
#2000
0!
0/
#2500
b1010 ?
b1010 ,
b1010 3
b11111111 P
b11111111 1
b11111111 B
b0 W
b0 '
b0 A
b10 I
b10 9
1!
1/
#3000
0!
0/
#3500
b1111 6
b1111 -
b1111 <
b1 5
b1 *
b1 :
b11111111 D
b11111111 (
b11111111 T
b11 9
b11 I
1!
1/
#4000
0!
0/
#4500
1E
1)
17
1.
b1110 F
b10 8
bx ?
bx ,
bx 3
b100 I
b100 9
1!
1/
#5000
0!
0/
#5500
07
0.
0E
0)
b1110 H
b1110 0
b1110 J
b11111111 W
b11111111 '
b11111111 A
b1111 ?
b1111 ,
b1111 3
b1 9
b1 I
1!
1/
#6000
0!
0/
#6500
b11111110 P
b11111110 1
b11111110 B
b10 I
b10 9
1!
1/
#7000
0!
0/
#7500
b10100 6
b10100 -
b10100 <
b10 5
b10 *
b10 :
b111111101 D
b111111101 (
b111111101 T
b11 9
b11 I
1!
1/
#8000
0!
0/
#8500
1E
1)
17
1.
b1101 F
b11 8
bx ?
bx ,
bx 3
b100 I
b100 9
1!
1/
#9000
0!
0/
#9500
07
0.
0E
0)
b1101 H
b1101 0
b1101 J
b111111101 W
b111111101 '
b111111101 A
b10100 ?
b10100 ,
b10100 3
b1 9
b1 I
1!
1/
#10000
0!
0/
#10500
b11101110 P
b11101110 1
b11101110 B
b10 I
b10 9
1!
1/
#11000
0!
0/
#11500
b11001 6
b11001 -
b11001 <
b11 5
b11 *
b11 :
b1011101011 D
b1011101011 (
b1011101011 T
b11 9
b11 I
1!
1/
#12000
0!
0/
#12500
1E
1)
17
1.
b1100 F
b100 8
bx ?
bx ,
bx 3
b100 I
b100 9
1!
1/
#13000
0!
0/
#13500
07
0.
0E
0)
b1100 H
b1100 0
b1100 J
b1011101011 W
b1011101011 '
b1011101011 A
b11001 ?
b11001 ,
b11001 3
b1 9
b1 I
1!
1/
#14000
0!
0/
#14500
b11100101 P
b11100101 1
b11100101 B
b10 I
b10 9
1!
1/
#15000
0!
0/
#15500
b11110 6
b11110 -
b11110 <
b100 5
b100 *
b100 :
b1111010000 D
b1111010000 (
b1111010000 T
b11 9
b11 I
1!
1/
#16000
0!
0/
#16500
1E
1)
17
1.
b1011 F
b101 8
bx ?
bx ,
bx 3
b100 I
b100 9
1!
1/
#17000
0!
0/
#17500
07
0.
0E
0)
b10 C
b10 %
b10 R
b1011 H
b1011 0
b1011 J
b1111010000 W
b1111010000 '
b1111010000 A
b11110 ?
b11110 ,
b11110 3
b1 9
b1 I
1!
1/
#18000
0!
0/
#18500
b10000110 P
b10000110 1
b10000110 B
b0 W
b0 '
b0 A
b10 I
b10 9
1!
1/
#19000
0!
0/
#19500
b100011 6
b100011 -
b100011 <
b101 5
b101 *
b101 :
b10000110 D
b10000110 (
b10000110 T
b11 9
b11 I
1!
1/
#20000
0!
0/
#20500
1E
1)
17
1.
b1010 F
b110 8
bx ?
bx ,
bx 3
b100 I
b100 9
1!
1/
#21000
0!
0/
#21500
07
0.
0E
0)
b1010 H
b1010 0
b1010 J
b10000110 W
b10000110 '
b10000110 A
b100011 ?
b100011 ,
b100011 3
b1 9
b1 I
1!
1/
#22000
0!
0/
#22500
b10000100 P
b10000100 1
b10000100 B
b10 I
b10 9
1!
1/
#23000
0!
0/
#23500
b101000 6
b101000 -
b101000 <
b110 5
b110 *
b110 :
b100001010 D
b100001010 (
b100001010 T
b11 9
b11 I
1!
1/
#24000
0!
0/
#24500
1E
1)
17
1.
b1001 F
b111 8
bx ?
bx ,
bx 3
b100 I
b100 9
1!
1/
#25000
0!
0/
#25500
07
0.
0E
0)
b1001 H
b1001 0
b1001 J
b100001010 W
b100001010 '
b100001010 A
b101000 ?
b101000 ,
b101000 3
b1 9
b1 I
1!
1/
#26000
0!
0/
#26500
b11111111 P
b11111111 1
b11111111 B
b10 I
b10 9
1!
1/
#27000
0!
0/
#27500
b101101 6
b101101 -
b101101 <
b111 5
b111 *
b111 :
b1000001001 D
b1000001001 (
b1000001001 T
b11 9
b11 I
1!
1/
#28000
0!
0/
#28500
1E
1)
17
1.
b1000 F
b1000 8
bx ?
bx ,
bx 3
b100 I
b100 9
1!
1/
#29000
0!
0/
#29500
07
0.
0E
0)
b1000 H
b1000 0
b1000 J
b1000001001 W
b1000001001 '
b1000001001 A
b101101 ?
b101101 ,
b101101 3
b1 9
b1 I
1!
1/
#30000
0!
0/
#30500
b11110000 P
b11110000 1
b11110000 B
b10 I
b10 9
1!
1/
#31000
0!
0/
#31500
b110010 6
b110010 -
b110010 <
b1000 5
b1000 *
b1000 :
b1011111001 D
b1011111001 (
b1011111001 T
b11 9
b11 I
1!
1/
#32000
0!
0/
#32500
1E
1)
17
1.
b111 F
b1001 8
bx ?
bx ,
bx 3
b100 I
b100 9
1!
1/
#33000
0!
0/
#33500
07
0.
0E
0)
b1 C
b1 %
b1 R
b111 H
b111 0
b111 J
b1011111001 W
b1011111001 '
b1011111001 A
b110010 ?
b110010 ,
b110010 3
b1 9
b1 I
1!
1/
#34000
0!
0/
#34500
b1011111 P
b1011111 1
b1011111 B
b0 W
b0 '
b0 A
b10 I
b10 9
1!
1/
#35000
0!
0/
#35500
b110111 6
b110111 -
b110111 <
b1001 5
b1001 *
b1001 :
b1011111 D
b1011111 (
b1011111 T
b11 9
b11 I
1!
1/
#36000
0!
0/
#36500
1E
1)
17
1.
b110 F
b1010 8
bx ?
bx ,
bx 3
b100 I
b100 9
1!
1/
#37000
0!
0/
#37500
07
0.
0E
0)
b110 H
b110 0
b110 J
b1011111 W
b1011111 '
b1011111 A
b110111 ?
b110111 ,
b110111 3
b1 9
b1 I
1!
1/
#38000
0!
0/
#38500
b11111110 P
b11111110 1
b11111110 B
b10 I
b10 9
1!
1/
#39000
0!
0/
#39500
b111100 6
b111100 -
b111100 <
b1010 5
b1010 *
b1010 :
b101011101 D
b101011101 (
b101011101 T
b11 9
b11 I
1!
1/
#40000
0!
0/
#40500
1E
1)
17
1.
b101 F
b1011 8
bx ?
bx ,
bx 3
b100 I
b100 9
1!
1/
#41000
0!
0/
#41500
07
0.
0E
0)
b101 H
b101 0
b101 J
b101011101 W
b101011101 '
b101011101 A
b111100 ?
b111100 ,
b111100 3
b1 9
b1 I
1!
1/
#42000
0!
0/
#42500
b1001001 P
b1001001 1
b1001001 B
b10 I
b10 9
1!
1/
#43000
0!
0/
#43500
b1000001 6
b1000001 -
b1000001 <
b1011 5
b1011 *
b1011 :
b110100110 D
b110100110 (
b110100110 T
b11 9
b11 I
1!
1/
#44000
0!
0/
#44500
1E
1)
17
1.
b100 F
b1100 8
bx ?
bx ,
bx 3
b100 I
b100 9
1!
1/
#45000
0!
0/
#45500
07
0.
0E
0)
b100 H
b100 0
b100 J
b110100110 W
b110100110 '
b110100110 A
b1000001 ?
b1000001 ,
b1000001 3
b1 9
b1 I
1!
1/
#46000
0!
0/
#46500
b111000 P
b111000 1
b111000 B
b10 I
b10 9
1!
1/
#47000
0!
0/
#47500
b1000110 6
b1000110 -
b1000110 <
b1100 5
b1100 *
b1100 :
b111011110 D
b111011110 (
b111011110 T
b11 9
b11 I
1!
1/
#48000
0!
0/
#48500
1E
1)
17
1.
b11 F
b1101 8
bx ?
bx ,
bx 3
b100 I
b100 9
1!
1/
#49000
0!
0/
#49500
07
0.
0E
0)
b0 C
b0 %
b0 R
b11 H
b11 0
b11 J
b111011110 W
b111011110 '
b111011110 A
b1000110 ?
b1000110 ,
b1000110 3
b1 9
b1 I
1!
1/
#50000
0!
0/
#50500
b1010011 P
b1010011 1
b1010011 B
b0 W
b0 '
b0 A
b10 I
b10 9
1!
1/
#51000
0!
0/
#51500
b1001011 6
b1001011 -
b1001011 <
b1101 5
b1101 *
b1101 :
b1010011 D
b1010011 (
b1010011 T
b11 9
b11 I
1!
1/
#52000
0!
0/
#52500
1E
1)
17
1.
b10 F
b1110 8
bx ?
bx ,
bx 3
b100 I
b100 9
1!
1/
#53000
0!
0/
#53500
07
0.
0E
0)
b10 H
b10 0
b10 J
b1010011 W
b1010011 '
b1010011 A
b1001011 ?
b1001011 ,
b1001011 3
b1 9
b1 I
1!
1/
#54000
0!
0/
#54500
b0 P
b0 1
b0 B
b1010011 X
b10 I
b10 9
1!
1/
#55000
0!
0/
#55500
b1010000 6
b1010000 -
b1010000 <
b1110 5
b1110 *
b1110 :
b11 9
b11 I
1!
1/
#56000
0!
0/
#56500
1E
1)
17
1.
b1 F
b1111 8
bx ?
bx ,
bx 3
b100 I
b100 9
1!
1/
#57000
0!
0/
#57500
07
0.
0E
0)
b1 H
b1 0
b1 J
b1010000 ?
b1010000 ,
b1010000 3
b1 9
b1 I
1!
1/
#58000
0!
0/
#58500
b100 P
b100 1
b100 B
b10 I
b10 9
1!
1/
#59000
0!
0/
#59500
b1010101 6
b1010101 -
b1010101 <
b1111 5
b1111 *
b1111 :
b1010111 D
b1010111 (
b1010111 T
b11 9
b11 I
1!
1/
#60000
0!
0/
#60500
1E
1)
17
1.
b0 F
b10000 8
bx ?
bx ,
bx 3
b100 I
b100 9
1!
1/
#61000
0!
0/
#61500
07
0.
0E
0)
b0 H
b0 0
b0 J
b1010111 W
b1010111 '
b1010111 A
b1010101 ?
b1010101 ,
b1010101 3
b1 9
b1 I
1!
1/
#62000
0!
0/
#62500
b110100 P
b110100 1
b110100 B
b1010111 X
b10 I
b10 9
1!
1/
#63000
0!
0/
#63500
b1011010 6
b1011010 -
b1011010 <
b10000 5
b10000 *
b10000 :
b10001011 D
b10001011 (
b10001011 T
b11 9
b11 I
1!
1/
#64000
0!
0/
#64500
1G
1&
1E
1)
17
1.
b1111 F
b10001 8
bx ?
bx ,
bx 3
b100 I
b100 9
1!
1/
#65000
0!
0/
#65500
07
0.
0E
0)
b11 C
b11 %
b11 R
b1111 H
b1111 0
b1111 J
b10001011 W
b10001011 '
b10001011 A
b1011010 ?
b1011010 ,
b1011010 3
b1 9
b1 I
1!
1/
#66000
0!
0/
#66500
b11111111 P
b11111111 1
b11111111 B
b1111010000 W
b1111010000 '
b1111010000 A
b10001011 X
b10 9
1!
1/
#67000
0!
0/
#67500
b1011111 6
b1011111 -
b1011111 <
b10001 5
b10001 *
b10001 :
b11 9
1!
1/
#68000
0!
0/
#68500
17
1.
b10010 8
bx ?
bx ,
bx 3
b100 9
1!
1/
#69000
0!
0/
#69500
07
0.
b1011111 ?
b1011111 ,
b1011111 3
b1 9
1!
1/
#70000
0!
0/
#70500
b10 9
1!
1/
#71000
0!
0/
#71500
b1100100 6
b1100100 -
b1100100 <
b10010 5
b10010 *
b10010 :
b11 9
1!
1/
#72000
0!
0/
#72500
17
1.
b10011 8
bx ?
bx ,
bx 3
b100 9
1!
1/
#73000
0!
0/
#73500
07
0.
b1100100 ?
b1100100 ,
b1100100 3
b1 9
1!
1/
#74000
0!
0/
#74500
b10 9
1!
1/
#75000
0!
0/
#75500
b1101001 6
b1101001 -
b1101001 <
b10011 5
b10011 *
b10011 :
b11 9
1!
1/
#76000
0!
0/
#76500
17
1.
b10100 8
bx ?
bx ,
bx 3
b100 9
1!
1/
#77000
0!
0/
#77500
07
0.
b1101001 ?
b1101001 ,
b1101001 3
b1 9
1!
1/
#78000
0!
0/
#78500
b10 9
1!
1/
#79000
0!
0/
#79500
b1101110 6
b1101110 -
b1101110 <
b10100 5
b10100 *
b10100 :
b11 9
1!
1/
#80000
0!
0/
#80500
17
1.
b10101 8
bx ?
bx ,
bx 3
b100 9
1!
1/
#81000
0!
0/
#81500
07
0.
b1101110 ?
b1101110 ,
b1101110 3
b1 9
1!
1/
#82000
0!
0/
#82500
b10 9
1!
1/
#83000
0!
0/
#83500
b1110011 6
b1110011 -
b1110011 <
b10101 5
b10101 *
b10101 :
b11 9
1!
1/
#84000
0!
0/
#84500
17
1.
b10110 8
bx ?
bx ,
bx 3
b100 9
1!
1/
#85000
0!
0/
#85500
07
0.
b1110011 ?
b1110011 ,
b1110011 3
b1 9
1!
1/
#86000
0!
0/
#86500
b10 9
1!
1/
#87000
0!
0/
#87500
b1111000 6
b1111000 -
b1111000 <
b10110 5
b10110 *
b10110 :
b11 9
1!
1/
#88000
0!
0/
#88500
17
1.
b10111 8
bx ?
bx ,
bx 3
b100 9
1!
1/
#89000
0!
0/
#89500
07
0.
b1111000 ?
b1111000 ,
b1111000 3
b1 9
1!
1/
#90000
0!
0/
#90500
b10 9
1!
1/
#91000
0!
0/
#91500
b1111101 6
b1111101 -
b1111101 <
b10111 5
b10111 *
b10111 :
b11 9
1!
1/
#92000
0!
0/
#92500
17
1.
b11000 8
bx ?
bx ,
bx 3
b100 9
1!
1/
#93000
0!
0/
#93500
07
0.
b1111101 ?
b1111101 ,
b1111101 3
b1 9
1!
1/
#94000
0!
0/
#94500
b10 9
1!
1/
#95000
0!
0/
#95500
b10000010 6
b10000010 -
b10000010 <
b11000 5
b11000 *
b11000 :
b11 9
1!
1/
#96000
0!
0/
#96500
17
1.
b11001 8
bx ?
bx ,
bx 3
b100 9
1!
1/
#97000
0!
0/
#97500
07
0.
b10000010 ?
b10000010 ,
b10000010 3
b1 9
1!
1/
#98000
0!
0/
#98500
b10 9
1!
1/
#99000
0!
0/
#99500
b10000111 6
b10000111 -
b10000111 <
b11001 5
b11001 *
b11001 :
b11 9
1!
1/
#100000
0!
0/
#100500
14
1+
17
1.
b11010 8
bx ?
bx ,
bx 3
b100 9
1!
1/
#101000
0!
0/
#101500
07
0.
b10000111 ?
b10000111 ,
b10000111 3
b1 9
1!
1/
