proyectoLeon/codigo/tea/version1/cipher.vcd
$date
	Sun Nov 29 23:26:03 2015
$end
$version
	Icarus Verilog
$end
$timescale
	10ps
$end
$scope module testbench $end
$var wire 32 ! A_decipher [31:0] $end
$var wire 32 " B_decipher [31:0] $end
$var wire 1 # done $end
$var reg 32 $ A [31:0] $end
$var reg 32 % B [31:0] $end
$var reg 1 & clk $end
$var reg 32 ' key0 [31:0] $end
$var reg 32 ( key1 [31:0] $end
$var reg 32 ) key2 [31:0] $end
$var reg 32 * key3 [31:0] $end
$var reg 1 + rst $end
$scope module dut $end
$var wire 1 , clk $end
$var wire 32 - iK0 [31:0] $end
$var wire 32 . iK1 [31:0] $end
$var wire 32 / iK2 [31:0] $end
$var wire 32 0 iK3 [31:0] $end
$var wire 32 1 iV0 [31:0] $end
$var wire 32 2 iV1 [31:0] $end
$var wire 1 3 rst $end
$var reg 32 4 oC0 [31:0] $end
$var reg 32 5 oC0_nxt [31:0] $end
$var reg 32 6 oC1 [31:0] $end
$var reg 32 7 oC1_nxt [31:0] $end
$var reg 1 8 oDone $end
$var reg 1 9 oDone_nxt $end
$var reg 32 : rAux1 [31:0] $end
$var reg 32 ; rAux1_nxt [31:0] $end
$var reg 32 < rAux2 [31:0] $end
$var reg 32 = rAux2_nxt [31:0] $end
$var reg 32 > rAux3 [31:0] $end
$var reg 32 ? rAux3_nxt [31:0] $end
$var reg 5 @ rCount [4:0] $end
$var reg 5 A rCount_nxt [4:0] $end
$var reg 4 B state [3:0] $end
$var reg 32 C sum [31:0] $end
$var reg 32 D sum_nxt [31:0] $end
$upscope $end
$upscope $end
$enddefinitions $end
#0
$dumpvars
bx D
bx C
bx B
bx A
bx @
bx ?
bx >
bx =
bx <
bx ;
bx :
x9
x8
bx 7
bx 6
bx 5
bx 4
03
b100011010111111100101100100001 2
b111101010001011111011110100111 1
b1000101001100111111001000110101 0
b110010001101011010110010111110 /
b100011010010101100101101000101 .
b10011001010101100111101000010 -
0,
0+
b1000101001100111111001000110101 *
b110010001101011010110010111110 )
b100011010010101100101101000101 (
b10011001010101100111101000010 '
0&
b100011010111111100101100100001 %
b111101010001011111011110100111 $
x#
bx "
bx !
$end
#200
1+
13
#500
09
b0 A
b0 D
b100011010111111100101100100001 7
b111101010001011111011110100111 5
b0 ?
b0 =
b0 ;
b0 B
08
0#
b0 @
b0 C
b100011010111111100101100100001 6
b100011010111111100101100100001 "
b111101010001011111011110100111 4
b111101010001011111011110100111 !
b0 >
b0 <
b0 :
1&
1,
#600
0+
03
#1000
0&
0,
#1500
b10011110001101110111100110111001 D
b1 B
1&
1,
#2000
0&
0,
#2500
b1001001001001111000000101010010 ;
b10 B
b10011110001101110111100110111001 C
1&
1,
#3000
0&
0,
#3500
b11000001100101110100010011011010 =
b1001001001001111000000101010010 :
b11 B
1&
1,
#4000
0&
0,
#4500
b100100011001011100100110011110 ?
b100 B
b11000001100101110100010011011010 <
1&
1,
#5000
0&
0,
#5500
b10101100110101010000110000010110 ?
b100100011001011100100110011110 >
b101 B
1&
1,
#6000
0&
0,
#6500
b11101010000110110000001110111101 5
b110 B
b10101100110101010000110000010110 >
1&
1,
#7000
0&
0,
#7500
b11010011111001011110100010001110 ;
b11101010000110110000001110111101 4
b11101010000110110000001110111101 !
b111 B
1&
1,
#8000
0&
0,
#8500
b10001000010100100111110101110110 =
b1000 B
b11010011111001011110100010001110 :
1&
1,
#9000
0&
0,
#9500
b1001100100001001100101001010010 ?
b10001000010100100111110101110110 <
b1001 B
1&
1,
#10000
0&
0,
#10500
b10111001100110101111110101010 ?
b1010 B
b1001100100001001100101001010010 >
1&
1,
#11000
0&
0,
#11500
b1 A
b111010100100110010101011001011 7
b10111001100110101111110101010 >
b1011 B
1&
1,
#12000
0&
0,
#12500
b1100 B
b1 @
b111010100100110010101011001011 6
b111010100100110010101011001011 "
1&
1,
#13000
0&
0,
#13500
b111100011011101111001101110010 D
b1 B
1&
1,
#14000
0&
0,
#14500
b10111100010111010111101111110010 ;
b10 B
b111100011011101111001101110010 C
1&
1,
#15000
0&
0,
#15500
b1110111000000100001111000111101 =
b10111100010111010111101111110010 :
b11 B
1&
1,
#16000
0&
0,
#16500
b100101000111110110010010011011 ?
b100 B
b1110111000000100001111000111101 <
1&
1,
#17000
0&
0,
#17500
b11101110010000000000000101010100 ?
b100101000111110110010010011011 >
b101 B
1&
1,
#18000
0&
0,
#18500
b11011000010110110000010100010001 5
b110 B
b11101110010000000000000101010100 >
1&
1,
#19000
0&
0,
#19500
b10110111111001011111110111001110 ;
b11011000010110110000010100010001 4
b11011000010110110000010100010001 !
b111 B
1&
1,
#20000
0&
0,
#20500
b10100110010011111100010000011 =
b1000 B
b10110111111001011111110111001110 :
1&
1,
#21000
0&
0,
#21500
b1001011111101101100101001011101 ?
b10100110010011111100010000011 <
b1001 B
1&
1,
#22000
0&
0,
#22500
b11101000110110101100111100010000 ?
b1010 B
b1001011111101101100101001011101 >
1&
1,
#23000
0&
0,
#23500
b10 A
b100011011011011111100111011011 7
b11101000110110101100111100010000 >
b1011 B
1&
1,
#24000
0&
0,
#24500
b1100 B
b10 @
b100011011011011111100111011011 6
b100011011011011111100111011011 "
1&
1,
#25000
0&
0,
#25500
b11011010101001100110110100101011 D
b1 B
1&
1,
#26000
0&
0,
#26500
b1001010000010100110110011110010 ;
b10 B
b11011010101001100110110100101011 C
1&
1,
#27000
0&
0,
#27500
b11111110000101000110011100000110 =
b1001010000010100110110011110010 :
b11 B
1&
1,
#28000
0&
0,
#28500
b100100011001100011101100010011 ?
b100 B
b11111110000101000110011100000110 <
1&
1,
#29000
0&
0,
#29500
b10010000011110000011000011100111 ?
b100100011001100011101100010011 >
b101 B
1&
1,
#30000
0&
0,
#30500
b1101000110100110011010111111000 5
b110 B
b10010000011110000011000011100111 >
1&
1,
#31000
0&
0,
#31500
b10111111011010010000110000111110 ;
b1101000110100110011010111111000 4
b1101000110100110011010111111000 !
b111 B
1&
1,
#32000
0&
0,
#32500
b1000011011110011010001100100011 =
b1000 B
b10111111011010010000110000111110 :
1&
1,
#33000
0&
0,
#33500
b1001000011110101000101111100100 ?
b1000011011110011010001100100011 <
b1001 B
1&
1,
#34000
0&
0,
#34500
b10110100011010100010010011111001 ?
b1010 B
b1001000011110101000101111100100 >
1&
1,
#35000
0&
0,
#35500
b11 A
b11010111110110000001111011010100 7
b10110100011010100010010011111001 >
b1011 B
1&
1,
#36000
0&
0,
#36500
b1100 B
b11 @
b11010111110110000001111011010100 6
b11010111110110000001111011010100 "
1&
1,
#37000
0&
0,
#37500
b1111000110111011110011011100100 D
b1 B
1&
1,
#38000
0&
0,
#38500
b10010000101011001011110010000010 ;
b10 B
b1111000110111011110011011100100 C
1&
1,
#39000
0&
0,
#39500
b1010000101101100000010110111000 =
b10010000101011001011110010000010 :
b11 B
1&
1,
#40000
0&
0,
#40500
b101010000010011000110000111011 ?
b100 B
b1010000101101100000010110111000 <
1&
1,
#41000
0&
0,
#41500
b11101010000100110011010100000001 ?
b101010000010011000110000111011 >
b101 B
1&
1,
#42000
0&
0,
#42500
b1010010111001100110101011111001 5
b110 B
b11101010000100110011010100000001 >
1&
1,
#43000
0&
0,
#43500
b1100000100111000101110001001110 ;
b1010010111001100110101011111001 4
b1010010111001100110101011111001 !
b111 B
1&
1,
#44000
0&
0,
#44500
b11001011110001000101000111011101 =
b1000 B
b1100000100111000101110001001110 :
1&
1,
#45000
0&
0,
#45500
b1000111110010110010010110001100 ?
b11001011110001000101000111011101 <
b1001 B
1&
1,
#46000
0&
0,
#46500
b11101100100100110010100000011111 ?
b1010 B
b1000111110010110010010110001100 >
1&
1,
#47000
0&
0,
#47500
b100 A
b11000100011010110100011011110011 7
b11101100100100110010100000011111 >
b1011 B
1&
1,
#48000
0&
0,
#48500
b1100 B
b100 @
b11000100011010110100011011110011 6
b11000100011010110100011011110011 "
1&
1,
#49000
0&
0,
#49500
b10111000101010110000010011101 D
b1 B
1&
1,
#50000
0&
0,
#50500
b1011001110111110011111001110010 ;
b10 B
b10111000101010110000010011101 C
1&
1,
#51000
0&
0,
#51500
b11011011100000001010011110010000 =
b1011001110111110011111001110010 :
b11 B
1&
1,
#52000
0&
0,
#52500
b101001011011100010010101111100 ?
b100 B
b11011011100000001010011110010000 <
1&
1,
#53000
0&
0,
#53500
b10101011001100011011110010011110 ?
b101001011011100010010101111100 >
b101 B
1&
1,
#54000
0&
0,
#54500
b11111110000110000010011110010111 5
b110 B
b10101011001100011011110010011110 >
1&
1,
#55000
0&
0,
#55500
b10011101110000010011000101110 ;
b11111110000110000010011110010111 4
b11111110000110000010011110010111 !
b111 B
1&
1,
#56000
0&
0,
#56500
b10101001011011000100000110100 =
b1000 B
b10011101110000010011000101110 :
1&
1,
#57000
0&
0,
#57500
b1001101001001001011001101110001 ?
b10101001011011000100000110100 <
b1001 B
1&
1,
#58000
0&
0,
#58500
b1001011101100010001110101101011 ?
b1010 B
b1001101001001001011001101110001 >
1&
1,
#59000
0&
0,
#59500
b101 A
b10000000111000110010001011110 7
b1001011101100010001110101101011 >
b1011 B
1&
1,
#60000
0&
0,
#60500
b1100 B
b101 @
b10000000111000110010001011110 6
b10000000111000110010001011110 "
1&
1,
#61000
0&
0,
#61500
b10110101010011001101101001010110 D
b1 B
1&
1,
#62000
0&
0,
#62500
b10100111100010001010100100010 ;
b10 B
b10110101010011001101101001010110 C
1&
1,
#63000
0&
0,
#63500
b11000101011010010011111010110100 =
b10100111100010001010100100010 :
b11 B
1&
1,
#64000
0&
0,
#64500
b100011110010111010111001100111 ?
b100 B
b11000101011010010011111010110100 <
1&
1,
#65000
0&
0,
#65500
b11110010010100111000010111110001 ?
b100011110010111010111001100111 >
b101 B
1&
1,
#66000
0&
0,
#66500
b11110000011010111010110110001000 5
b110 B
b11110010010100111000010111110001 >
1&
1,
#67000
0&
0,
#67500
b111000111100001000010100111110 ;
b11110000011010111010110110001000 4
b11110000011010111010110110001000 !
b111 B
1&
1,
#68000
0&
0,
#68500
b10100101101110001000011111011110 =
b1000 B
b111000111100001000010100111110 :
1&
1,
#69000
0&
0,
#69500
b1001100101101110100111110100001 ?
b10100101101110001000011111011110 <
b1001 B
1&
1,
#70000
0&
0,
#70500
b11010001111111110100110101000001 ?
b1010 B
b1001100101101110100111110100001 >
1&
1,
#71000
0&
0,
#71500
b110 A
b11100010000110111011000110011111 7
b11010001111111110100110101000001 >
b1011 B
1&
1,
#72000
0&
0,
#72500
b1100 B
b110 @
b11100010000110111011000110011111 6
b11100010000110111011000110011111 "
1&
1,
#73000
0&
0,
#73500
b1010011100001000101010000001111 D
b1 B
1&
1,
#74000
0&
0,
#74500
b110100111001011110100100110010 ;
b10 B
b1010011100001000101010000001111 C
1&
1,
#75000
0&
0,
#75500
b110101101000000000010110101110 =
b110100111001011110100100110010 :
b11 B
1&
1,
#76000
0&
0,
#76500
b101010010110111010100011010001 ?
b100 B
b110101101000000000010110101110 <
1&
1,
#77000
0&
0,
#77500
b101011000111100100010001001101 ?
b101010010110111010100011010001 >
b101 B
1&
1,
#78000
0&
0,
#78500
b11011100010011111000111010101 5
b110 B
b101011000111100100010001001101 >
1&
1,
#79000
0&
0,
#79500
b11101010110101001100101000001110 ;
b11011100010011111000111010101 4
b11011100010011111000111010101 !
b111 B
1&
1,
#80000
0&
0,
#80500
b1101111000011100100010111100100 =
b1000 B
b11101010110101001100101000001110 :
1&
1,
#81000
0&
0,
#81500
b1000110000100000100000111000011 ?
b1101111000011100100010111100100 <
b1001 B
1&
1,
#82000
0&
0,
#82500
b11000011110010101100111000101001 ?
b1010 B
b1000110000100000100000111000011 >
1&
1,
#83000
0&
0,
#83500
b111 A
b10100101111001100111111111001000 7
b11000011110010101100111000101001 >
b1011 B
1&
1,
#84000
0&
0,
#84500
b1100 B
b111 @
b10100101111001100111111111001000 6
b10100101111001100111111111001000 "
1&
1,
#85000
0&
0,
#85500
b11110001101110111100110111001000 D
b1 B
1&
1,
#86000
0&
0,
#86500
b1110001100100101100101111000010 ;
b10 B
b11110001101110111100110111001000 C
1&
1,
#87000
0&
0,
#87500
b10010111101000100100110110010000 =
b1110001100100101100101111000010 :
b11 B
1&
1,
#88000
0&
0,
#88500
b101000011110011111111101000011 ?
b100 B
b10010111101000100100110110010000 <
1&
1,
#89000
0&
0,
#89500
b11001110010010010111100100010001 ?
b101000011110011111111101000011 >
b101 B
1&
1,
#90000
0&
0,
#90500
b11101001110100110110101011100110 5
b110 B
b11001110010010010111100100010001 >
1&
1,
#91000
0&
0,
#91500
b11001111011011000101101100011110 ;
b11101001110100110110101011100110 4
b11101001110100110110101011100110 !
b111 B
1&
1,
#92000
0&
0,
#92500
b11011011100011110011100010101110 =
b1000 B
b11001111011011000101101100011110 :
1&
1,
#93000
0&
0,
#93500
b1001100100000101000110110001100 ?
b11011011100011110011100010101110 <
b1001 B
1&
1,
#94000
0&
0,
#94500
b1011000011000011110111000111100 ?
b1010 B
b1001100100000101000110110001100 >
1&
1,
#95000
0&
0,
#95500
b1000 A
b11111110010010000110111000000100 7
b1011000011000011110111000111100 >
b1011 B
1&
1,
#96000
0&
0,
#96500
b1100 B
b1000 @
b11111110010010000110111000000100 6
b11111110010010000110111000000100 "
1&
1,
#97000
0&
0,
#97500
b10001111111100110100011110000001 D
b1 B
1&
1,
#98000
0&
0,
#98500
b11110111101100011010111110000010 ;
b10 B
b10001111111100110100011110000001 C
1&
1,
#99000
0&
0,
#99500
b10001110001110111011010110000101 =
b11110111101100011010111110000010 :
b11 B
1&
1,
#100000
0&
0,
#100500
b101011001111010000111010110101 ?
b100 B
b10001110001110111011010110000101 <
1&
1,
#101000
0&
0,
#101500
b1010010101101110001010010110010 ?
b101011001111010000111010110101 >
b101 B
1&
1,
#102000
0&
0,
#102500
b111100100010100111111110011000 5
b110 B
b1010010101101110001010010110010 >
1&
1,
#103000
0&
0,
#103500
b11111010110111011010011000111110 ;
b111100100010100111111110011000 4
b111100100010100111111110011000 !
b111 B
1&
1,
#104000
0&
0,
#104500
b11001100011111011100011100011001 =
b1000 B
b11111010110111011010011000111110 :
1&
1,
#105000
0&
0,
#105500
b1000111000110000100011000110001 ?
b11001100011111011100011100011001 <
b1001 B
1&
1,
#106000
0&
0,
#106500
b1110001101110000010011100010110 ?
b1010 B
b1000111000110000100011000110001 >
1&
1,
#107000
0&
0,
#107500
b1001 A
b1110000000000001001010100011010 7
b1110001101110000010011100010110 >
b1011 B
1&
1,
#108000
0&
0,
#108500
b1100 B
b1001 @
b1110000000000001001010100011010 6
b1110000000000001001010100011010 "
1&
1,
#109000
0&
0,
#109500
b101110001010101100000100111010 D
b1 B
1&
1,
#110000
0&
0,
#110500
b10011001101000010000011100010 ;
b10 B
b101110001010101100000100111010 C
1&
1,
#111000
0&
0,
#111500
b10011110001010110101011001010100 =
b10011001101000010000011100010 :
b11 B
1&
1,
#112000
0&
0,
#112500
b100110110010101100111111101101 ?
b100 B
b10011110001010110101011001010100 <
1&
1,
#113000
0&
0,
#113500
b10101011110101011011100101011011 ?
b100110110010101100111111101101 >
b101 B
1&
1,
#114000
0&
0,
#114500
b11101000011000000011100011110011 5
b110 B
b10101011110101011011100101011011 >
1&
1,
#115000
0&
0,
#115500
b10111000001110010011101111101110 ;
b11101000011000000011100011110011 4
b11101000011000000011100011110011 !
b111 B
1&
1,
#116000
0&
0,
#116500
b10110100010101111101000101101 =
b1000 B
b10111000001110010011101111101110 :
1&
1,
#117000
0&
0,
#117500
b1001100011101101111001111111100 ?
b10110100010101111101000101101 <
b1001 B
1&
1,
#118000
0&
0,
#118500
b11100010110001010011001000111111 ?
b1010 B
b1001100011101101111001111111100 >
1&
1,
#119000
0&
0,
#119500
b1010 A
b1010010110001011100011101011001 7
b11100010110001010011001000111111 >
b1011 B
1&
1,
#120000
0&
0,
#120500
b1100 B
b1010 @
b1010010110001011100011101011001 6
b1010010110001011100011101011001 "
1&
1,
#121000
0&
0,
#121500
b11001100011000100011101011110011 D
b1 B
1&
1,
#122000
0&
0,
#122500
b111111100001110100010011010010 ;
b10 B
b11001100011000100011101011110011 C
1&
1,
#123000
0&
0,
#123500
b11111001010000000001001001100 =
b111111100001110100010011010010 :
b11 B
1&
1,
#124000
0&
0,
#124500
b100101111000001111100101111111 ?
b100 B
b11111001010000000001001001100 <
1&
1,
#125000
0&
0,
#125500
b101010011111011111111100001 ?
b100101111000001111100101111111 >
b101 B
1&
1,
#126000
0&
0,
#126500
b11101101101011111111100011010100 5
b110 B
b101010011111011111111100001 >
1&
1,
#127000
0&
0,
#127500
b1101001101010011100111111110 ;
b11101101101011111111100011010100 4
b11101101101011111111100011010100 !
b111 B
1&
1,
#128000
0&
0,
#128500
b10111010000100100011001111000111 =
b1000 B
b1101001101010011100111111110 :
1&
1,
#129000
0&
0,
#129500
b1001100101000010111000111111011 ?
b10111010000100100011001111000111 <
b1001 B
1&
1,
#130000
0&
0,
#130500
b11111011100001100111101111000010 ?
b1010 B
b1001100101000010111000111111011 >
1&
1,
#131000
0&
0,
#131500
b1011 A
b1001110010011000100001100011011 7
b11111011100001100111101111000010 >
b1011 B
1&
1,
#132000
0&
0,
#132500
b1100 B
b1011 @
b1001110010011000100001100011011 6
b1001110010011000100001100011011 "
1&
1,
#133000
0&
0,
#133500
b1101010100110011011010010101100 D
b1 B
1&
1,
#134000
0&
0,
#134500
b11110111111011110000000011110010 ;
b10 B
b1101010100110011011010010101100 C
1&
1,
#135000
0&
0,
#135500
b10111000111001011111011111000111 =
b11110111111011110000000011110010 :
b11 B
1&
1,
#136000
0&
0,
#136500
b100101101111010010110101011101 ?
b100 B
b10111000111001011111011111000111 <
1&
1,
#137000
0&
0,
#137500
b1101010101101111101101001101000 ?
b100101101111010010110101011101 >
b101 B
1&
1,
#138000
0&
0,
#138500
b1011000011001111101001100111100 5
b110 B
b1101010101101111101101001101000 >
1&
1,
#139000
0&
0,
#139500
b10111000101100101110000001111110 ;
b1011000011001111101001100111100 4
b1011000011001111101001100111100 !
b111 B
1&
1,
#140000
0&
0,
#140500
b11000011000000011000011111101000 =
b1000 B
b10111000101100101110000001111110 :
1&
1,
#141000
0&
0,
#141500
b1000111111101110011000011001110 ?
b11000011000000011000011111101000 <
b1001 B
1&
1,
#142000
0&
0,
#142500
b111100010001000101011101011000 ?
b1010 B
b1000111111101110011000011001110 >
1&
1,
#143000
0&
0,
#143500
b1100 A
b10001010100100001001101001110011 7
b111100010001000101011101011000 >
b1011 B
1&
1,
#144000
0&
0,
#144500
b1100 B
b1100 @
b10001010100100001001101001110011 6
b10001010100100001001101001110011 "
1&
1,
#145000
0&
0,
#145500
b1000110100010010111001100101 D
b1 B
1&
1,
#146000
0&
0,
#146500
b10111100001101000111011001110010 ;
b10 B
b1000110100010010111001100101 C
1&
1,
#147000
0&
0,
#147500
b10010011011000011100100011011000 =
b10111100001101000111011001110010 :
b11 B
1&
1,
#148000
0&
0,
#148500
b100111100111110101000000011000 ?
b100 B
b10010011011000011100100011011000 <
1&
1,
#149000
0&
0,
#149500
b1000110010101110111010110010 ?
b100111100111110101000000011000 >
b101 B
1&
1,
#150000
0&
0,
#150500
b1100001001100101100000111101110 5
b110 B
b1000110010101110111010110010 >
1&
1,
#151000
0&
0,
#151500
b1000101011000011100101110011110 ;
b1100001001100101100000111101110 4
b1100001001100101100000111101110 !
b111 B
1&
1,
#152000
0&
0,
#152500
b1101010000000111111000001010011 =
b1000 B
b1000101011000011100101110011110 :
1&
1,
#153000
0&
0,
#153500
b1001000001111011000100001000100 ?
b1101010000000111111000001010011 <
b1001 B
1&
1,
#154000
0&
0,
#154500
b1100111010111111011001110001001 ?
b1010 B
b1001000001111011000100001000100 >
1&
1,
#155000
0&
0,
#155500
b1101 A
b11110001111100000100110111111100 7
b1100111010111111011001110001001 >
b1011 B
1&
1,
#156000
0&
0,
#156500
b1100 B
b1101 @
b11110001111100000100110111111100 6
b11110001111100000100110111111100 "
1&
1,
#157000
0&
0,
#157500
b10100111000010001010100000011110 D
b1 B
1&
1,
#158000
0&
0,
#158500
b110010001011111010111100000010 ;
b10 B
b10100111000010001010100000011110 C
1&
1,
#159000
0&
0,
#159500
b10011000111110001111011000011010 =
b110010001011111010111100000010 :
b11 B
1&
1,
#160000
0&
0,
#160500
b101010110110100100110110110100 ?
b100 B
b10011000111110001111011000011010 <
1&
1,
#161000
0&
0,
#161500
b10000000000011010001010010101100 ?
b101010110110100100110110110100 >
b101 B
1&
1,
#162000
0&
0,
#162500
b11100001001111111101011010011010 5
b110 B
b10000000000011010001010010101100 >
1&
1,
#163000
0&
0,
#163500
b1000110001100110001011001011110 ;
b11100001001111111101011010011010 4
b11100001001111111101011010011010 !
b111 B
1&
1,
#164000
0&
0,
#164500
b10001000010010000111111010111000 =
b1000 B
b1000110001100110001011001011110 :
1&
1,
#165000
0&
0,
#165500
b1001100001111011111000011101001 ?
b10001000010010000111111010111000 <
b1001 B
1&
1,
#166000
0&
0,
#166500
b10000010010001101001100000001111 ?
b1010 B
b1001100001111011111000011101001 >
1&
1,
#167000
0&
0,
#167500
b1110 A
b1110100001101101110011000001011 7
b10000010010001101001100000001111 >
b1011 B
1&
1,
#168000
0&
0,
#168500
b1100 B
b1110 @
b1110100001101101110011000001011 6
b1110100001101101110011000001011 "
1&
1,
#169000
0&
0,
#169500
b1000101010000000010000111010111 D
b1 B
1&
1,
#170000
0&
0,
#170500
b1010110100110010010111111110010 ;
b10 B
b1000101010000000010000111010111 C
1&
1,
#171000
0&
0,
#171500
b10111001011101110000011111100010 =
b1010110100110010010111111110010 :
b11 B
1&
1,
#172000
0&
0,
#172500
b100110111011001000001001110101 ?
b100 B
b10111001011101110000011111100010 <
1&
1,
#173000
0&
0,
#173500
b11001001000000101010101001100101 ?
b100110111011001000001001110101 >
b101 B
1&
1,
#174000
0&
0,
#174500
b10101010010000101000000011111111 5
b110 B
b11001001000000101010101001100101 >
1&
1,
#175000
0&
0,
#175500
b11010110010111011011110010101110 ;
b10101010010000101000000011111111 4
b10101010010000101000000011111111 !
b111 B
1&
1,
#176000
0&
0,
#176500
b11101111100000101010001011010110 =
b1000 B
b11010110010111011011110010101110 :
1&
1,
#177000
0&
0,
#177500
b1001010100001100000011000111100 ?
b11101111100000101010001011010110 <
b1001 B
1&
1,
#178000
0&
0,
#178500
b1110011010110010001100001000100 ?
b1010 B
b1001010100001100000011000111100 >
1&
1,
#179000
0&
0,
#179500
b1111 A
b11100111100011111111111001001111 7
b1110011010110010001100001000100 >
b1011 B
1&
1,
#180000
0&
0,
#180500
b1100 B
b1111 @
b11100111100011111111111001001111 6
b11100111100011111111111001001111 "
1&
1,
#181000
0&
0,
#181500
b11100011011101111001101110010000 D
b1 B
1&
1,
#182000
0&
0,
#182500
b10001100001010101011010000110010 ;
b10 B
b11100011011101111001101110010000 C
1&
1,
#183000
0&
0,
#183500
b11001011000001111001100111011111 =
b10001100001010101011010000110010 :
b11 B
1&
1,
#184000
0&
0,
#184500
b101010100001110100101100110111 ?
b100 B
b11001011000001111001100111011111 <
1&
1,
#185000
0&
0,
#185500
b1101101101010100110011011011010 ?
b101010100001110100101100110111 >
b101 B
1&
1,
#186000
0&
0,
#186500
b10111111011001110011111011001 5
b110 B
b1101101101010100110011011011010 >
1&
1,
#187000
0&
0,
#187500
b10110001000001000010101001001110 ;
b10111111011001110011111011001 4
b10111111011001110011111011001 !
b111 B
1&
1,
#188000
0&
0,
#188500
b11111011011001001000001101101001 =
b1000 B
b10110001000001000010101001001110 :
1&
1,
#189000
0&
0,
#189500
b1000101111100110101100101110011 ?
b11111011011001001000001101101001 <
b1001 B
1&
1,
#190000
0&
0,
#190500
b1111100100111111000001010100 ?
b1010 B
b1000101111100110101100101110011 >
1&
1,
#191000
0&
0,
#191500
b10000 A
b11110111001000111110111010100011 7
b1111100100111111000001010100 >
b1011 B
1&
1,
#192000
0&
0,
#192500
b1100 B
b10000 @
b11110111001000111110111010100011 6
b11110111001000111110111010100011 "
1&
1,
#193000
0&
0,
#193500
b10000001101011110001010101001001 D
b1 B
1&
1,
#194000
0&
0,
#194500
b10000101011010011011100101110010 ;
b10 B
b10000001101011110001010101001001 C
1&
1,
#195000
0&
0,
#195500
b1111000110100110000001111101100 =
b10000101011010011011100101110010 :
b11 B
1&
1,
#196000
0&
0,
#196500
b101011000000111110101010111010 ?
b100 B
b1111000110100110000001111101100 <
1&
1,
#197000
0&
0,
#197500
b11010110101110010101000000100100 ?
b101011000000111110101010111010 >
b101 B
1&
1,
#198000
0&
0,
#198500
b11101110101001100011011111111101 5
b110 B
b11010110101110010101000000100100 >
1&
1,
#199000
0&
0,
#199500
b11100100110010010110010001110 ;
b11101110101001100011011111111101 4
b11101110101001100011011111111101 !
b111 B
1&
1,
#200000
0&
0,
#200500
b1110000010101010100110101000110 =
b1000 B
b11100100110010010110010001110 :
1&
1,
#201000
0&
0,
#201500
b1001100101010010010001111110100 ?
b1110000010101010100110101000110 <
b1001 B
1&
1,
#202000
0&
0,
#202500
b100000011001010100001000111100 ?
b1010 B
b1001100101010010010001111110100 >
1&
1,
#203000
0&
0,
#203500
b10001 A
b10111100010010011000011011111 7
b100000011001010100001000111100 >
b1011 B
1&
1,
#204000
0&
0,
#204500
b1100 B
b10001 @
b10111100010010011000011011111 6
b10111100010010011000011011111 "
1&
1,
#205000
0&
0,
#205500
b11111111001101000111100000010 D
b1 B
1&
1,
#206000
0&
0,
#206500
b10001011101111011101110100110010 ;
b10 B
b11111111001101000111100000010 C
1&
1,
#207000
0&
0,
#207500
b110111011011111011111111100001 =
b10001011101111011101110100110010 :
b11 B
1&
1,
#208000
0&
0,
#208500
b100100000001110001010011001011 ?
b100 B
b110111011011111011111111100001 <
1&
1,
#209000
0&
0,
#209500
b10011000110101010111011000011000 ?
b100100000001110001010011001011 >
b101 B
1&
1,
#210000
0&
0,
#210500
b10000111011110111010111000010101 5
b110 B
b10011000110101010111011000011000 >
1&
1,
#211000
0&
0,
#211500
b10101001111100001000111000001110 ;
b10000111011110111010111000010101 4
b10000111011110111010111000010101 !
b111 B
1&
1,
#212000
0&
0,
#212500
b10100111011000100011110100010111 =
b1000 B
b10101001111100001000111000001110 :
1&
1,
#213000
0&
0,
#213500
b1001001011011111100111110100101 ?
b10100111011000100011110100010111 <
b1001 B
1&
1,
#214000
0&
0,
#214500
b1000111111111010111110010111100 ?
b1010 B
b1001001011011111100111110100101 >
1&
1,
#215000
0&
0,
#215500
b10010 A
b1011111100001101010110110011011 7
b1000111111111010111110010111100 >
b1011 B
1&
1,
#216000
0&
0,
#216500
b1100 B
b10010 @
b1011111100001101010110110011011 6
b1011111100001101010110110011011 "
1&
1,
#217000
0&
0,
#217500
b10111110000111100000100010111011 D
b1 B
1&
1,
#218000
0&
0,
#218500
b1011100101011010100011110010 ;
b10 B
b10111110000111100000100010111011 C
1&
1,
#219000
0&
0,
#219500
b11101101001001011011001010110 =
b1011100101011010100011110010 :
b11 B
1&
1,
#220000
0&
0,
#220500
b100110010001110000000010110001 ?
b100 B
b11101101001001011011001010110 <
1&
1,
#221000
0&
0,
#221500
b110000011101100001111000010101 ?
b100110010001110000000010110001 >
b101 B
1&
1,
#222000
0&
0,
#222500
b10110111111100011100110000101010 5
b110 B
b110000011101100001111000010101 >
1&
1,
#223000
0&
0,
#223500
b10110001010100100110111101011110 ;
b10110111111100011100110000101010 4
b10110111111100011100110000101010 !
b111 B
1&
1,
#224000
0&
0,
#224500
b1110110000011111101010011100101 =
b1000 B
b10110001010100100110111101011110 :
1&
1,
#225000
0&
0,
#225500
b1001010111100111000000010010110 ?
b1110110000011111101010011100101 <
b1001 B
1&
1,
#226000
0&
0,
#226500
b10001101101011100011101100101101 ?
b1010 B
b1001010111100111000000010010110 >
1&
1,
#227000
0&
0,
#227500
b10011 A
b11101101001101001110100011001000 7
b10001101101011100011101100101101 >
b1011 B
1&
1,
#228000
0&
0,
#228500
b1100 B
b10011 @
b11101101001101001110100011001000 6
b11101101001101001110100011001000 "
1&
1,
#229000
0&
0,
#229500
b1011100010101011000001001110100 D
b1 B
1&
1,
#230000
0&
0,
#230500
b11100110011110010101101111000010 ;
b10 B
b1011100010101011000001001110100 C
1&
1,
#231000
0&
0,
#231500
b1001001100010100110101100111100 =
b11100110011110010101101111000010 :
b11 B
1&
1,
#232000
0&
0,
#232500
b101010101101000111001010001011 ?
b100 B
b1001001100010100110101100111100 <
1&
1,
#233000
0&
0,
#233500
b10000101010001110100001001110101 ?
b101010101101000111001010001011 >
b101 B
1&
1,
#234000
0&
0,
#234500
b111101001110010000111010011111 5
b110 B
b10000101010001110100001001110101 >
1&
1,
#235000
0&
0,
#235500
b101110001101001011010101110 ;
b111101001110010000111010011111 4
b111101001110010000111010011111 !
b111 B
1&
1,
#236000
0&
0,
#236500
b10011001100011101001000100010011 =
b1000 B
b101110001101001011010101110 :
1&
1,
#237000
0&
0,
#237500
b1000111000111011011101010101001 ?
b10011001100011101001000100010011 <
b1001 B
1&
1,
#238000
0&
0,
#238500
b11011011010101011011110100010100 ?
b1010 B
b1000111000111011011101010101001 >
1&
1,
#239000
0&
0,
#239500
b10100 A
b11001000100010101010010111011100 7
b11011011010101011011110100010100 >
b1011 B
1&
1,
#240000
0&
0,
#240500
b1100 B
b10100 @
b11001000100010101010010111011100 6
b11001000100010101010010111011100 "
1&
1,
#241000
0&
0,
#241500
b11111010100011001111110000101101 D
b1 B
1&
1,
#242000
0&
0,
#242500
b10011011110101010010110100000010 ;
b10 B
b11111010100011001111110000101101 C
1&
1,
#243000
0&
0,
#243500
b11000011000101111010001000001001 =
b10011011110101010010110100000010 :
b11 B
1&
1,
#244000
0&
0,
