proyectoLeon/codigo/tea/version1/decipher.vcd
$date
	Sun Nov 29 21:10:34 2015
$end
$version
	Icarus Verilog
$end
$timescale
	10ps
$end
$scope module testbench $end
$var wire 16 ! A_decipher [15:0] $end
$var wire 16 " B_decipher [15:0] $end
$var wire 1 # done $end
$var reg 16 $ A [15:0] $end
$var reg 16 % B [15:0] $end
$var reg 1 & clk $end
$var reg 16 ' key0 [15:0] $end
$var reg 16 ( key1 [15:0] $end
$var reg 16 ) key2 [15:0] $end
$var reg 16 * key3 [15:0] $end
$var reg 1 + rst $end
$scope module dut $end
$var wire 1 , clk $end
$var wire 16 - iK0 [15:0] $end
$var wire 16 . iK1 [15:0] $end
$var wire 16 / iK2 [15:0] $end
$var wire 16 0 iK3 [15:0] $end
$var wire 16 1 iV0 [15:0] $end
$var wire 16 2 iV1 [15:0] $end
$var wire 1 3 rst $end
$var reg 16 4 oC0 [15:0] $end
$var reg 16 5 oC0_nxt [15:0] $end
$var reg 16 6 oC1 [15:0] $end
$var reg 16 7 oC1_nxt [15:0] $end
$var reg 1 8 oDone $end
$var reg 1 9 oDone_nxt $end
$var reg 16 : rAux1 [15:0] $end
$var reg 16 ; rAux1_nxt [15:0] $end
$var reg 16 < rAux2 [15:0] $end
$var reg 16 = rAux2_nxt [15:0] $end
$var reg 16 > rAux3 [15:0] $end
$var reg 16 ? rAux3_nxt [15:0] $end
$var reg 5 @ rCount [4:0] $end
$var reg 5 A rCount_nxt [4:0] $end
$var reg 4 B state [3:0] $end
$var reg 16 C sum [15:0] $end
$var reg 16 D sum_nxt [15:0] $end
$upscope $end
$upscope $end
$enddefinitions $end
#0
$dumpvars
bx D
bx C
bx B
bx A
bx @
bx ?
bx >
bx =
bx <
bx ;
bx :
x9
x8
bx 7
bx 6
bx 5
bx 4
03
b110110101100111 2
b101100110000110 1
b1111001000110101 0
b1010110010111110 /
b1100101101000101 .
b1100111101000010 -
0,
0+
b1111001000110101 *
b1010110010111110 )
b1100101101000101 (
b1100111101000010 '
0&
b110110101100111 %
b101100110000110 $
x#
bx "
bx !
$end
#200
1+
13
#500
09
b0 A
b11011100100000 D
b110110101100111 7
b101100110000110 5
b0 ?
b0 =
b0 ;
b0 B
08
0#
b0 @
b11011100100000 C
b110110101100111 6
b110110101100111 "
b101100110000110 4
b101100110000110 !
b0 >
b0 <
b0 :
1&
1,
#600
0+
03
#1000
0&
0,
#1500
b100010100011110 ;
b1 B
1&
1,
#2000
0&
0,
#2500
b1001000010100110 =
b10 B
b100010100011110 :
1&
1,
#3000
0&
0,
#3500
b1111010100000001 ?
b1001000010100110 <
b11 B
1&
1,
#4000
0&
0,
#4500
b10000010111001 ?
b100 B
b1111010100000001 >
1&
1,
#5000
0&
0,
#5500
b100110010101110 7
b10000010111001 >
b101 B
1&
1,
#6000
0&
0,
#6500
b1001101000100010 ;
b110 B
b100110010101110 6
b100110010101110 "
1&
1,
#7000
0&
0,
#7500
b1000001111001110 =
b1001101000100010 :
b111 B
1&
1,
#8000
0&
0,
#8500
b1100110110101010 ?
b1000 B
b1000001111001110 <
1&
1,
#9000
0&
0,
#9500
b1101010001000110 ?
b1100110110101010 >
b1001 B
1&
1,
#10000
0&
0,
#10500
b1000010101000000 5
b1010 B
b1101010001000110 >
1&
1,
#11000
0&
0,
#11500
b1 A
b1011110101100111 D
b1000010101000000 4
b1000010101000000 !
b1011 B
1&
1,
#12000
0&
0,
#12500
b1100 B
b1 @
b1011110101100111 C
1&
1,
#13000
0&
0,
#13500
b10111110 ;
b1 B
1&
1,
#14000
0&
0,
#14500
b100001010100111 =
b10 B
b10111110 :
1&
1,
#15000
0&
0,
#15500
b1111011001011111 ?
b100001010100111 <
b11 B
1&
1,
#16000
0&
0,
#16500
b1011010001000110 ?
b100 B
b1111011001011111 >
1&
1,
#17000
0&
0,
#17500
b1001100001101000 7
b1011010001000110 >
b101 B
1&
1,
#18000
0&
0,
#18500
b101010111000010 ;
b110 B
b1001100001101000 6
b1001100001101000 "
1&
1,
#19000
0&
0,
#19500
b101010111001111 =
b101010111000010 :
b111 B
1&
1,
#20000
0&
0,
#20500
b1101000000001000 ?
b1000 B
b101010111001111 <
1&
1,
#21000
0&
0,
#21500
b1101000000000101 ?
b1101000000001000 >
b1001 B
1&
1,
#22000
0&
0,
#22500
b1011010100111011 5
b1010 B
b1101000000000101 >
1&
1,
#23000
0&
0,
#23500
b10 A
b100001110101110 D
b1011010100111011 4
b1011010100111011 !
b1011 B
1&
1,
#24000
0&
0,
#24500
b1100 B
b10 @
b100001110101110 C
1&
1,
#25000
0&
0,
#25500
b1101110 ;
b1 B
1&
1,
#26000
0&
0,
#26500
b1111100011101001 =
b10 B
b1101110 :
1&
1,
#27000
0&
0,
#27500
b1111011111011110 ?
b1111100011101001 <
b11 B
1&
1,
#28000
0&
0,
#28500
b111101011001 ?
b100 B
b1111011111011110 >
1&
1,
#29000
0&
0,
#29500
b1000100100001111 7
b111101011001 >
b101 B
1&
1,
#30000
0&
0,
#30500
b110000000110010 ;
b110 B
b1000100100001111 6
b1000100100001111 "
1&
1,
#31000
0&
0,
#31500
b1100110010111101 =
b110000000110010 :
b111 B
1&
1,
#32000
0&
0,
#32500
b1100111110001101 ?
b1000 B
b1100110010111101 <
1&
1,
#33000
0&
0,
#33500
b110001100000010 ?
b1100111110001101 >
b1001 B
1&
1,
#34000
0&
0,
#34500
b101001000111001 5
b1010 B
b110001100000010 >
1&
1,
#35000
0&
0,
#35500
b11 A
b1100100111110101 D
b101001000111001 4
b101001000111001 !
b1011 B
1&
1,
#36000
0&
0,
#36500
b1100 B
b11 @
b1100100111110101 C
1&
1,
#37000
0&
0,
#37500
b1101000001001110 ;
b1 B
1&
1,
#38000
0&
0,
#38500
b1110000101110 =
b10 B
b1101000001001110 :
1&
1,
#39000
0&
0,
#39500
b1111010011000110 ?
b1110000101110 <
b11 B
1&
1,
#40000
0&
0,
#40500
b11100010100110 ?
b100 B
b1111010011000110 >
1&
1,
#41000
0&
0,
#41500
b101000001101001 7
b11100010100110 >
b101 B
1&
1,
#42000
0&
0,
#42500
b1101010111010010 ;
b110 B
b101000001101001 6
b101000001101001 "
1&
1,
#43000
0&
0,
#43500
b1101001011110 =
b1101010111010010 :
b111 B
1&
1,
#44000
0&
0,
#44500
b1100110111001000 ?
b1000 B
b1101001011110 <
1&
1,
#45000
0&
0,
#45500
b1001000100 ?
b1100110111001000 >
b1001 B
1&
1,
#46000
0&
0,
#46500
b100111111110101 5
b1010 B
b1001000100 >
1&
1,
#47000
0&
0,
#47500
b100 A
b101000000111100 D
b100111111110101 4
b100111111110101 !
b1011 B
1&
1,
#48000
0&
0,
#48500
b1100 B
b100 @
b101000000111100 C
1&
1,
#49000
0&
0,
#49500
b1010110000001110 ;
b1 B
1&
1,
#50000
0&
0,
#50500
b1010000000110001 =
b10 B
b1010110000001110 :
1&
1,
#51000
0&
0,
#51500
b1111010010110100 ?
b1010000000110001 <
b11 B
1&
1,
#52000
0&
0,
#52500
b1111100010001011 ?
b100 B
b1111010010110100 >
1&
1,
#53000
0&
0,
#53500
b101011111011110 7
b1111100010001011 >
b101 B
1&
1,
#54000
0&
0,
#54500
b100110100100010 ;
b110 B
b101011111011110 6
b101011111011110 "
1&
1,
#55000
0&
0,
#55500
b1010100000011010 =
b100110100100010 :
b111 B
1&
1,
#56000
0&
0,
#56500
b1100111000000011 ?
b1000 B
b1010100000011010 <
1&
1,
#57000
0&
0,
#57500
b10101100111011 ?
b1100111000000011 >
b1001 B
1&
1,
#58000
0&
0,
#58500
b10010010111010 5
b1010 B
b10101100111011 >
1&
1,
#59000
0&
0,
#59500
b101 A
b1101011010000011 D
b10010010111010 4
b10010010111010 !
b1011 B
1&
1,
#60000
0&
0,
#60500
b1100 B
b101 @
b1101011010000011 C
1&
1,
#61000
0&
0,
#61500
b1111100001011110 ;
b1 B
1&
1,
#62000
0&
0,
#62500
b1111101100111101 =
b10 B
b1111100001011110 :
1&
1,
#63000
0&
0,
#63500
b1111001101011010 ?
b1111101100111101 <
b11 B
1&
1,
#64000
0&
0,
#64500
b1111000000111001 ?
b100 B
b1111001101011010 >
1&
1,
#65000
0&
0,
#65500
b110011110100101 7
b1111000000111001 >
b101 B
1&
1,
#66000
0&
0,
#66500
b100100110010010 ;
b110 B
b110011110100101 6
b110011110100101 "
1&
1,
#67000
0&
0,
#67500
b11111000101000 =
b100100110010010 :
b111 B
1&
1,
#68000
0&
0,
#68500
b1100111010000010 ?
b1000 B
b11111000101000 <
1&
1,
#69000
0&
0,
#69500
b1011100100111000 ?
b1100111010000010 >
b1001 B
1&
1,
#70000
0&
0,
#70500
b110101110000010 5
b1010 B
b1011100100111000 >
1&
1,
#71000
0&
0,
#71500
b110 A
b101110011001010 D
b110101110000010 4
b110101110000010 !
b1011 B
1&
1,
#72000
0&
0,
#72500
b1100 B
b110 @
b101110011001010 C
1&
1,
#73000
0&
0,
#73500
b110010011011110 ;
b1 B
1&
1,
#74000
0&
0,
#74500
b1100100001001100 =
b10 B
b110010011011110 :
1&
1,
#75000
0&
0,
#75500
b1111010110010001 ?
b1100100001001100 <
b11 B
1&
1,
#76000
0&
0,
#76500
b101100100000011 ?
b100 B
b1111010110010001 >
1&
1,
#77000
0&
0,
#77500
b111010100010 7
b101100100000011 >
b101 B
1&
1,
#78000
0&
0,
#78500
b1011100101100010 ;
b110 B
b111010100010 6
b111010100010 "
1&
1,
#79000
0&
0,
#79500
b110101101101100 =
b1011100101100010 :
b111 B
1&
1,
#80000
0&
0,
#80500
b1100101110111010 ?
b1000 B
b110101101101100 <
1&
1,
#81000
0&
0,
#81500
b1100110110100 ?
b1100101110111010 >
b1001 B
1&
1,
#82000
0&
0,
#82500
b101000111001110 5
b1010 B
b1100110110100 >
1&
1,
#83000
0&
0,
#83500
b111 A
b1110001100010001 D
b101000111001110 4
b101000111001110 !
b1011 B
1&
1,
#84000
0&
0,
#84500
b1100 B
b111 @
b1110001100010001 C
1&
1,
#85000
0&
0,
#85500
b1100100110011110 ;
b1 B
1&
1,
#86000
0&
0,
#86500
b11010011011111 =
b10 B
b1100100110011110 :
1&
1,
#87000
0&
0,
#87500
b1111010011000011 ?
b11010011011111 <
b11 B
1&
1,
#88000
0&
0,
#88500
b100110000010 ?
b100 B
b1111010011000011 >
1&
1,
#89000
0&
0,
#89500
b10100100000 7
b100110000010 >
b101 B
1&
1,
#90000
0&
0,
#90500
b10000101000010 ;
b110 B
b10100100000 6
b10100100000 "
1&
1,
#91000
0&
0,
#91500
b1110100000110001 =
b10000101000010 :
b111 B
1&
1,
#92000
0&
0,
#92500
b1100101101101110 ?
b1000 B
b1110100000110001 <
1&
1,
#93000
0&
0,
#93500
b1000011101 ?
b1100101101101110 >
b1001 B
1&
1,
#94000
0&
0,
#94500
b100111110110001 5
b1010 B
b1000011101 >
1&
1,
#95000
0&
0,
#95500
b1000 A
b110100101011000 D
b100111110110001 4
b100111110110001 !
b1011 B
1&
1,
#96000
0&
0,
#96500
b1100 B
b1000 @
b110100101011000 C
1&
1,
#97000
0&
0,
#97500
b1010011111001110 ;
b1 B
1&
1,
#98000
0&
0,
#98500
b1011100100001001 =
b10 B
b1010011111001110 :
1&
1,
#99000
0&
0,
#99500
b1111010010110010 ?
b1011100100001001 <
b11 B
1&
1,
#100000
0&
0,
#100500
b1110101001110101 ?
b100 B
b1111010010110010 >
1&
1,
#101000
0&
0,
#101500
b1101010101011 7
b1110101001110101 >
b101 B
1&
1,
#102000
0&
0,
#102500
b111100111110010 ;
b110 B
b1101010101011 6
b1101010101011 "
1&
1,
#103000
0&
0,
#103500
b1000010000000011 =
b111100111110010 :
b111 B
1&
1,
#104000
0&
0,
#104500
b1100110000011010 ?
b1000 B
b1000010000000011 <
1&
1,
#105000
0&
0,
#105500
b11000111101011 ?
b1100110000011010 >
b1001 B
1&
1,
#106000
0&
0,
#106500
b1110111000110 5
b1010 B
b11000111101011 >
1&
1,
#107000
0&
0,
#107500
b1001 A
b1110111110011111 D
b1110111000110 4
b1110111000110 !
b1011 B
1&
1,
#108000
0&
0,
#108500
b1100 B
b1001 @
b1110111110011111 C
1&
1,
#109000
0&
0,
#109500
b1000100100011110 ;
b1 B
1&
1,
#110000
0&
0,
#110500
b110101100101 =
b10 B
b1000100100011110 :
1&
1,
#111000
0&
0,
#111500
b1111001100100011 ?
b110101100101 <
b11 B
1&
1,
#112000
0&
0,
#112500
b111011101011000 ?
b100 B
b1111001100100011 >
1&
1,
#113000
0&
0,
#113500
b1010001101010011 7
b111011101011000 >
b101 B
1&
1,
#114000
0&
0,
#114500
b10001110010 ;
b110 B
b1010001101010011 6
b1010001101010011 "
1&
1,
#115000
0&
0,
#115500
b1001001011110010 =
b10001110010 :
b111 B
1&
1,
#116000
0&
0,
#116500
b1101000001011111 ?
b1000 B
b1001001011110010 <
1&
1,
#117000
0&
0,
#117500
b100011011011111 ?
b1101000001011111 >
b1001 B
1&
1,
#118000
0&
0,
#118500
b1101011011100111 5
b1010 B
b100011011011111 >
1&
1,
#119000
0&
0,
#119500
b1010 A
b111010111100110 D
b1101011011100111 4
b1101011011100111 !
b1011 B
1&
1,
#120000
0&
0,
#120500
b1100 B
b1010 @
b111010111100110 C
1&
1,
#121000
0&
0,
#121500
b1101100101110 ;
b1 B
1&
1,
#122000
0&
0,
#122500
b100110011001101 =
b10 B
b1101100101110 :
1&
1,
#123000
0&
0,
#123500
b1111100011101100 ?
b100110011001101 <
b11 B
1&
1,
#124000
0&
0,
#124500
b1010111100001111 ?
b100 B
b1111100011101100 >
1&
1,
#125000
0&
0,
#125500
b1111010001000100 7
b1010111100001111 >
b101 B
1&
1,
#126000
0&
0,
#126500
b1001110000010 ;
b110 B
b1111010001000100 6
b1111010001000100 "
1&
1,
#127000
0&
0,
#127500
b110101000101010 =
b1001110000010 :
b111 B
1&
1,
#128000
0&
0,
#128500
b1101001011100111 ?
b1000 B
b110101000101010 <
1&
1,
#129000
0&
0,
#129500
b1010101101001111 ?
b1101001011100111 >
b1001 B
1&
1,
#130000
0&
0,
#130500
b10101110011000 5
b1010 B
b1010101101001111 >
1&
1,
#131000
0&
0,
#131500
b1011 A
b1111110000101101 D
b10101110011000 4
b10101110011000 !
b1011 B
1&
1,
#132000
0&
0,
#132500
b1100 B
b1011 @
b1111110000101101 C
1&
1,
#133000
0&
0,
#133500
b110011000111110 ;
b1 B
1&
1,
#134000
0&
0,
#134500
b10011111000101 =
b10 B
b110011000111110 :
1&
1,
#135000
0&
0,
#135500
b1111001110010001 ?
b10011111000101 <
b11 B
1&
1,
#136000
0&
0,
#136500
b1011001001101010 ?
b100 B
b1111001110010001 >
1&
1,
#137000
0&
0,
#137500
b100000111011010 7
b1011001001101010 >
b101 B
1&
1,
#138000
0&
0,
#138500
b1110110011100010 ;
b110 B
b100000111011010 6
b100000111011010 "
1&
1,
#139000
0&
0,
#139500
b11111000000111 =
b1110110011100010 :
b111 B
1&
1,
#140000
0&
0,
#140500
b1100110101010011 ?
b1000 B
b11111000000111 <
1&
1,
#141000
0&
0,
#141500
b1111110110110 ?
b1100110101010011 >
b1001 B
1&
1,
#142000
0&
0,
#142500
b101111100010 5
b1010 B
b1111110110110 >
1&
1,
#143000
0&
0,
#143500
b1100 A
b1000001001110100 D
b101111100010 4
b101111100010 !
b1011 B
1&
1,
#144000
0&
0,
#144500
b1100 B
b1100 @
b1000001001110100 C
1&
1,
#145000
0&
0,
#145500
b110101011011110 ;
b1 B
1&
1,
#146000
0&
0,
#146500
b1000111001010110 =
b10 B
b110101011011110 :
1&
1,
#147000
0&
0,
#147500
b1111001010010100 ?
b1000111001010110 <
b11 B
1&
1,
#148000
0&
0,
#148500
b1011000011100 ?
b100 B
b1111001010010100 >
1&
1,
#149000
0&
0,
#149500
b10101110111110 7
b1011000011100 >
b101 B
1&
1,
#150000
0&
0,
#150500
b1000101100100010 ;
b110 B
b10101110111110 6
b10101110111110 "
1&
1,
#151000
0&
0,
#151500
b1010111000110010 =
b1000101100100010 :
b111 B
1&
1,
#152000
0&
0,
#152500
b1100110010100010 ?
b1000 B
b1010111000110010 <
1&
1,
#153000
0&
0,
#153500
b1110100110110010 ?
b1100110010100010 >
b1001 B
1&
1,
#154000
0&
0,
#154500
b10001000110000 5
b1010 B
b1110100110110010 >
1&
1,
#155000
0&
0,
#155500
b1101 A
b100010111011 D
b10001000110000 4
b10001000110000 !
b1011 B
1&
1,
#156000
0&
0,
#156500
b1100 B
b1101 @
b100010111011 C
1&
1,
#157000
0&
0,
#157500
b1100111110111110 ;
b1 B
1&
1,
#158000
0&
0,
#158500
b10101011101011 =
b10 B
b1100111110111110 :
1&
1,
#159000
0&
0,
#159500
b1111001101000110 ?
b10101011101011 <
b11 B
1&
1,
#160000
0&
0,
#160500
b1011000010011 ?
b100 B
b1111001101000110 >
1&
1,
#161000
0&
0,
#161500
b1010110101011 7
b1011000010011 >
b101 B
1&
1,
#162000
0&
0,
#162500
b10100111110010 ;
b110 B
b1010110101011 6
b1010110101011 "
1&
1,
#163000
0&
0,
#163500
b1111001100110 =
b10100111110010 :
b111 B
1&
1,
#164000
0&
0,
#164500
b1100101111110010 ?
b1000 B
b1111001100110 <
1&
1,
#165000
0&
0,
#165500
b1111110001100110 ?
b1100101111110010 >
b1001 B
1&
1,
#166000
0&
0,
#166500
b10010111001010 5
b1010 B
b1111110001100110 >
1&
1,
#167000
0&
0,
#167500
b1110 A
b1000111100000010 D
b10010111001010 4
b10010111001010 !
b1011 B
1&
1,
#168000
0&
0,
#168500
b1100 B
b1110 @
b1000111100000010 C
1&
1,
#169000
0&
0,
#169500
b100101011110 ;
b1 B
1&
1,
#170000
0&
0,
#170500
b1011010011001100 =
b10 B
b100101011110 :
1&
1,
#171000
0&
0,
#171500
b1111001101100011 ?
b1011010011001100 <
b11 B
1&
1,
#172000
0&
0,
#172500
b100111011110001 ?
b100 B
b1111001101100011 >
1&
1,
#173000
0&
0,
#173500
b1100011010111010 7
b100111011110001 >
b101 B
1&
1,
#174000
0&
0,
#174500
b11101011100010 ;
b110 B
b1100011010111010 6
b1100011010111010 "
1&
1,
#175000
0&
0,
#175500
b101010110111100 =
b11101011100010 :
b111 B
1&
1,
#176000
0&
0,
#176500
b1101000101111010 ?
b1000 B
b101010110111100 <
1&
1,
#177000
0&
0,
#177500
b1011111000100100 ?
b1101000101111010 >
b1001 B
1&
1,
#178000
0&
0,
#178500
b110011110100110 5
b1010 B
b1011111000100100 >
1&
1,
#179000
0&
0,
#179500
b1111 A
b1010101001001 D
b110011110100110 4
b110011110100110 !
b1011 B
1&
1,
#180000
0&
0,
#180500
b1100 B
b1111 @
b1010101001001 C
1&
1,
#181000
0&
0,
#181500
b10011100011110 ;
b1 B
1&
1,
#182000
0&
0,
#182500
b111110011101111 =
b10 B
b10011100011110 :
1&
1,
#183000
0&
0,
#183500
b1111010101110010 ?
b111110011101111 <
b11 B
1&
1,
#184000
0&
0,
#184500
b1010111010000011 ?
b100 B
b1111010101110010 >
1&
1,
#185000
0&
0,
#185500
b1100000110111 7
b1010111010000011 >
b101 B
1&
1,
#186000
0&
0,
#186500
b101001010110010 ;
b110 B
b1100000110111 6
b1100000110111 "
1&
1,
#187000
0&
0,
#187500
b10110110000000 =
b101001010110010 :
b111 B
1&
1,
#188000
0&
0,
#188500
b1100110000000110 ?
b1000 B
b10110110000000 <
1&
1,
#189000
0&
0,
#189500
b1011001100110100 ?
b1100110000000110 >
b1001 B
1&
1,
#190000
0&
0,
#190500
b1011010001110010 5
b1010 B
b1011001100110100 >
1&
1,
#191000
0&
0,
#191500
b10000 A
b1001101110010000 D
b1011010001110010 4
b1011010001110010 !
b1011 B
1&
1,
#192000
0&
0,
#192500
b1100 B
b10000 @
b1001101110010000 C
1&
1,
#193000
0&
0,
#193500
b1111001111011110 ;
b1 B
1&
1,
#194000
0&
0,
#194500
b101000000000010 =
b10 B
b1111001111011110 :
1&
1,
#195000
0&
0,
#195500
b1111011111011000 ?
b101000000000010 <
b11 B
1&
1,
#196000
0&
0,
#196500
b101010000000100 ?
b100 B
b1111011111011000 >
1&
1,
#197000
0&
0,
#197500
b1100010000110011 7
b101010000000100 >
b101 B
1&
1,
#198000
0&
0,
#198500
b1001001110010 ;
b110 B
b1100010000110011 6
b1100010000110011 "
1&
1,
#199000
0&
0,
#199500
b101111111000011 =
b1001001110010 :
b111 B
1&
1,
#200000
0&
0,
#200500
b1101000101100110 ?
b1000 B
b101111111000011 <
1&
1,
#201000
0&
0,
#201500
b1001110011010111 ?
b1101000101100110 >
b1001 B
1&
1,
#202000
0&
0,
#202500
b1011110011011 5
b1010 B
b1001110011010111 >
1&
1,
#203000
0&
0,
#203500
b10001 A
b10000111010111 D
b1011110011011 4
b1011110011011 !
b1011 B
1&
1,
#204000
0&
0,
#204500
b1100 B
b10001 @
b10000111010111 C
1&
1,
#205000
0&
0,
#205500
b10011001101110 ;
b1 B
1&
1,
#206000
0&
0,
#206500
b11100101110010 =
b10 B
b10011001101110 :
1&
1,
#207000
0&
0,
#207500
b1111001011110001 ?
b11100101110010 <
b11 B
1&
1,
#208000
0&
0,
#208500
b1110110111101101 ?
b100 B
b1111001011110001 >
1&
1,
#209000
0&
0,
#209500
b1101011001000110 7
b1110110111101101 >
b101 B
1&
1,
#210000
0&
0,
#210500
b11001110100010 ;
b110 B
b1101011001000110 6
b1101011001000110 "
1&
1,
#211000
0&
0,
#211500
b1111100000011101 =
b11001110100010 :
b111 B
1&
1,
#212000
0&
0,
#212500
b1101000111110111 ?
b1000 B
b1111100000011101 <
1&
1,
#213000
0&
0,
#213500
b1101001001000 ?
b1101000111110111 >
b1001 B
1&
1,
#214000
0&
0,
#214500
b1111110101010011 5
b1010 B
b1101001001000 >
1&
1,
#215000
0&
0,
#215500
b10010 A
b1010100000011110 D
b1111110101010011 4
b1111110101010011 !
b1011 B
1&
1,
#216000
0&
0,
#216500
b1100 B
b10010 @
b1010100000011110 C
1&
1,
#217000
0&
0,
#217500
b1000000111101110 ;
b1 B
1&
1,
#218000
0&
0,
#218500
b1010010101110001 =
b10 B
b1000000111101110 :
1&
1,
#219000
0&
0,
#219500
b1111101000011111 ?
b1010010101110001 <
b11 B
1&
1,
#220000
0&
0,
#220500
b1101111010000000 ?
b100 B
b1111101000011111 >
1&
1,
#221000
0&
0,
#221500
b1111011111000110 7
b1101111010000000 >
b101 B
1&
1,
#222000
0&
0,
#222500
b100101110100010 ;
b110 B
b1111011111000110 6
b1111011111000110 "
1&
1,
#223000
0&
0,
#223500
b1001111111100100 =
b100101110100010 :
b111 B
1&
1,
#224000
0&
0,
#224500
b1101001100000011 ?
b1000 B
b1001111111100100 <
1&
1,
#225000
0&
0,
#225500
b11101000101 ?
b1101001100000011 >
b1001 B
1&
1,
#226000
0&
0,
#226500
b1111011000001110 5
b1010 B
b11101000101 >
1&
1,
#227000
0&
0,
#227500
b10011 A
b10111001100101 D
b1111011000001110 4
b1111011000001110 !
b1011 B
1&
1,
#228000
0&
0,
#228500
b1100 B
b10011 @
b10111001100101 C
1&
1,
#229000
0&
0,
#229500
b110110011110 ;
b1 B
1&
1,
#230000
0&
0,
#230500
b10010001110011 =
b10 B
b110110011110 :
1&
1,
#231000
0&
0,
#231500
b1111100111100101 ?
b10010001110011 <
b11 B
1&
1,
#232000
0&
0,
#232500
b1101000000001000 ?
b100 B
b1111100111100101 >
1&
1,
#233000
0&
0,
#233500
b10011110111110 7
b1101000000001000 >
b101 B
1&
1,
#234000
0&
0,
#234500
b100101100100010 ;
b110 B
b10011110111110 6
b10011110111110 "
1&
1,
#235000
0&
0,
#235500
b101011000100011 =
b100101100100010 :
b111 B
1&
1,
#236000
0&
0,
#236500
b1100110010000010 ?
b1000 B
b101011000100011 <
1&
1,
#237000
0&
0,
#237500
b1101000110000011 ?
b1100110010000010 >
b1001 B
1&
1,
#238000
0&
0,
#238500
b10010010001011 5
b1010 B
b1101000110000011 >
1&
1,
#239000
0&
0,
#239500
b10100 A
b1011010010101100 D
b10010010001011 4
b10010010001011 !
b1011 B
1&
1,
#240000
0&
0,
#240500
b1100 B
b10100 @
b1011010010101100 C
1&
1,
#241000
0&
0,
#241500
b1111010101101110 ;
b1 B
1&
1,
#242000
0&
0,
#242500
b1101100100110111 =
b10 B
b1111010101101110 :
1&
1,
#243000
0&
0,
#243500
b1111001101011001 ?
b1101100100110111 <
b11 B
1&
1,
#244000
0&
0,
#244500
b1101111100000000 ?
b100 B
b1111001101011001 >
1&
1,
#245000
0&
0,
#245500
b100100010111110 7
b1101111100000000 >
b101 B
1&
1,
#246000
0&
0,
#246500
b101101100100010 ;
b110 B
b100100010111110 6
b100100010111110 "
1&
1,
#247000
0&
0,
#247500
b1111110101101010 =
b101101100100010 :
b111 B
1&
1,
#248000
0&
0,
#248500
b1100110110001010 ?
b1000 B
b1111110101101010 <
1&
1,
#249000
0&
0,
#249500
b110101111000010 ?
b1100110110001010 >
b1001 B
1&
1,
#250000
0&
0,
#250500
b1011100011001001 5
b1010 B
b110101111000010 >
1&
1,
#251000
0&
0,
#251500
b10101 A
b11101011110011 D
b1011100011001001 4
b1011100011001001 !
b1011 B
1&
1,
#252000
0&
0,
#252500
b1100 B
b10101 @
b11101011110011 C
1&
1,
#253000
0&
0,
#253500
b11100101001110 ;
b1 B
1&
1,
#254000
0&
0,
#254500
b1111001110111100 =
b10 B
b11100101001110 :
1&
1,
#255000
0&
0,
#255500
b1111011111111011 ?
b1111001110111100 <
b11 B
1&
1,
#256000
0&
0,
#256500
b11110100001001 ?
b100 B
b1111011111111011 >
1&
1,
#257000
0&
0,
#257500
b101110110101 7
b11110100001001 >
b101 B
1&
1,
#258000
0&
0,
#258500
b1000101010010010 ;
b110 B
b101110110101 6
b101110110101 "
1&
1,
#259000
0&
0,
#259500
b100011010101000 =
b1000101010010010 :
b111 B
1&
1,
#260000
0&
0,
#260500
b1100101110100010 ?
b1000 B
b100011010101000 <
1&
1,
#261000
0&
0,
#261500
b11110011000 ?
b1100101110100010 >
b1001 B
1&
1,
#262000
0&
0,
#262500
b1011000100110001 5
b1010 B
b11110011000 >
1&
1,
#263000
0&
0,
#263500
b10110 A
b1100000100111010 D
b1011000100110001 4
b1011000100110001 !
b1011 B
1&
1,
#264000
0&
0,
#264500
b1100 B
b10110 @
b1100000100111010 C
1&
1,
#265000
0&
0,
#265500
b1011111111001110 ;
b1 B
1&
1,
#266000
0&
0,
#266500
b111001001101011 =
b10 B
b1011111111001110 :
1&
1,
#267000
0&
0,
#267500
b1111011110111110 ?
b111001001101011 <
b11 B
1&
1,
#268000
0&
0,
#268500
b11101000011011 ?
b100 B
b1111011110111110 >
1&
1,
#269000
0&
0,
#269500
b1101000110011010 7
b11101000011011 >
b101 B
1&
1,
#270000
0&
0,
#270500
b1110100011100010 ;
b110 B
b1101000110011010 6
b1101000110011010 "
1&
1,
#271000
0&
0,
#271500
b1001001011010100 =
b1110100011100010 :
b111 B
1&
1,
#272000
0&
0,
#272500
b1101000111010001 ?
b1000 B
b1001001011010100 <
1&
1,
#273000
0&
0,
#273500
b1010101111100111 ?
b1101000111010001 >
b1001 B
1&
1,
#274000
0&
0,
#274500
b10101001010 5
b1010 B
b1010101111100111 >
1&
1,
#275000
0&
0,
#275500
b10111 A
b100011110000001 D
b10101001010 4
b10101001010 !
b1011 B
1&
1,
#276000
0&
0,
#276500
b1100 B
b10111 @
b100011110000001 C
1&
1,
#277000
0&
0,
#277500
b101011110 ;
b1 B
1&
1,
#278000
0&
0,
#278500
b100110011001011 =
b10 B
b101011110 :
1&
1,
#279000
0&
0,
#279500
b1111001001011111 ?
b100110011001011 <
b11 B
1&
1,
#280000
0&
0,
#280500
b1011111111001010 ?
b100 B
b1111001001011111 >
1&
1,
#281000
0&
0,
#281500
b1000111010000 7
b1011111111001010 >
b101 B
1&
1,
#282000
0&
0,
#282500
b1110110001000010 ;
b110 B
b1000111010000 6
b1000111010000 "
1&
1,
#283000
0&
0,
#283500
b101100101010001 =
b1110110001000010 :
b111 B
1&
1,
#284000
0&
0,
#284500
b1100101111010011 ?
b1000 B
b101100101010001 <
1&
1,
#285000
0&
0,
#285500
b111111011000000 ?
b1100101111010011 >
b1001 B
1&
1,
#286000
0&
0,
#286500
b1000011010001010 5
b1010 B
b111111011000000 >
1&
1,
#287000
0&
0,
#287500
b11000 A
b1100110111001000 D
b1000011010001010 4
b1000011010001010 !
b1011 B
1&
1,
#288000
0&
0,
#288500
b1100 B
b11000 @
b1100110111001000 C
1&
1,
#289000
0&
0,
#289500
b1010101011110 ;
b1 B
1&
1,
#290000
0&
0,
#290500
b101010001010010 =
b10 B
b1010101011110 :
1&
1,
#291000
0&
0,
#291500
b1111011001101001 ?
b101010001010010 <
b11 B
1&
1,
#292000
0&
0,
#292500
b1011011101100101 ?
b100 B
b1111011001101001 >
1&
1,
#293000
0&
0,
#293500
b101101001101011 7
b1011011101100101 >
b101 B
1&
1,
#294000
0&
0,
#294500
b111010111110010 ;
b110 B
b101101001101011 6
b101101001101011 "
1&
1,
#295000
0&
0,
#295500
b10100000110011 =
b111010111110010 :
b111 B
1&
1,
#296000
0&
0,
#296500
b1100111000011000 ?
b1000 B
b10100000110011 <
1&
1,
#297000
0&
0,
#297500
b1001001111011001 ?
b1100111000011000 >
b1001 B
1&
1,
#298000
0&
0,
#298500
b1111001010110001 5
b1010 B
b1001001111011001 >
1&
1,
#299000
0&
0,
#299500
b11001 A
b101010000001111 D
b1111001010110001 4
b1111001010110001 !
b1011 B
1&
1,
#300000
0&
0,
#300500
b1100 B
b11001 @
b101010000001111 C
1&
1,
#301000
0&
0,
#301500
b1101011111001110 ;
b1 B
1&
1,
#302000
0&
0,
