proyectoLeon/codigo/rc5/version1/keyExpander_prueba.vcd
$date
	Sun Oct 25 23:13:27 2015
$end
$version
	Icarus Verilog
$end
$timescale
	10ps
$end
$scope module tester $end
$var wire 2 ! L_address [1:0] $end
$var wire 32 " L_sub_i [31:0] $end
$var wire 32 # L_sub_i_prima [31:0] $end
$var wire 5 $ S_address [4:0] $end
$var wire 32 % S_sub_i [31:0] $end
$var wire 32 & S_sub_i_prima [31:0] $end
$var wire 1 ' clk1 $end
$var wire 1 ( clk2 $end
$var wire 1 ) done $end
$var wire 4 * key_address [3:0] $end
$var wire 8 + key_sub_i [7:0] $end
$var wire 1 , rst $end
$scope module test $end
$var wire 2 - L_address [1:0] $end
$var wire 32 . L_sub_i_prima [31:0] $end
$var wire 5 / S_address [4:0] $end
$var wire 32 0 S_sub_i_prima [31:0] $end
$var wire 1 ) done $end
$var wire 4 1 key_address [3:0] $end
$var reg 32 2 L_sub_i [31:0] $end
$var reg 32 3 S_sub_i [31:0] $end
$var reg 1 4 clk1 $end
$var reg 1 5 clk2 $end
$var integer 32 6 i [31:0] $end
$var reg 128 7 key [127:0] $end
$var reg 8 8 key_sub_i [7:0] $end
$var reg 1 9 rst $end
$scope task drv_init $end
$upscope $end
$scope task drv_read $end
$upscope $end
$scope task drv_write $end
$upscope $end
$upscope $end
$scope module pegado $end
$var wire 2 : L_address [1:0] $end
$var wire 2 ; L_address1 [1:0] $end
$var wire 2 < L_address2 [1:0] $end
$var wire 1 = L_done $end
$var wire 32 > L_sub_i [31:0] $end
$var wire 32 ? L_sub_i_prima [31:0] $end
$var wire 32 @ L_sub_i_prima1 [31:0] $end
$var wire 32 A L_sub_i_prima2 [31:0] $end
$var wire 5 B S_address [4:0] $end
$var wire 5 C S_address1 [4:0] $end
$var wire 5 D S_address2 [4:0] $end
$var wire 1 E S_done $end
$var wire 32 F S_sub_i [31:0] $end
$var wire 32 G S_sub_i_prima [31:0] $end
$var wire 32 H S_sub_i_prima1 [31:0] $end
$var wire 32 I S_sub_i_prima2 [31:0] $end
$var wire 1 ' clk1 $end
$var wire 1 ( clk2 $end
$var wire 1 ) done $end
$var wire 4 J key_address [3:0] $end
$var wire 8 K key_sub_i [7:0] $end
$var wire 1 , rst $end
$var wire 1 L start $end
$scope module block_L $end
$var wire 2 M L_address [1:0] $end
$var wire 32 N L_sub_i [31:0] $end
$var wire 1 ' clk1 $end
$var wire 1 ( clk2 $end
$var wire 1 = done $end
$var wire 4 O key_address [3:0] $end
$var wire 8 P key_sub_i [7:0] $end
$var wire 1 , rst $end
$var reg 32 Q L_sub_i_prima [31:0] $end
$var reg 5 R count [4:0] $end
$var reg 32 S temp [31:0] $end
$upscope $end
$scope module block_S $end
$var wire 5 T S_address [4:0] $end
$var wire 32 U S_sub_i [31:0] $end
$var wire 1 ' clk1 $end
$var wire 1 ( clk2 $end
$var wire 1 E done $end
$var wire 1 , rst $end
$var reg 32 V S_sub_i_prima [31:0] $end
$var reg 5 W count [4:0] $end
$upscope $end
$scope module mixer $end
$var wire 2 X L_address [1:0] $end
$var wire 32 Y L_sub_i [31:0] $end
$var wire 5 Z S_address [4:0] $end
$var wire 32 [ S_sub_i [31:0] $end
$var wire 1 ' clk1 $end
$var wire 1 ( clk2 $end
$var wire 1 ) done $end
$var wire 1 , rst $end
$var wire 1 L start $end
$var reg 32 \ A [31:0] $end
$var reg 32 ] B [31:0] $end
$var reg 32 ^ L_sub_i_prima [31:0] $end
$var reg 32 _ S_sub_i_prima [31:0] $end
$var reg 78 ` count [77:0] $end
$var reg 5 a i [4:0] $end
$var reg 2 b j [1:0] $end
$var reg 5 c rot_L [4:0] $end
$upscope $end
$upscope $end
$upscope $end
$enddefinitions $end
#0
$dumpvars
bx c
bx b
bx a
bx `
bx _
bx ^
bx ]
bx \
bx [
bx Z
bx Y
bx X
bx W
bx V
bx U
bx T
bx S
bx R
bx Q
bx P
bx O
bx N
bx M
xL
bx K
bx J
bx I
bx H
bx G
bx F
xE
bx D
bx C
bx B
bx A
bx @
bx ?
bx >
x=
bx <
bx ;
bx :
x9
bx 8
b11111111111111101110111011100101100001101000010011111111111100000101111111111110010010010011100001010011000000000000010000110100 7
b10000 6
x5
04
bx 3
bx 2
bx 1
bx 0
bx /
bx .
bx -
x,
bx +
bx *
x)
x(
0'
bx &
bx %
bx $
bx #
bx "
bx !
$end
#50
b11111 $
b11111 /
b11111 B
b0 !
b0 -
b0 :
0L
0=
b0 *
b0 1
b0 J
b0 O
b0 ;
b0 M
0E
0)
b10000 R
b11111 W
b11111 C
b11111 T
b0 b
b0 <
b0 X
b0 a
b0 D
b0 Z
b0 ]
b0 \
b0 `
19
1,
05
0(
#500
14
1'
#550
15
1(
#1000
04
0'
#1050
09
0,
05
0(
#1500
b11 !
b11 -
b11 :
b0 $
b0 /
b0 B
b1111 *
b1111 1
b1111 J
b1111 O
b11 ;
b11 M
b0 W
b0 C
b0 T
b1111 R
14
1'
#1550
b10100 #
b10100 .
b10100 ?
b1111 &
b1111 0
b1111 G
b10100 Q
b10100 @
b0 S
b1111 V
b1111 H
b10100 8
b10100 +
b10100 K
b10100 P
b0 2
b0 "
b0 >
b0 N
b0 Y
b1010 3
b1010 %
b1010 F
b1010 U
b1010 [
15
1(
#2000
04
0'
#2050
05
0(
#2500
b1110 *
b1110 1
b1110 J
b1110 O
b1 $
b1 /
b1 B
b1110 R
b1 W
b1 C
b1 T
14
1'
#2550
b10100 &
b10100 0
b10100 G
b10100000000000000000000010011 #
b10100000000000000000000010011 .
b10100000000000000000000010011 ?
b10100 V
b10100 H
b10100000000000000000000010011 Q
b10100000000000000000000010011 @
b10100000000000000000000000000 S
b10011 8
b10011 +
b10011 K
b10011 P
b10100 2
b10100 "
b10100 >
b10100 N
b10100 Y
b1111 3
b1111 %
b1111 F
b1111 U
b1111 [
15
1(
#3000
04
0'
#3050
05
0(
#3500
b10 $
b10 /
b10 B
b1101 *
b1101 1
b1101 J
b1101 O
b10 W
b10 C
b10 T
b1101 R
14
1'
#3550
b10011000101000000000000010010 #
b10011000101000000000000010010 .
b10011000101000000000000010010 ?
b11001 &
b11001 0
b11001 G
b10011000101000000000000010010 Q
b10011000101000000000000010010 @
b10011000101000000000000000000 S
b11001 V
b11001 H
b10010 8
b10010 +
b10010 K
b10010 P
b10100000000000000000000010011 2
b10100000000000000000000010011 "
b10100000000000000000000010011 >
b10100000000000000000000010011 N
b10100000000000000000000010011 Y
b10100 3
b10100 %
b10100 F
b10100 U
b10100 [
15
1(
#4000
04
0'
#4050
05
0(
#4500
b1100 *
b1100 1
b1100 J
b1100 O
b11 $
b11 /
b11 B
b1100 R
b11 W
b11 C
b11 T
14
1'
#4550
b11110 &
b11110 0
b11110 G
b10010000100110001010000010001 #
b10010000100110001010000010001 .
b10010000100110001010000010001 ?
b11110 V
b11110 H
b10010000100110001010000010001 Q
b10010000100110001010000010001 @
b10010000100110001010000000000 S
b10001 8
b10001 +
b10001 K
b10001 P
b10011000101000000000000010010 2
b10011000101000000000000010010 "
b10011000101000000000000010010 >
b10011000101000000000000010010 N
b10011000101000000000000010010 Y
b11001 3
b11001 %
b11001 F
b11001 U
b11001 [
15
1(
#5000
04
0'
#5050
05
0(
#5500
b10 !
b10 -
b10 :
b100 $
b100 /
b100 B
b1011 *
b1011 1
b1011 J
b1011 O
b10 ;
b10 M
b100 W
b100 C
b100 T
b1011 R
14
1'
#5550
b10000 #
b10000 .
b10000 ?
b100011 &
b100011 0
b100011 G
b10000 Q
b10000 @
b0 S
b100011 V
b100011 H
b10000 8
b10000 +
b10000 K
b10000 P
b0 2
b0 "
b0 >
b0 N
b0 Y
b11110 3
b11110 %
b11110 F
b11110 U
b11110 [
15
1(
#6000
04
0'
#6050
05
0(
#6500
b1010 *
b1010 1
b1010 J
b1010 O
b101 $
b101 /
b101 B
b1010 R
b101 W
b101 C
b101 T
14
1'
#6550
b101000 &
b101000 0
b101000 G
b10000000000000000000000001111 #
b10000000000000000000000001111 .
b10000000000000000000000001111 ?
b101000 V
b101000 H
b10000000000000000000000001111 Q
b10000000000000000000000001111 @
b10000000000000000000000000000 S
b1111 8
b1111 +
b1111 K
b1111 P
b10000 2
b10000 "
b10000 >
b10000 N
b10000 Y
b100011 3
b100011 %
b100011 F
b100011 U
b100011 [
15
1(
#7000
04
0'
#7050
05
0(
#7500
b110 $
b110 /
b110 B
b1001 *
b1001 1
b1001 J
b1001 O
b110 W
b110 C
b110 T
b1001 R
14
1'
#7550
b1111000100000000000000001110 #
b1111000100000000000000001110 .
b1111000100000000000000001110 ?
b101101 &
b101101 0
b101101 G
b1111000100000000000000001110 Q
b1111000100000000000000001110 @
b1111000100000000000000000000 S
b101101 V
b101101 H
b1110 8
b1110 +
b1110 K
b1110 P
b10000000000000000000000001111 2
b10000000000000000000000001111 "
b10000000000000000000000001111 >
b10000000000000000000000001111 N
b10000000000000000000000001111 Y
b101000 3
b101000 %
b101000 F
b101000 U
b101000 [
15
1(
#8000
04
0'
#8050
05
0(
#8500
b1000 *
b1000 1
b1000 J
b1000 O
b111 $
b111 /
b111 B
b1000 R
b111 W
b111 C
b111 T
14
1'
#8550
b110010 &
b110010 0
b110010 G
b1110000011110001000000001101 #
b1110000011110001000000001101 .
b1110000011110001000000001101 ?
b110010 V
b110010 H
b1110000011110001000000001101 Q
b1110000011110001000000001101 @
b1110000011110001000000000000 S
b1101 8
b1101 +
b1101 K
b1101 P
b1111000100000000000000001110 2
b1111000100000000000000001110 "
b1111000100000000000000001110 >
b1111000100000000000000001110 N
b1111000100000000000000001110 Y
b101101 3
b101101 %
b101101 F
b101101 U
b101101 [
15
1(
#9000
04
0'
#9050
05
0(
#9500
b1 !
b1 -
b1 :
b1000 $
b1000 /
b1000 B
b111 *
b111 1
b111 J
b111 O
b1 ;
b1 M
b1000 W
b1000 C
b1000 T
b111 R
14
1'
#9550
b1100 #
b1100 .
b1100 ?
b110111 &
b110111 0
b110111 G
b1100 Q
b1100 @
b0 S
b110111 V
b110111 H
b1100 8
b1100 +
b1100 K
b1100 P
b0 2
b0 "
b0 >
b0 N
b0 Y
b110010 3
b110010 %
b110010 F
b110010 U
b110010 [
15
1(
#10000
04
0'
#10050
05
0(
#10500
b110 *
b110 1
b110 J
b110 O
b1001 $
b1001 /
b1001 B
b110 R
b1001 W
b1001 C
b1001 T
14
1'
#10550
b111100 &
b111100 0
b111100 G
b1100000000000000000000001011 #
b1100000000000000000000001011 .
b1100000000000000000000001011 ?
b111100 V
b111100 H
b1100000000000000000000001011 Q
b1100000000000000000000001011 @
b1100000000000000000000000000 S
b1011 8
b1011 +
b1011 K
b1011 P
b1100 2
b1100 "
b1100 >
b1100 N
b1100 Y
b110111 3
b110111 %
b110111 F
b110111 U
b110111 [
15
1(
#11000
04
0'
#11050
05
0(
#11500
b1010 $
b1010 /
b1010 B
b101 *
b101 1
b101 J
b101 O
b1010 W
b1010 C
b1010 T
b101 R
14
1'
#11550
b1011000011000000000000001010 #
b1011000011000000000000001010 .
b1011000011000000000000001010 ?
b1000001 &
b1000001 0
b1000001 G
b1011000011000000000000001010 Q
b1011000011000000000000001010 @
b1011000011000000000000000000 S
b1000001 V
b1000001 H
b1010 8
b1010 +
b1010 K
b1010 P
b1100000000000000000000001011 2
b1100000000000000000000001011 "
b1100000000000000000000001011 >
b1100000000000000000000001011 N
b1100000000000000000000001011 Y
b111100 3
b111100 %
b111100 F
b111100 U
b111100 [
15
1(
#12000
04
0'
#12050
05
0(
#12500
b100 *
b100 1
b100 J
b100 O
b1011 $
b1011 /
b1011 B
b100 R
b1011 W
b1011 C
b1011 T
14
1'
#12550
b1000110 &
b1000110 0
b1000110 G
b1010000010110000110000001001 #
b1010000010110000110000001001 .
b1010000010110000110000001001 ?
b1000110 V
b1000110 H
b1010000010110000110000001001 Q
b1010000010110000110000001001 @
b1010000010110000110000000000 S
b1001 8
b1001 +
b1001 K
b1001 P
b1011000011000000000000001010 2
b1011000011000000000000001010 "
b1011000011000000000000001010 >
b1011000011000000000000001010 N
b1011000011000000000000001010 Y
b1000001 3
b1000001 %
b1000001 F
b1000001 U
b1000001 [
15
1(
#13000
04
0'
#13050
05
0(
#13500
b0 !
b0 -
b0 :
b1100 $
b1100 /
b1100 B
b11 *
b11 1
b11 J
b11 O
b0 ;
b0 M
b1100 W
b1100 C
b1100 T
b11 R
14
1'
#13550
b1000 #
b1000 .
b1000 ?
b1001011 &
b1001011 0
b1001011 G
b1000 Q
b1000 @
b0 S
b1001011 V
b1001011 H
b1000 8
b1000 +
b1000 K
b1000 P
b0 2
b0 "
b0 >
b0 N
b0 Y
b1000110 3
b1000110 %
b1000110 F
b1000110 U
b1000110 [
15
1(
#14000
04
0'
#14050
05
0(
#14500
b10 *
b10 1
b10 J
b10 O
b1101 $
b1101 /
b1101 B
b10 R
b1101 W
b1101 C
b1101 T
14
1'
#14550
b1010000 &
b1010000 0
b1010000 G
b1000000000000000000000000111 #
b1000000000000000000000000111 .
b1000000000000000000000000111 ?
b1010000 V
b1010000 H
b1000000000000000000000000111 Q
b1000000000000000000000000111 @
b1000000000000000000000000000 S
b111 8
b111 +
b111 K
b111 P
b1000 2
b1000 "
b1000 >
b1000 N
b1000 Y
b1001011 3
b1001011 %
b1001011 F
b1001011 U
b1001011 [
15
1(
#15000
04
0'
#15050
05
0(
#15500
b1110 $
b1110 /
b1110 B
b1 *
b1 1
b1 J
b1 O
b1110 W
b1110 C
b1110 T
b1 R
14
1'
#15550
b111000010000000000000000110 #
b111000010000000000000000110 .
b111000010000000000000000110 ?
b1010101 &
b1010101 0
b1010101 G
b111000010000000000000000110 Q
b111000010000000000000000110 @
b111000010000000000000000000 S
b1010101 V
b1010101 H
b110 8
b110 +
b110 K
b110 P
b1000000000000000000000000111 2
b1000000000000000000000000111 "
b1000000000000000000000000111 >
b1000000000000000000000000111 N
b1000000000000000000000000111 Y
b1010000 3
b1010000 %
b1010000 F
b1010000 U
b1010000 [
15
1(
#16000
04
0'
#16050
05
0(
#16500
1=
b0 *
b0 1
b0 J
b0 O
b1111 $
b1111 /
b1111 B
b0 R
b1111 W
b1111 C
b1111 T
14
1'
#16550
b1011010 &
b1011010 0
b1011010 G
b1011010 V
b1011010 H
b101 8
b101 +
b101 K
b101 P
b111000010000000000000000110 2
b111000010000000000000000110 "
b111000010000000000000000110 >
b111000010000000000000000110 N
b111000010000000000000000110 Y
b1010101 3
b1010101 %
b1010101 F
b1010101 U
b1010101 [
15
1(
#17000
04
0'
#17050
05
0(
#17500
b10000 $
b10000 /
b10000 B
b10000 W
b10000 C
b10000 T
14
1'
#17550
b1011111 &
b1011111 0
b1011111 G
b1011111 V
b1011111 H
b1011010 3
b1011010 %
b1011010 F
b1011010 U
b1011010 [
15
1(
#18000
04
0'
#18050
05
0(
#18500
b10001 $
b10001 /
b10001 B
b10001 W
b10001 C
b10001 T
14
1'
#18550
b1100100 &
b1100100 0
b1100100 G
b1100100 V
b1100100 H
b1011111 3
b1011111 %
b1011111 F
b1011111 U
b1011111 [
15
1(
#19000
04
0'
#19050
05
0(
#19500
b10010 $
b10010 /
b10010 B
b10010 W
b10010 C
b10010 T
14
1'
#19550
b1101001 &
b1101001 0
b1101001 G
b1101001 V
b1101001 H
b1100100 3
b1100100 %
b1100100 F
b1100100 U
b1100100 [
15
1(
#20000
04
0'
#20050
05
0(
#20500
b10011 $
b10011 /
b10011 B
b10011 W
b10011 C
b10011 T
14
1'
#20550
b1101110 &
b1101110 0
b1101110 G
b1101110 V
b1101110 H
b1101001 3
b1101001 %
b1101001 F
b1101001 U
b1101001 [
15
1(
#21000
04
0'
#21050
05
0(
#21500
b10100 $
b10100 /
b10100 B
b10100 W
b10100 C
b10100 T
14
1'
#21550
b1110011 &
b1110011 0
b1110011 G
b1110011 V
b1110011 H
b1101110 3
b1101110 %
b1101110 F
b1101110 U
b1101110 [
15
1(
#22000
04
0'
#22050
05
0(
#22500
b10101 $
b10101 /
b10101 B
b10101 W
b10101 C
b10101 T
14
1'
#22550
b1111000 &
b1111000 0
b1111000 G
b1111000 V
b1111000 H
b1110011 3
b1110011 %
b1110011 F
b1110011 U
b1110011 [
15
1(
#23000
04
0'
#23050
05
0(
#23500
b10110 $
b10110 /
b10110 B
b10110 W
b10110 C
b10110 T
14
1'
#23550
b1111101 &
b1111101 0
b1111101 G
b1111101 V
b1111101 H
b1111000 3
b1111000 %
b1111000 F
b1111000 U
b1111000 [
15
1(
#24000
04
0'
#24050
05
0(
#24500
b10111 $
b10111 /
b10111 B
b10111 W
b10111 C
b10111 T
14
1'
#24550
b10000010 &
b10000010 0
b10000010 G
b10000010 V
b10000010 H
b1111101 3
b1111101 %
b1111101 F
b1111101 U
b1111101 [
15
1(
#25000
04
0'
#25050
05
0(
#25500
b11000 $
b11000 /
b11000 B
b11000 W
b11000 C
b11000 T
14
1'
#25550
b10000111 &
b10000111 0
b10000111 G
b10000111 V
b10000111 H
b10000010 3
b10000010 %
b10000010 F
b10000010 U
b10000010 [
15
1(
#26000
04
0'
#26050
05
0(
#26500
bx #
bx .
bx ?
bx &
bx 0
bx G
1L
1E
b0 $
b0 /
b0 B
b11001 W
b11001 C
b11001 T
14
1'
#26550
b1 !
b1 -
b1 :
b1 $
b1 /
b1 B
b1000111000010000000000000000111 #
b1000111000010000000000000000111 .
b1000111000010000000000000000111 ?
b1000000000000000000000000000001 &
b1000000000000000000000000000001 0
b1000000000000000000000000000001 G
b1 `
b1 b
b1 <
b1 X
b1 a
b1 D
b1 Z
b1000111000010000000000000000111 ]
b1 c
b1000111000010000000000000000111 ^
b1000111000010000000000000000111 A
b1000000000000000000000000000001 \
b1000000000000000000000000000001 _
b1000000000000000000000000000001 I
b1010 3
b1010 %
b1010 F
b1010 U
b1010 [
15
1(
#27000
04
0'
#27050
05
0(
#27500
14
1'
#27550
b10 !
b10 -
b10 :
b10 $
b10 /
b10 B
b1111110111100010000000000010000 #
b1111110111100010000000000010000 .
b1111110111100010000000000010000 ?
b11110000111000010000000000000010 &
b11110000111000010000000000000010 0
b11110000111000010000000000000010 G
b10 `
b10 b
b10 <
b10 X
b10 a
b10 D
b10 Z
b1111110111100010000000000010000 ]
b1001 c
b1111110111100010000000000010000 ^
b1111110111100010000000000010000 A
b11110000111000010000000000000010 \
b11110000111000010000000000000010 _
b11110000111000010000000000000010 I
b1000111000010000000000000000111 2
b1000111000010000000000000000111 "
b1000111000010000000000000000111 >
b1000111000010000000000000000111 N
b1000111000010000000000000000111 Y
b1111 3
b1111 %
b1111 F
b1111 U
b1111 [
15
1(
#28000
04
0'
#28050
05
0(
#28500
14
1'
#28550
b11 !
b11 -
b11 :
b11 $
b11 /
b11 B
b1110011110111000100000000100010 #
b1110011110111000100000000100010 .
b1110011110111000100000000100010 ?
b1110101111110100100000000000010 &
b1110101111110100100000000000010 0
b1110101111110100100000000000010 G
b11 `
b11 b
b11 <
b11 X
b11 a
b11 D
b11 Z
b1110011110111000100000000100010 ]
b10010 c
b1110011110111000100000000100010 ^
b1110011110111000100000000100010 A
b1110101111110100100000000000010 \
b1110101111110100100000000000010 _
b1110101111110100100000000000010 I
b1111110111100010000000000010000 2
b1111110111100010000000000010000 "
b1111110111100010000000000010000 >
b1111110111100010000000000010000 N
b1111110111100010000000000010000 Y
b1000000000000000000000000000001 3
b1000000000000000000000000000001 %
b1000000000000000000000000000001 F
b1000000000000000000000000000001 U
b1000000000000000000000000000001 [
15
1(
#29000
04
0'
#29050
05
0(
#29500
14
1'
#29550
b0 !
b0 -
b0 :
b100 $
b100 /
b100 B
b11000011000011110111000001001000 #
b11000011000011110111000001001000 .
b11000011000011110111000001001000 ?
b11011011010101101111000000000100 &
b11011011010101101111000000000100 0
b11011011010101101111000000000100 G
b100 `
b0 b
b0 <
b0 X
b100 a
b100 D
b100 Z
b11000011000011110111000001001000 ]
b110 c
b11000011000011110111000001001000 ^
b11000011000011110111000001001000 A
b11011011010101101111000000000100 \
b11011011010101101111000000000100 _
b11011011010101101111000000000100 I
b1110011110111000100000000100010 2
b1110011110111000100000000100010 "
b1110011110111000100000000100010 >
b1110011110111000100000000100010 N
b1110011110111000100000000100010 Y
b11110000111000010000000000000010 3
b11110000111000010000000000000010 %
b11110000111000010000000000000010 F
b11110000111000010000000000000010 U
b11110000111000010000000000000010 [
15
1(
#30000
04
0'
#30050
05
0(
#30500
14
1'
#30550
b1 !
b1 -
b1 :
b101 $
b101 /
b101 B
b1001000101010101111010010011001 #
b1001000101010101111010010011001 .
b1001000101010101111010010011001 ?
b11000010100011000001010000001001 &
b11000010100011000001010000001001 0
b11000010100011000001010000001001 G
b101 `
b1 b
b1 <
b1 X
b101 a
b101 D
b101 Z
b1001000101010101111010010011001 ]
b10001 c
b1001000101010101111010010011001 ^
b1001000101010101111010010011001 A
b11000010100011000001010000001001 \
b11000010100011000001010000001001 _
b11000010100011000001010000001001 I
b11000011000011110111000001001000 2
b11000011000011110111000001001000 "
b11000011000011110111000001001000 >
b11000011000011110111000001001000 N
b11000011000011110111000001001000 Y
b1110101111110100100000000000010 3
b1110101111110100100000000000010 %
b1110101111110100100000000000010 F
b1110101111110100100000000000010 U
b1110101111110100100000000000010 [
15
1(
#31000
04
0'
#31050
05
0(
#31500
14
1'
#31550
b10 !
b10 -
b10 :
b110 $
b110 /
b110 B
b1101110001001111010100001000110 #
b1101110001001111010100001000110 .
b1101110001001111010100001000110 ?
b11011100110100011011111100010100 &
b11011100110100011011111100010100 0
b11011100110100011011111100010100 G
b110 `
b10 b
b10 <
b10 X
b110 a
b110 D
b110 Z
b1101110001001111010100001000110 ]
b1101 c
b1101110001001111010100001000110 ^
b1101110001001111010100001000110 A
b11011100110100011011111100010100 \
b11011100110100011011111100010100 _
b11011100110100011011111100010100 I
b1001000101010101111010010011001 2
b1001000101010101111010010011001 "
b1001000101010101111010010011001 >
b1001000101010101111010010011001 N
b1001000101010101111010010011001 Y
b11011011010101101111000000000100 3
b11011011010101101111000000000100 %
b11011011010101101111000000000100 F
b11011011010101101111000000000100 U
b11011011010101101111000000000100 [
15
1(
#32000
04
0'
#32050
05
0(
#32500
14
1'
#32550
b11 !
b11 -
b11 :
b111 $
b111 /
b111 B
b111101111111111111111111111000 #
b111101111111111111111111111000 .
b111101111111111111111111111000 ?
b1100001101100001010111101101100 &
b1100001101100001010111101101100 0
b1100001101100001010111101101100 G
b111 `
b11 b
b11 <
b11 X
b111 a
b111 D
b111 Z
b111101111111111111111111111000 ]
b10010 c
b111101111111111111111111111000 ^
b111101111111111111111111111000 A
b1100001101100001010111101101100 \
b1100001101100001010111101101100 _
b1100001101100001010111101101100 I
b1101110001001111010100001000110 2
b1101110001001111010100001000110 "
b1101110001001111010100001000110 >
b1101110001001111010100001000110 N
b1101110001001111010100001000110 Y
b11000010100011000001010000001001 3
b11000010100011000001010000001001 %
b11000010100011000001010000001001 F
b11000010100011000001010000001001 U
b11000010100011000001010000001001 [
15
1(
#33000
04
0'
#33050
05
0(
#33500
14
1'
#33550
b0 !
b0 -
b0 :
b1000 $
b1000 /
b1000 B
b10001011100100000100110110111111 #
b10001011100100000100110110111111 .
b10001011100100000100110110111111 ?
b1111100100000100110111001111 &
b1111100100000100110111001111 0
b1111100100000100110111001111 G
b1000 `
b0 b
b0 <
b0 X
b1000 a
b1000 D
b1000 Z
b10001011100100000100110110111111 ]
b111 c
b10001011100100000100110110111111 ^
b10001011100100000100110110111111 A
b1111100100000100110111001111 \
b1111100100000100110111001111 _
b1111100100000100110111001111 I
b111101111111111111111111111000 2
b111101111111111111111111111000 "
b111101111111111111111111111000 >
b111101111111111111111111111000 N
b111101111111111111111111111000 Y
b11011100110100011011111100010100 3
b11011100110100011011111100010100 %
b11011100110100011011111100010100 F
b11011100110100011011111100010100 U
b11011100110100011011111100010100 [
15
1(
#34000
04
0'
#34050
05
0(
#34500
14
1'
#34550
b1 !
b1 -
b1 :
b1001 $
b1001 /
b1001 B
b1110110101110101100010011011101 #
b1110110101110101100010011011101 .
b1110110101110101100010011011101 ?
b1011111100110100010100101011111 &
b1011111100110100010100101011111 0
b1011111100110100010100101011111 G
b1001 `
b1 b
b1 <
b1 X
b1001 a
b1001 D
b1001 Z
b1110110101110101100010011011101 ]
b11110 c
b1110110101110101100010011011101 ^
b1110110101110101100010011011101 A
b1011111100110100010100101011111 \
b1011111100110100010100101011111 _
b1011111100110100010100101011111 I
b10001011100100000100110110111111 2
b10001011100100000100110110111111 "
b10001011100100000100110110111111 >
b10001011100100000100110110111111 N
b10001011100100000100110110111111 Y
b1100001101100001010111101101100 3
b1100001101100001010111101101100 %
b1100001101100001010111101101100 F
b1100001101100001010111101101100 U
b1100001101100001010111101101100 [
15
1(
#35000
04
0'
#35050
05
0(
#35500
14
1'
#35550
b10 !
b10 -
b10 :
b1010 $
b1010 /
b1010 B
b1101010001100100011000100111011 #
b1101010001100100011000100111011 .
b1101010001100100011000100111011 ?
b1111100101111001010011110000001 &
b1111100101111001010011110000001 0
b1111100101111001010011110000001 G
b1010 `
b10 b
b10 <
b10 X
b1010 a
b1010 D
b1010 Z
b1101010001100100011000100111011 ]
b1101010001100100011000100111011 ^
b1101010001100100011000100111011 A
b1111100101111001010011110000001 \
b1111100101111001010011110000001 _
b1111100101111001010011110000001 I
b1110110101110101100010011011101 2
b1110110101110101100010011011101 "
b1110110101110101100010011011101 >
b1110110101110101100010011011101 N
b1110110101110101100010011011101 Y
b1111100100000100110111001111 3
b1111100100000100110111001111 %
b1111100100000100110111001111 F
b1111100100000100110111001111 U
b1111100100000100110111001111 [
15
1(
#36000
04
0'
#36050
05
0(
#36500
14
1'
#36550
b11 !
b11 -
b11 :
b1011 $
b1011 /
b1011 B
b111101001101011000001010111001 #
b111101001101011000001010111001 .
b111101001101011000001010111001 ?
b1101000110100010010000001000011 &
b1101000110100010010000001000011 0
b1101000110100010010000001000011 G
b1011 `
b11 b
b11 <
b11 X
b1011 a
b1011 D
b1011 Z
b111101001101011000001010111001 ]
b111101001101011000001010111001 ^
b111101001101011000001010111001 A
b1101000110100010010000001000011 \
b1101000110100010010000001000011 _
b1101000110100010010000001000011 I
b1101010001100100011000100111011 2
b1101010001100100011000100111011 "
b1101010001100100011000100111011 >
b1101010001100100011000100111011 N
b1101010001100100011000100111011 Y
b1011111100110100010100101011111 3
b1011111100110100010100101011111 %
b1011111100110100010100101011111 F
b1011111100110100010100101011111 U
b1011111100110100010100101011111 [
15
1(
#37000
04
0'
#37050
05
0(
#37500
14
1'
#37550
b0 !
b0 -
b0 :
b1100 $
b1100 /
b1100 B
b11110110000110110111011000001 #
b11110110000110110111011000001 .
b11110110000110110111011000001 ?
b10100100010110000110100101001111 &
b10100100010110000110100101001111 0
b10100100010110000110100101001111 G
b1100 `
b0 b
b0 <
b0 X
b1100 a
b1100 D
b1100 Z
b11110110000110110111011000001 ]
b1000 c
b11110110000110110111011000001 ^
b11110110000110110111011000001 A
b10100100010110000110100101001111 \
b10100100010110000110100101001111 _
b10100100010110000110100101001111 I
b111101001101011000001010111001 2
b111101001101011000001010111001 "
b111101001101011000001010111001 >
b111101001101011000001010111001 N
b111101001101011000001010111001 Y
b1111100101111001010011110000001 3
b1111100101111001010011110000001 %
b1111100101111001010011110000001 F
b1111100101111001010011110000001 U
b1111100101111001010011110000001 [
15
1(
#38000
04
0'
#38050
05
0(
#38500
14
1'
#38550
b1 !
b1 -
b1 :
b1101 $
b1101 /
b1101 B
b10100011000001000111110010001100 #
b10100011000001000111110010001100 .
b10100011000001000111110010001100 ?
b1100101011111011001111100001010 &
b1100101011111011001111100001010 0
b1100101011111011001111100001010 G
b1101 `
b1 b
b1 <
b1 X
b1101 a
b1101 D
b1101 Z
b10100011000001000111110010001100 ]
b1011 c
b10100011000001000111110010001100 ^
b10100011000001000111110010001100 A
b1100101011111011001111100001010 \
b1100101011111011001111100001010 _
b1100101011111011001111100001010 I
b11110110000110110111011000001 2
b11110110000110110111011000001 "
b11110110000110110111011000001 >
b11110110000110110111011000001 N
b11110110000110110111011000001 Y
b1101000110100010010000001000011 3
b1101000110100010010000001000011 %
b1101000110100010010000001000011 F
b1101000110100010010000001000011 U
b1101000110100010010000001000011 [
15
1(
#39000
04
0'
#39050
05
0(
#39500
14
1'
#39550
b10 !
b10 -
b10 :
b1110 $
b1110 /
b1110 B
b11111011101001000100100110110100 #
b11111011101001000100100110110100 .
b11111011101001000100100110110100 ?
b10110101100110110101000010011100 &
b10110101100110110101000010011100 0
b10110101100110110101000010011100 G
b1110 `
b10 b
b10 <
b10 X
b1110 a
b1110 D
b1110 Z
b11111011101001000100100110110100 ]
b1000 c
b11111011101001000100100110110100 ^
b11111011101001000100100110110100 A
b10110101100110110101000010011100 \
b10110101100110110101000010011100 _
b10110101100110110101000010011100 I
b10100011000001000111110010001100 2
b10100011000001000111110010001100 "
b10100011000001000111110010001100 >
b10100011000001000111110010001100 N
b10100011000001000111110010001100 Y
b10100100010110000110100101001111 3
b10100100010110000110100101001111 %
b10100100010110000110100101001111 F
b10100100010110000110100101001111 U
b10100100010110000110100101001111 [
15
1(
#40000
04
0'
#40050
05
0(
#40500
14
1'
