proyectoLeon/codigo/rc5/version1/L_prueba.vcd
$date
	Tue Oct 27 17:54:06 2015
$end
$version
	Icarus Verilog
$end
$timescale
	10ps
$end
$scope module tester $end
$var wire 2 ! L_address [1:0] $end
$var wire 32 " L_sub_i [31:0] $end
$var wire 32 # L_sub_i_prima [31:0] $end
$var wire 1 $ clk $end
$var wire 1 % done $end
$var wire 4 & key_address [3:0] $end
$var wire 8 ' key_sub_i [7:0] $end
$var wire 1 ( rst $end
$scope module test $end
$var wire 2 ) L_address [1:0] $end
$var wire 32 * L_sub_i_prima [31:0] $end
$var wire 1 % done $end
$var wire 4 + key_address [3:0] $end
$var reg 32 , L_sub_i [31:0] $end
$var reg 1 - clk $end
$var reg 8 . key_sub_i [7:0] $end
$var reg 1 / rst $end
$upscope $end
$scope module pegado $end
$var wire 32 0 L_sub_i [31:0] $end
$var wire 1 $ clk $end
$var wire 8 1 key_sub_i [7:0] $end
$var wire 1 ( rst $end
$var reg 2 2 L_address [1:0] $end
$var reg 32 3 L_sub_i_prima [31:0] $end
$var reg 4 4 counter [3:0] $end
$var reg 1 5 done $end
$var reg 4 6 key_address [3:0] $end
$var reg 2 7 state [1:0] $end
$upscope $end
$upscope $end
$enddefinitions $end
#0
$dumpvars
bx 7
bx 6
x5
bx 4
bx 3
bx 2
bx 1
bx 0
0/
bx .
0-
bx ,
bx +
bx *
bx )
0(
bx '
bx &
x%
0$
bx #
bx "
bx !
$end
#400
05
0%
b1111 4
b0 7
1/
1(
#500
1-
1$
#600
0/
0(
#1000
0-
0$
#1500
b0 2
b0 !
b0 )
b0 6
b0 &
b0 +
b1 7
1-
1$
#2000
0-
0$
#2500
b1 2
b1 !
b1 )
b1 6
b1 &
b1 +
b10 7
1-
1$
#3000
0-
0$
#3500
15
1%
b10 2
b10 !
b10 )
b10 6
b10 &
b10 +
b11 7
1-
1$
#4000
0-
0$
#4500
05
0%
b0 2
b0 !
b0 )
b0 6
b0 &
b0 +
b1 7
1-
1$
#5000
0-
0$
#5500
b1 2
b1 !
b1 )
b1 6
b1 &
b1 +
b10 7
1-
1$
#6000
0-
0$
#6500
15
1%
b10 2
b10 !
b10 )
b10 6
b10 &
b10 +
b11 7
1-
1$
#7000
0-
0$
#7500
05
0%
b0 2
b0 !
b0 )
b0 6
b0 &
b0 +
b1 7
1-
1$
#8000
0-
0$
#8500
b1 2
b1 !
b1 )
b1 6
b1 &
b1 +
b10 7
1-
1$
#9000
0-
0$
#9500
15
1%
b10 2
b10 !
b10 )
b10 6
b10 &
b10 +
b11 7
1-
1$
#10000
0-
0$
#10500
05
0%
b0 2
b0 !
b0 )
b0 6
b0 &
b0 +
b1 7
1-
1$
#11000
0-
0$
#11500
b1 2
b1 !
b1 )
b1 6
b1 &
b1 +
b10 7
1-
1$
#12000
0-
0$
#12500
15
1%
b10 2
b10 !
b10 )
b10 6
b10 &
b10 +
b11 7
1-
1$
#13000
0-
0$
#13500
05
0%
b0 2
b0 !
b0 )
b0 6
b0 &
b0 +
b1 7
1-
1$
#14000
0-
0$
#14500
b1 2
b1 !
b1 )
b1 6
b1 &
b1 +
b10 7
1-
1$
#15000
0-
0$
#15500
15
1%
b10 2
b10 !
b10 )
b10 6
b10 &
b10 +
b11 7
1-
1$
#16000
0-
0$
#16500
05
0%
b0 2
b0 !
b0 )
b0 6
b0 &
b0 +
b1 7
1-
1$
#17000
0-
0$
#17500
b1 2
b1 !
b1 )
b1 6
b1 &
b1 +
b10 7
1-
1$
#18000
0-
0$
#18500
15
1%
b10 2
b10 !
b10 )
b10 6
b10 &
b10 +
b11 7
1-
1$
#19000
0-
0$
#19500
05
0%
b0 2
b0 !
b0 )
b0 6
b0 &
b0 +
b1 7
1-
1$
#20000
0-
0$
#20500
b1 2
b1 !
b1 )
b1 6
b1 &
b1 +
b10 7
1-
1$
