proyectoLeon/codigo/rc5/version1/mixer_prueba.vcd
$date
	Sun Oct 25 14:09:26 2015
$end
$version
	Icarus Verilog
$end
$timescale
	10ps
$end
$scope module tester $end
$var wire 2 ! L_address [1:0] $end
$var wire 1 " L_done $end
$var wire 32 # L_sub_i [31:0] $end
$var wire 32 $ L_sub_i_prima [31:0] $end
$var wire 5 % S_address [4:0] $end
$var wire 1 & S_done $end
$var wire 32 ' S_sub_i [31:0] $end
$var wire 32 ( S_sub_i_prima [31:0] $end
$var wire 1 ) clk1 $end
$var wire 1 * clk2 $end
$var wire 4 + key_address [3:0] $end
$var wire 8 , key_sub_i [7:0] $end
$var wire 1 - rst $end
$scope module test $end
$var wire 2 . L_address [1:0] $end
$var wire 1 " L_done $end
$var wire 32 / L_sub_i_prima [31:0] $end
$var wire 5 0 S_address [4:0] $end
$var wire 1 & S_done $end
$var wire 32 1 S_sub_i_prima [31:0] $end
$var wire 4 2 key_address [3:0] $end
$var reg 32 3 L_sub_i [31:0] $end
$var reg 32 4 S_sub_i [31:0] $end
$var reg 1 5 clk1 $end
$var reg 1 6 clk2 $end
$var integer 32 7 i [31:0] $end
$var reg 128 8 key [127:0] $end
$var reg 8 9 key_sub_i [7:0] $end
$var reg 1 : rst $end
$scope task drv_init $end
$upscope $end
$scope task drv_read $end
$upscope $end
$scope task drv_write $end
$upscope $end
$upscope $end
$scope module pegado $end
$var wire 2 ; L_address [1:0] $end
$var wire 1 " L_done $end
$var wire 32 < L_sub_i [31:0] $end
$var wire 32 = L_sub_i_prima [31:0] $end
$var wire 5 > S_address [4:0] $end
$var wire 1 & S_done $end
$var wire 32 ? S_sub_i [31:0] $end
$var wire 32 @ S_sub_i_prima [31:0] $end
$var wire 1 ) clk1 $end
$var wire 1 * clk2 $end
$var wire 4 A key_address [3:0] $end
$var wire 8 B key_sub_i [7:0] $end
$var wire 1 - rst $end
$scope module block_L $end
$var wire 2 C L_address [1:0] $end
$var wire 32 D L_sub_i [31:0] $end
$var wire 1 ) clk1 $end
$var wire 1 * clk2 $end
$var wire 1 " done $end
$var wire 4 E key_address [3:0] $end
$var wire 8 F key_sub_i [7:0] $end
$var wire 1 - rst $end
$var reg 32 G L_sub_i_prima [31:0] $end
$var reg 5 H count [4:0] $end
$var reg 32 I temp [31:0] $end
$upscope $end
$scope module block_S $end
$var wire 5 J S_address [4:0] $end
$var wire 32 K S_sub_i [31:0] $end
$var wire 1 ) clk1 $end
$var wire 1 * clk2 $end
$var wire 1 & done $end
$var wire 1 - rst $end
$var reg 32 L S_sub_i_prima [31:0] $end
$var reg 5 M count [4:0] $end
$upscope $end
$upscope $end
$upscope $end
$enddefinitions $end
#0
$dumpvars
bx M
bx L
bx K
bx J
bx I
bx H
bx G
bx F
bx E
bx D
bx C
bx B
bx A
bx @
bx ?
bx >
bx =
bx <
bx ;
x:
bx 9
b11111111111111101110111011100101100001101000010011111111111100000101111111111110010010010011100001010011000000000000010000110100 8
b10000 7
x6
05
bx 4
bx 3
bx 2
bx 1
bx 0
bx /
bx .
x-
bx ,
bx +
x*
0)
bx (
bx '
x&
bx %
bx $
bx #
x"
bx !
$end
#50
0"
b0 +
b0 2
b0 A
b0 E
b0 !
b0 .
b0 ;
b0 C
0&
b10000 H
b11111 M
b11111 %
b11111 0
b11111 >
b11111 J
1:
1-
06
0*
#500
15
1)
#550
16
1*
#1000
05
0)
#1050
0:
0-
06
0*
#1500
b1111 +
b1111 2
b1111 A
b1111 E
b11 !
b11 .
b11 ;
b11 C
b0 M
b0 %
b0 0
b0 >
b0 J
b1111 H
15
1)
#1550
b10100 G
b10100 $
b10100 /
b10100 =
b0 I
b1111 L
b1111 (
b1111 1
b1111 @
b10100 9
b10100 ,
b10100 B
b10100 F
b0 3
b0 #
b0 <
b0 D
b1010 4
b1010 '
b1010 ?
b1010 K
16
1*
#2000
05
0)
#2050
06
0*
#2500
b1110 +
b1110 2
b1110 A
b1110 E
b1110 H
b1 M
b1 %
b1 0
b1 >
b1 J
15
1)
#2550
b10100 L
b10100 (
b10100 1
b10100 @
b100111 G
b100111 $
b100111 /
b100111 =
b10100 I
b10011 9
b10011 ,
b10011 B
b10011 F
b10100 3
b10100 #
b10100 <
b10100 D
b1111 4
b1111 '
b1111 ?
b1111 K
16
1*
#3000
05
0)
#3050
06
0*
#3500
b1101 +
b1101 2
b1101 A
b1101 E
b10 M
b10 %
b10 0
b10 >
b10 J
b1101 H
15
1)
#3550
b111001 G
b111001 $
b111001 /
b111001 =
b100111 I
b11001 L
b11001 (
b11001 1
b11001 @
b10010 9
b10010 ,
b10010 B
b10010 F
b100111 3
b100111 #
b100111 <
b100111 D
b10100 4
b10100 '
b10100 ?
b10100 K
16
1*
#4000
05
0)
#4050
06
0*
#4500
b1100 +
b1100 2
b1100 A
b1100 E
b1100 H
b11 M
b11 %
b11 0
b11 >
b11 J
15
1)
#4550
b11110 L
b11110 (
b11110 1
b11110 @
b1001010 G
b1001010 $
b1001010 /
b1001010 =
b111001 I
b10001 9
b10001 ,
b10001 B
b10001 F
b111001 3
b111001 #
b111001 <
b111001 D
b11001 4
b11001 '
b11001 ?
b11001 K
16
1*
#5000
05
0)
#5050
06
0*
#5500
b1011 +
b1011 2
b1011 A
b1011 E
b10 !
b10 .
b10 ;
b10 C
b100 M
b100 %
b100 0
b100 >
b100 J
b1011 H
15
1)
#5550
b10000 G
b10000 $
b10000 /
b10000 =
b0 I
b100011 L
b100011 (
b100011 1
b100011 @
b10000 9
b10000 ,
b10000 B
b10000 F
b0 3
b0 #
b0 <
b0 D
b11110 4
b11110 '
b11110 ?
b11110 K
16
1*
#6000
05
0)
#6050
06
0*
#6500
b1010 +
b1010 2
b1010 A
b1010 E
b1010 H
b101 M
b101 %
b101 0
b101 >
b101 J
15
1)
#6550
b101000 L
b101000 (
b101000 1
b101000 @
b11111 G
b11111 $
b11111 /
b11111 =
b10000 I
b1111 9
b1111 ,
b1111 B
b1111 F
b10000 3
b10000 #
b10000 <
b10000 D
b100011 4
b100011 '
b100011 ?
b100011 K
16
1*
#7000
05
0)
#7050
06
0*
#7500
b1001 +
b1001 2
b1001 A
b1001 E
b110 M
b110 %
b110 0
b110 >
b110 J
b1001 H
15
1)
#7550
b101101 G
b101101 $
b101101 /
b101101 =
b11111 I
b101101 L
b101101 (
b101101 1
b101101 @
b1110 9
b1110 ,
b1110 B
b1110 F
b11111 3
b11111 #
b11111 <
b11111 D
b101000 4
b101000 '
b101000 ?
b101000 K
16
1*
#8000
05
0)
#8050
06
0*
#8500
b1000 +
b1000 2
b1000 A
b1000 E
b1000 H
b111 M
b111 %
b111 0
b111 >
b111 J
15
1)
#8550
b110010 L
b110010 (
b110010 1
b110010 @
b111010 G
b111010 $
b111010 /
b111010 =
b101101 I
b1101 9
b1101 ,
b1101 B
b1101 F
b101101 3
b101101 #
b101101 <
b101101 D
b101101 4
b101101 '
b101101 ?
b101101 K
16
1*
#9000
05
0)
#9050
06
0*
#9500
b111 +
b111 2
b111 A
b111 E
b1 !
b1 .
b1 ;
b1 C
b1000 M
b1000 %
b1000 0
b1000 >
b1000 J
b111 H
15
1)
#9550
b1100 G
b1100 $
b1100 /
b1100 =
b0 I
b110111 L
b110111 (
b110111 1
b110111 @
b1100 9
b1100 ,
b1100 B
b1100 F
b0 3
b0 #
b0 <
b0 D
b110010 4
b110010 '
b110010 ?
b110010 K
16
1*
#10000
05
0)
#10050
06
0*
#10500
b110 +
b110 2
b110 A
b110 E
b110 H
b1001 M
b1001 %
b1001 0
b1001 >
b1001 J
15
1)
#10550
b111100 L
b111100 (
b111100 1
b111100 @
b10111 G
b10111 $
b10111 /
b10111 =
b1100 I
b1011 9
b1011 ,
b1011 B
b1011 F
b1100 3
b1100 #
b1100 <
b1100 D
b110111 4
b110111 '
b110111 ?
b110111 K
16
1*
#11000
05
0)
#11050
06
0*
#11500
b101 +
b101 2
b101 A
b101 E
b1010 M
b1010 %
b1010 0
b1010 >
b1010 J
b101 H
15
1)
#11550
b100001 G
b100001 $
b100001 /
b100001 =
b10111 I
b1000001 L
b1000001 (
b1000001 1
b1000001 @
b1010 9
b1010 ,
b1010 B
b1010 F
b10111 3
b10111 #
b10111 <
b10111 D
b111100 4
b111100 '
b111100 ?
b111100 K
16
1*
#12000
05
0)
#12050
06
0*
#12500
b100 +
b100 2
b100 A
b100 E
b100 H
b1011 M
b1011 %
b1011 0
b1011 >
b1011 J
15
1)
#12550
b1000110 L
b1000110 (
b1000110 1
b1000110 @
b101010 G
b101010 $
b101010 /
b101010 =
b100001 I
b1001 9
b1001 ,
b1001 B
b1001 F
b100001 3
b100001 #
b100001 <
b100001 D
b1000001 4
b1000001 '
b1000001 ?
b1000001 K
16
1*
#13000
05
0)
#13050
06
0*
#13500
b11 +
b11 2
b11 A
b11 E
b0 !
b0 .
b0 ;
b0 C
b1100 M
b1100 %
b1100 0
b1100 >
b1100 J
b11 H
15
1)
#13550
b1000 G
b1000 $
b1000 /
b1000 =
b0 I
b1001011 L
b1001011 (
b1001011 1
b1001011 @
b1000 9
b1000 ,
b1000 B
b1000 F
b0 3
b0 #
b0 <
b0 D
b1000110 4
b1000110 '
b1000110 ?
b1000110 K
16
1*
#14000
05
0)
#14050
06
0*
#14500
b10 +
b10 2
b10 A
b10 E
b10 H
b1101 M
b1101 %
b1101 0
b1101 >
b1101 J
15
1)
#14550
b1010000 L
b1010000 (
b1010000 1
b1010000 @
b1111 G
b1111 $
b1111 /
b1111 =
b1000 I
b111 9
b111 ,
b111 B
b111 F
b1000 3
b1000 #
b1000 <
b1000 D
b1001011 4
b1001011 '
b1001011 ?
b1001011 K
16
1*
#15000
05
0)
#15050
06
0*
#15500
b1 +
b1 2
b1 A
b1 E
b1110 M
b1110 %
b1110 0
b1110 >
b1110 J
b1 H
15
1)
#15550
b10101 G
b10101 $
b10101 /
b10101 =
b1111 I
b1010101 L
b1010101 (
b1010101 1
b1010101 @
b110 9
b110 ,
b110 B
b110 F
b1111 3
b1111 #
b1111 <
b1111 D
b1010000 4
b1010000 '
b1010000 ?
b1010000 K
16
1*
#16000
05
0)
#16050
06
0*
#16500
1"
b0 +
b0 2
b0 A
b0 E
b0 H
b1111 M
b1111 %
b1111 0
b1111 >
b1111 J
15
1)
#16550
b1011010 L
b1011010 (
b1011010 1
b1011010 @
b101 9
b101 ,
b101 B
b101 F
b10101 3
b10101 #
b10101 <
b10101 D
b1010101 4
b1010101 '
b1010101 ?
b1010101 K
16
1*
#17000
05
0)
#17050
06
0*
#17500
b10000 M
b10000 %
b10000 0
b10000 >
b10000 J
15
1)
#17550
b1011111 L
b1011111 (
b1011111 1
b1011111 @
b1011010 4
b1011010 '
b1011010 ?
b1011010 K
16
1*
#18000
05
0)
#18050
06
0*
#18500
b10001 M
b10001 %
b10001 0
b10001 >
b10001 J
15
1)
#18550
b1100100 L
b1100100 (
b1100100 1
b1100100 @
b1011111 4
b1011111 '
b1011111 ?
b1011111 K
16
1*
#19000
05
0)
#19050
06
0*
#19500
b10010 M
b10010 %
b10010 0
b10010 >
b10010 J
15
1)
#19550
b1101001 L
b1101001 (
b1101001 1
b1101001 @
b1100100 4
b1100100 '
b1100100 ?
b1100100 K
16
1*
#20000
05
0)
#20050
06
0*
#20500
b10011 M
b10011 %
b10011 0
b10011 >
b10011 J
15
1)
#20550
b1101110 L
b1101110 (
b1101110 1
b1101110 @
b1101001 4
b1101001 '
b1101001 ?
b1101001 K
16
1*
#21000
05
0)
#21050
06
0*
#21500
b10100 M
b10100 %
b10100 0
b10100 >
b10100 J
15
1)
#21550
b1110011 L
b1110011 (
b1110011 1
b1110011 @
b1101110 4
b1101110 '
b1101110 ?
b1101110 K
16
1*
#22000
05
0)
#22050
06
0*
#22500
b10101 M
b10101 %
b10101 0
b10101 >
b10101 J
15
1)
#22550
b1111000 L
b1111000 (
b1111000 1
b1111000 @
b1110011 4
b1110011 '
b1110011 ?
b1110011 K
16
1*
#23000
05
0)
#23050
06
0*
#23500
b10110 M
b10110 %
b10110 0
b10110 >
b10110 J
15
1)
#23550
b1111101 L
b1111101 (
b1111101 1
b1111101 @
b1111000 4
b1111000 '
b1111000 ?
b1111000 K
16
1*
#24000
05
0)
#24050
06
0*
#24500
b10111 M
b10111 %
b10111 0
b10111 >
b10111 J
15
1)
#24550
b10000010 L
b10000010 (
b10000010 1
b10000010 @
b1111101 4
b1111101 '
b1111101 ?
b1111101 K
16
1*
#25000
05
0)
#25050
06
0*
#25500
b11000 M
b11000 %
b11000 0
b11000 >
b11000 J
15
1)
#25550
b10000111 L
b10000111 (
b10000111 1
b10000111 @
b10000010 4
b10000010 '
b10000010 ?
b10000010 K
16
1*
#26000
05
0)
#26050
06
0*
#26500
1&
b11001 M
b11001 %
b11001 0
b11001 >
b11001 J
15
1)
#26550
b10000111 4
b10000111 '
b10000111 ?
b10000111 K
16
1*
