proyectoLeon/codigo/vivadoCode/rc5/decipher.vcd
$date
	Tue Dec  1 23:29:21 2015
$end
$version
	Icarus Verilog
$end
$timescale
	10ps
$end
$scope module testbench $end
$var wire 16 ! A_decipher [15:0] $end
$var wire 16 " B_decipher [15:0] $end
$var wire 1 # done $end
$var reg 16 $ A [15:0] $end
$var reg 16 % B [15:0] $end
$var reg 1 & clk $end
$var integer 32 ' i [31:0] $end
$var reg 128 ( key [127:0] $end
$var reg 1 ) rst $end
$scope module dut $end
$var wire 3 * L_address [2:0] $end
$var wire 16 + L_sub_i [15:0] $end
$var wire 16 , L_sub_i_prima [15:0] $end
$var wire 1 - L_we $end
$var wire 5 . S_address [4:0] $end
$var wire 5 / S_address_expander [4:0] $end
$var wire 16 0 S_sub_i [15:0] $end
$var wire 16 1 S_sub_i_prima [15:0] $end
$var wire 1 2 S_we $end
$var wire 1 3 cipherDone $end
$var wire 1 4 cipherDone1 $end
$var wire 1 5 clk $end
$var wire 16 6 iA [15:0] $end
$var wire 16 7 iB [15:0] $end
$var wire 16 8 iS_sub_i2 [15:0] $end
$var wire 1 9 keyExpanderDone $end
$var wire 1 : keyExpanderDone1 $end
$var wire 4 ; key_address [3:0] $end
$var wire 8 < key_sub_i [7:0] $end
$var wire 16 = oA_cipher [15:0] $end
$var wire 16 > oA_decipher [15:0] $end
$var wire 16 ? oB_cipher [15:0] $end
$var wire 16 @ oB_decipher [15:0] $end
$var wire 1 # oDone $end
$var wire 1 A rst $end
$var wire 5 B wS_address2 [4:0] $end
$var wire 5 C wS_address_cipher [4:0] $end
$var wire 5 D wS_address_cipher1 [4:0] $end
$var wire 5 E wS_address_cipher2 [4:0] $end
$var wire 5 F wS_address_decipher1 [4:0] $end
$var wire 5 G wS_address_decipher2 [4:0] $end
$var wire 1 H wStartCipher $end
$var wire 1 I wStartDecipher $end
$scope module ff1 $end
$var wire 1 5 Clock $end
$var wire 1 9 D $end
$var wire 1 J Enable $end
$var wire 1 A Reset $end
$var reg 1 K Q $end
$upscope $end
$scope module ff2 $end
$var wire 1 5 Clock $end
$var wire 1 : D $end
$var wire 1 L Enable $end
$var wire 1 A Reset $end
$var reg 1 M Q $end
$upscope $end
$scope module ff3 $end
$var wire 1 5 Clock $end
$var wire 1 3 D $end
$var wire 1 N Enable $end
$var wire 1 A Reset $end
$var reg 1 O Q $end
$upscope $end
$scope module ff4 $end
$var wire 1 5 Clock $end
$var wire 1 4 D $end
$var wire 1 P Enable $end
$var wire 1 A Reset $end
$var reg 1 Q Q $end
$upscope $end
$scope module descifrador $end
$var wire 1 5 clk $end
$var wire 16 R iA [15:0] $end
$var wire 16 S iB [15:0] $end
$var wire 16 T iS_sub_i1 [15:0] $end
$var wire 16 U iS_sub_i2 [15:0] $end
$var wire 1 I iStart $end
$var wire 1 A rst $end
$var wire 16 V wAorB_rot [15:0] $end
$var reg 16 W oA_decipher [15:0] $end
$var reg 16 X oA_decipher_nxt [15:0] $end
$var reg 16 Y oB_decipher [15:0] $end
$var reg 16 Z oB_decipher_nxt [15:0] $end
$var reg 1 [ oDone $end
$var reg 1 \ oDone_nxt $end
$var reg 5 ] oS_address1 [4:0] $end
$var reg 16 ^ oS_address1_nxt [15:0] $end
$var reg 5 _ oS_address2 [4:0] $end
$var reg 16 ` oS_address2_nxt [15:0] $end
$var reg 16 a rAorB [15:0] $end
$var reg 16 b rAorB_nxt [15:0] $end
$var reg 4 c rCount [3:0] $end
$var reg 4 d rCount_nxt [3:0] $end
$var reg 4 e rRot_value [3:0] $end
$var reg 4 f rRot_value_nxt [3:0] $end
$var reg 4 g state [3:0] $end
$scope module bar $end
$var wire 16 h iData [15:0] $end
$var wire 1 i iDir $end
$var wire 4 j iRotate [3:0] $end
$var reg 16 k oData [15:0] $end
$upscope $end
$upscope $end
$scope module cifrador $end
$var wire 1 5 clk $end
$var wire 16 l iA [15:0] $end
$var wire 16 m iB [15:0] $end
$var wire 16 n iS_sub_i1 [15:0] $end
$var wire 16 o iS_sub_i2 [15:0] $end
$var wire 1 H iStart $end
$var wire 1 A rst $end
$var wire 16 p wA_XOR_B_rot [15:0] $end
$var reg 16 q oA_cipher [15:0] $end
$var reg 16 r oA_cipher_nxt [15:0] $end
$var reg 16 s oB_cipher [15:0] $end
$var reg 16 t oB_cipher_nxt [15:0] $end
$var reg 1 u oDone $end
$var reg 1 v oDone_nxt $end
$var reg 5 w oS_address1 [4:0] $end
$var reg 16 x oS_address1_nxt [15:0] $end
$var reg 5 y oS_address2 [4:0] $end
$var reg 16 z oS_address2_nxt [15:0] $end
$var reg 16 { rA_XOR_B [15:0] $end
$var reg 16 | rA_XOR_B_nxt [15:0] $end
$var reg 4 } rCount [3:0] $end
$var reg 4 ~ rCount_nxt [3:0] $end
$var reg 4 !" rRot_value [3:0] $end
$var reg 4 "" rRot_value_nxt [3:0] $end
$var reg 4 #" state [3:0] $end
$scope module bar $end
$var wire 16 $" iData [15:0] $end
$var wire 1 %" iDir $end
$var wire 4 &" iRotate [3:0] $end
$var reg 16 '" oData [15:0] $end
$upscope $end
$upscope $end
$scope module expander $end
$var wire 1 5 clk $end
$var wire 8 (" iKey_sub_i [7:0] $end
$var wire 16 )" iL_sub_i [15:0] $end
$var wire 16 *" iS_sub_i [15:0] $end
$var wire 1 9 oKeyExpanderDone $end
$var wire 4 +" oKey_address [3:0] $end
$var wire 3 ," oL_address [2:0] $end
$var wire 16 -" oL_sub_i_prima [15:0] $end
$var wire 1 - oL_we $end
$var wire 5 ." oS_address [4:0] $end
$var wire 16 /" oS_sub_i_prima [15:0] $end
$var wire 1 2 oS_we $end
$var wire 1 A rst $end
$var wire 1 0" start1 $end
$var wire 1 1" start2 $end
$var wire 3 2" wL_address1 [2:0] $end
$var wire 3 3" wL_address2 [2:0] $end
$var wire 1 4" wL_done $end
$var wire 16 5" wL_sub_i_prima1 [15:0] $end
$var wire 16 6" wL_sub_i_prima2 [15:0] $end
$var wire 1 7" wL_we1 $end
$var wire 1 8" wL_we2 $end
$var wire 5 9" wS_address1 [4:0] $end
$var wire 5 :" wS_address2 [4:0] $end
$var wire 1 ;" wS_done $end
$var wire 16 <" wS_sub_i_prima1 [15:0] $end
$var wire 16 =" wS_sub_i_prima2 [15:0] $end
$var wire 1 >" wS_we1 $end
$var wire 1 ?" wS_we2 $end
$var wire 1 @" wStart $end
$scope module ff1 $end
$var wire 1 5 Clock $end
$var wire 1 0" D $end
$var wire 1 A" Enable $end
$var wire 1 A Reset $end
$var reg 1 B" Q $end
$upscope $end
$scope module ff2 $end
$var wire 1 5 Clock $end
$var wire 1 1" D $end
$var wire 1 C" Enable $end
$var wire 1 A Reset $end
$var reg 1 D" Q $end
$upscope $end
$scope module mixer $end
$var wire 1 5 clk $end
$var wire 16 E" iL_sub_i [15:0] $end
$var wire 16 F" iS_sub_i [15:0] $end
$var wire 1 @" iStart $end
$var wire 1 A rst $end
$var wire 16 G" wL_rotate [15:0] $end
$var reg 16 H" A [15:0] $end
$var reg 16 I" A_nxt [15:0] $end
$var reg 16 J" B [15:0] $end
$var reg 16 K" B_nxt [15:0] $end
$var reg 1 L" oDone $end
$var reg 1 M" oDone_nxt $end
$var reg 3 N" oL_address [2:0] $end
$var reg 3 O" oL_address_nxt [2:0] $end
$var reg 16 P" oL_sub_i_prima [15:0] $end
$var reg 16 Q" oL_sub_i_prima_nxt [15:0] $end
$var reg 1 R" oL_we $end
$var reg 1 S" oL_we_nxt $end
$var reg 5 T" oS_address [4:0] $end
$var reg 5 U" oS_address_nxt [4:0] $end
$var reg 16 V" oS_sub_i_prima [15:0] $end
$var reg 16 W" oS_sub_i_prima_nxt [15:0] $end
$var reg 1 X" oS_we $end
$var reg 1 Y" oS_we_nxt $end
$var reg 7 Z" rCount [6:0] $end
$var reg 7 [" rCount_nxt [6:0] $end
$var reg 16 \" rSumTemp [15:0] $end
$var reg 16 ]" rSumTemp_nxt [15:0] $end
$var reg 4 ^" state [3:0] $end
$scope module barrel $end
$var wire 16 _" iData [15:0] $end
$var wire 1 `" iDir $end
$var wire 4 a" iRotate [3:0] $end
$var reg 16 b" oData [15:0] $end
$upscope $end
$upscope $end
$scope module S $end
$var wire 1 5 clk $end
$var wire 16 c" iS_sub_i [15:0] $end
$var wire 1 A rst $end
$var reg 1 d" oDone $end
$var reg 1 e" oDone_nxt $end
$var reg 5 f" oS_address [4:0] $end
$var reg 5 g" oS_address_nxt [4:0] $end
$var reg 16 h" oS_sub_i_prima [15:0] $end
$var reg 16 i" oS_sub_i_prima_nxt [15:0] $end
$var reg 1 j" oS_we $end
$var reg 1 k" oS_we_nxt $end
$var reg 5 l" rCount [4:0] $end
$var reg 5 m" rCount_nxt [4:0] $end
$var reg 3 n" state [2:0] $end
$upscope $end
$scope module L $end
$var wire 16 o" L_sub_i [15:0] $end
$var wire 1 5 clk $end
$var wire 8 p" key_sub_i [7:0] $end
$var wire 1 A rst $end
$var reg 3 q" L_address [2:0] $end
$var reg 3 r" L_address_nxt [2:0] $end
$var reg 16 s" L_sub_i_prima [15:0] $end
$var reg 16 t" L_sub_i_prima_nxt [15:0] $end
$var reg 1 u" L_we $end
$var reg 1 v" L_we_nxt $end
$var reg 4 w" count [3:0] $end
$var reg 4 x" count_nxt [3:0] $end
$var reg 1 y" done $end
$var reg 1 z" done_nxt $end
$var reg 4 {" key_address [3:0] $end
$var reg 4 |" key_address_nxt [3:0] $end
$var reg 3 }" state [2:0] $end
$upscope $end
$upscope $end
$scope module S_RAM $end
$var wire 5 ~" addr_a [4:0] $end
$var wire 5 !# addr_b [4:0] $end
$var wire 1 5 clk $end
$var wire 16 "# data_a [15:0] $end
$var wire 16 ## data_b [15:0] $end
$var wire 1 2 we_a $end
$var wire 1 $# we_b $end
$var reg 16 %# q_a [15:0] $end
$var reg 16 &# q_b [15:0] $end
$upscope $end
$scope module key_RAM $end
$var wire 4 '# addr_a [3:0] $end
$var wire 4 (# addr_b [3:0] $end
$var wire 1 5 clk $end
$var wire 8 )# data_a [7:0] $end
$var wire 8 *# data_b [7:0] $end
$var wire 1 +# we_a $end
$var wire 1 ,# we_b $end
$var reg 8 -# q_a [7:0] $end
$var reg 8 .# q_b [7:0] $end
$upscope $end
$scope module L_RAM $end
$var wire 3 /# addr_a [2:0] $end
$var wire 3 0# addr_b [2:0] $end
$var wire 1 5 clk $end
$var wire 16 1# data_a [15:0] $end
$var wire 16 2# data_b [15:0] $end
$var wire 1 - we_a $end
$var wire 1 3# we_b $end
$var reg 16 4# q_a [15:0] $end
$var reg 16 5# q_b [15:0] $end
$upscope $end
$upscope $end
$upscope $end
$enddefinitions $end
#0
$dumpvars
bx 5#
bx 4#
03#
b0 2#
bx 1#
b0 0#
bx /#
bx .#
bx -#
0,#
0+#
b0 *#
b0 )#
b0 (#
bx '#
bx &#
bx %#
0$#
b0 ##
bx "#
bx !#
bx ~"
bx }"
bx |"
bx {"
xz"
xy"
bx x"
bx w"
xv"
xu"
bx t"
bx s"
bx r"
bx q"
bx p"
bx o"
bx n"
bx m"
bx l"
xk"
xj"
bx i"
bx h"
bx g"
bx f"
xe"
xd"
bx c"
bx b"
bx a"
0`"
bx _"
bx ^"
bx ]"
bx \"
bx ["
bx Z"
xY"
xX"
bx W"
bx V"
bx U"
bx T"
xS"
xR"
bx Q"
bx P"
bx O"
bx N"
xM"
xL"
bx K"
bx J"
bx I"
bx H"
bx G"
bx F"
bx E"
xD"
1C"
xB"
1A"
x@"
x?"
x>"
bx ="
bx <"
x;"
bx :"
bx 9"
x8"
x7"
bx 6"
bx 5"
x4"
bx 3"
bx 2"
x1"
x0"
bx /"
bx ."
bx -"
bx ,"
bx +"
bx *"
bx )"
bx ("
bx '"
bx &"
0%"
bx $"
bx #"
bx ""
bx !"
bx ~
bx }
bx |
bx {
b0xxxxx z
bx y
b0xxxxx x
bx w
xv
xu
bx t
bx s
bx r
bx q
bx p
bx o
bx n
b100101100010101 m
b1010010100100001 l
bx k
bx j
1i
bx h
bx g
bx f
bx e
bx d
bx c
bx b
bx a
bx `
bx _
bx ^
bx ]
x\
x[
bx Z
bx Y
bx X
bx W
bx V
bx U
bx T
bx S
bx R
xQ
1P
xO
1N
xM
1L
xK
1J
xI
xH
bx G
bx F
bx E
bx D
bx C
bx B
0A
bx @
bx ?
bx >
bx =
bx <
bx ;
x:
x9
bx 8
b100101100010101 7
b1010010100100001 6
05
x4
x3
x2
bx 1
bx 0
bx /
bx .
x-
bx ,
bx +
bx *
0)
b10010001110011101010100100010000000000011010010101010101011000110101000110110010010000011011111000011001010001100101111110010001 (
b10000 '
0&
b100101100010101 %
b1010010100100001 $
x#
bx "
bx !
$end
#200
1)
1A
#500
b0 k
b0 V
b0 '"
b0 p
b0 b"
b0 G"
b0 .
b0 ~"
0\
b0 f
b0 b
b1100 d
b0 Z
b11001 `
b11000 ^
b1 B
b1 !#
0v
b0 ""
b0 |
b1 ~
b0 t
b1 z
b0 x
b0 C
b0 a"
0Y"
0S"
b0 Q"
b0 W"
0M"
b0 ]"
b0 K"
b0 I"
b111 O"
b11001 U"
b1111111 ["
b0 1
b0 /"
b0 "#
02
b1 m"
b0 i"
0k"
0e"
b1 g"
b0 /
b0 ."
b0 ,
b0 -"
b0 1#
b0 *
b0 ,"
b0 /#
0-
00"
b0 t"
b0 r"
b0 |"
0v"
0z"
b1111 x"
0K
0:
0M
0H
0O
04
0Q
0I
b0 g
0[
0#
b0 e
b0 j
b0 a
b0 h
b1100 c
b0 Y
b0 "
b0 @
b0 W
b0 !
b0 >
b11001 _
b11001 G
b11000 ]
b11000 F
b0 #"
0u
03
b0 !"
b0 &"
b0 {
b0 $"
b1 }
b0 s
b0 ?
b0 S
b0 q
b0 =
b0 R
b1 y
b1 E
b0 w
b0 D
0B"
01"
0D"
0@"
0X"
0?"
0R"
08"
b0 P"
b0 6"
b0 _"
b0 V"
b0 ="
0L"
09
b0 \"
b0 J"
b0 H"
b111 N"
b111 3"
b11001 T"
b11001 :"
b1111111 Z"
b1 l"
b0 h"
b0 <"
0j"
0>"
0d"
0;"
b0 f"
b0 9"
b0 }"
b0 s"
b0 5"
b0 q"
b0 2"
b0 {"
b0 ;
b0 +"
b0 '#
0u"
07"
0y"
04"
b1111 w"
b10010001 .#
b0 5#
b0 ^"
b0 n"
1&
15
#600
0)
0A
#1000
0&
05
#1500
b1 .
b1 ~"
b1 C
b111 r"
b1111 |"
b1 /
b1 ."
b0 g"
b0 4#
b0 +
b0 )"
b0 E"
b0 o"
b10010001 -#
b10010001 <
b10010001 ("
b10010001 p"
b1011011111100001 %#
b1011011111100001 0
b1011011111100001 T
b1011011111100001 n
b1011011111100001 *"
b1011011111100001 F"
b1011011111100001 c"
b1 }"
b1 f"
b1 9"
b1 n"
bx q
bx =
bx R
bx W
bx !
bx >
1&
15
#2000
0&
05
#2500
b0 .
b0 ~"
b0 C
b0 /
b0 ."
b111 *
b111 ,"
b111 /#
b10 n"
b0 f"
b0 9"
b10 }"
b111 q"
b111 2"
b1111 {"
b1111 ;
b1111 +"
b1111 '#
bx %#
bx 0
bx T
bx n
bx *"
bx F"
bx c"
1&
15
#3000
0&
05
#3500
b10010001 t"
b101011000011000 i"
b1 g"
b1011011111100001 %#
b1011011111100001 0
b1011011111100001 T
b1011011111100001 n
b1011011111100001 *"
b1011011111100001 F"
b1011011111100001 c"
b11 }"
b11 n"
1&
15
#4000
0&
05
#4500
b1 .
b1 ~"
b1 C
b101011000011000 1
b101011000011000 /"
b101011000011000 "#
1k"
b10 m"
b1 /
b1 ."
1v"
b1110 x"
b10010001 ,
b10010001 -"
b10010001 1#
b100 n"
b101011000011000 h"
b101011000011000 <"
b1 f"
b1 9"
b100 }"
b10010001 s"
b10010001 5"
1&
15
#5000
0&
05
#5500
1-
0v"
b1110 |"
12
0k"
bx %#
bx 0
bx T
bx n
bx *"
bx F"
bx c"
1u"
17"
b1110 w"
b1 }"
b10 l"
1j"
1>"
b1 n"
1&
15
#6000
0&
05
#6500
02
0-
b10 n"
0j"
0>"
b10 }"
b1110 {"
b1110 ;
b1110 +"
b1110 '#
0u"
07"
b101011000011000 %#
b101011000011000 0
b101011000011000 T
b101011000011000 n
b101011000011000 *"
b101011000011000 F"
b101011000011000 c"
b10010001 4#
b10010001 +
b10010001 )"
b10010001 E"
b10010001 o"
1&
15
#7000
0&
05
#7500
b1001000111001110 t"
b1111010001001111 i"
b10 g"
b11001110 -#
b11001110 <
b11001110 ("
b11001110 p"
b101011000011000 &#
b101011000011000 8
b101011000011000 U
b101011000011000 o
b11 }"
b11 n"
1&
15
#8000
0&
05
#8500
b10 .
b10 ~"
b10 C
b1111010001001111 1
b1111010001001111 /"
b1111010001001111 "#
1k"
b11 m"
b10 /
b10 ."
1v"
b1101 x"
b1001000111001110 ,
b1001000111001110 -"
b1001000111001110 1#
b100 n"
b1111010001001111 h"
b1111010001001111 <"
b10 f"
b10 9"
b100 }"
b1001000111001110 s"
b1001000111001110 5"
1&
15
#9000
0&
05
#9500
1-
0v"
b110 r"
b1101 |"
12
0k"
bx %#
bx 0
bx T
bx n
bx *"
bx F"
bx c"
1u"
17"
b1101 w"
b1 }"
b11 l"
1j"
1>"
b1 n"
1&
15
#10000
0&
05
#10500
02
b110 *
b110 ,"
b110 /#
0-
b10 n"
0j"
0>"
b10 }"
b110 q"
b110 2"
b1101 {"
b1101 ;
b1101 +"
b1101 '#
0u"
07"
b1111010001001111 %#
b1111010001001111 0
b1111010001001111 T
b1111010001001111 n
b1111010001001111 *"
b1111010001001111 F"
b1111010001001111 c"
b1001000111001110 4#
b1001000111001110 +
b1001000111001110 )"
b1001000111001110 E"
b1001000111001110 o"
1&
15
#11000
0&
05
#11500
b10101001 t"
b1001001010000110 i"
b11 g"
b0 4#
b0 +
b0 )"
b0 E"
b0 o"
b10101001 -#
b10101001 <
b10101001 ("
b10101001 p"
b11 }"
b11 n"
1&
15
#12000
0&
05
#12500
b11 .
b11 ~"
b11 C
b1001001010000110 1
b1001001010000110 /"
b1001001010000110 "#
1k"
b100 m"
b11 /
b11 ."
1v"
b1100 x"
b10101001 ,
b10101001 -"
b10101001 1#
b100 n"
b1001001010000110 h"
b1001001010000110 <"
b11 f"
b11 9"
b100 }"
b10101001 s"
b10101001 5"
1&
15
#13000
0&
05
#13500
1-
0v"
b1100 |"
12
0k"
bx %#
bx 0
bx T
bx n
bx *"
bx F"
bx c"
1u"
17"
b1100 w"
b1 }"
b100 l"
1j"
1>"
b1 n"
1&
15
#14000
0&
05
#14500
02
0-
b10 n"
0j"
0>"
b10 }"
b1100 {"
b1100 ;
b1100 +"
b1100 '#
0u"
07"
b1001001010000110 %#
b1001001010000110 0
b1001001010000110 T
b1001001010000110 n
b1001001010000110 *"
b1001001010000110 F"
b1001001010000110 c"
b10101001 4#
b10101001 +
b10101001 )"
b10101001 E"
b10101001 o"
1&
15
#15000
0&
05
#15500
b1010100100010000 t"
b11000010111101 i"
b100 g"
b10000 -#
b10000 <
b10000 ("
b10000 p"
b11 }"
b11 n"
1&
15
#16000
0&
05
#16500
b100 .
b100 ~"
b100 C
b11000010111101 1
b11000010111101 /"
b11000010111101 "#
1k"
b101 m"
b100 /
b100 ."
1v"
b1011 x"
b1010100100010000 ,
b1010100100010000 -"
b1010100100010000 1#
b100 n"
b11000010111101 h"
b11000010111101 <"
b100 f"
b100 9"
b100 }"
b1010100100010000 s"
b1010100100010000 5"
1&
15
#17000
0&
05
#17500
1-
0v"
b101 r"
b1011 |"
12
0k"
bx %#
bx 0
bx T
bx n
bx *"
bx F"
bx c"
1u"
17"
b1011 w"
b1 }"
b101 l"
1j"
1>"
b1 n"
1&
15
#18000
0&
05
#18500
02
b101 *
b101 ,"
b101 /#
0-
b10 n"
0j"
0>"
b10 }"
b101 q"
b101 2"
b1011 {"
b1011 ;
b1011 +"
b1011 '#
0u"
07"
b11000010111101 %#
b11000010111101 0
b11000010111101 T
b11000010111101 n
b11000010111101 *"
b11000010111101 F"
b11000010111101 c"
b1010100100010000 4#
b1010100100010000 +
b1010100100010000 )"
b1010100100010000 E"
b1010100100010000 o"
1&
15
#19000
0&
05
#19500
b1 t"
b1100111011110100 i"
b101 g"
b0 4#
b0 +
b0 )"
b0 E"
b0 o"
b1 -#
b1 <
b1 ("
b1 p"
b11 }"
b11 n"
1&
15
#20000
0&
05
#20500
b101 .
b101 ~"
b101 C
b1100111011110100 1
b1100111011110100 /"
b1100111011110100 "#
1k"
b110 m"
b101 /
b101 ."
1v"
b1010 x"
b1 ,
b1 -"
b1 1#
b100 n"
b1100111011110100 h"
b1100111011110100 <"
b101 f"
b101 9"
b100 }"
b1 s"
b1 5"
1&
15
#21000
0&
05
#21500
1-
0v"
b1010 |"
12
0k"
bx %#
bx 0
bx T
bx n
bx *"
bx F"
bx c"
1u"
17"
b1010 w"
b1 }"
b110 l"
1j"
1>"
b1 n"
1&
15
#22000
0&
05
#22500
02
0-
b10 n"
0j"
0>"
b10 }"
b1010 {"
b1010 ;
b1010 +"
b1010 '#
0u"
07"
b1100111011110100 %#
b1100111011110100 0
b1100111011110100 T
b1100111011110100 n
b1100111011110100 *"
b1100111011110100 F"
b1100111011110100 c"
b1 4#
b1 +
b1 )"
b1 E"
b1 o"
1&
15
#23000
0&
05
#23500
b110100101 t"
b110110100101011 i"
b110 g"
b10100101 -#
b10100101 <
b10100101 ("
b10100101 p"
b11 }"
b11 n"
1&
15
#24000
0&
05
#24500
b110 .
b110 ~"
b110 C
b110110100101011 1
b110110100101011 /"
b110110100101011 "#
1k"
b111 m"
b110 /
b110 ."
1v"
b1001 x"
b110100101 ,
b110100101 -"
b110100101 1#
b100 n"
b110110100101011 h"
b110110100101011 <"
b110 f"
b110 9"
b100 }"
b110100101 s"
b110100101 5"
1&
15
#25000
0&
05
#25500
1-
0v"
b100 r"
b1001 |"
12
0k"
bx %#
bx 0
bx T
bx n
bx *"
bx F"
bx c"
1u"
17"
b1001 w"
b1 }"
b111 l"
1j"
1>"
b1 n"
1&
15
#26000
0&
05
#26500
02
b100 *
b100 ,"
b100 /#
0-
b10 n"
0j"
0>"
b10 }"
b100 q"
b100 2"
b1001 {"
b1001 ;
b1001 +"
b1001 '#
0u"
07"
b110110100101011 %#
b110110100101011 0
b110110100101011 T
b110110100101011 n
b110110100101011 *"
b110110100101011 F"
b110110100101011 c"
b110100101 4#
b110100101 +
b110100101 )"
b110100101 E"
b110100101 o"
1&
15
#27000
0&
05
#27500
b1010101 t"
b101101100010 i"
b111 g"
b0 4#
b0 +
b0 )"
b0 E"
b0 o"
b1010101 -#
b1010101 <
b1010101 ("
b1010101 p"
b11 }"
b11 n"
1&
15
#28000
0&
05
#28500
b111 .
b111 ~"
b111 C
b101101100010 1
b101101100010 /"
b101101100010 "#
1k"
b1000 m"
b111 /
b111 ."
1v"
b1000 x"
b1010101 ,
b1010101 -"
b1010101 1#
b100 n"
b101101100010 h"
b101101100010 <"
b111 f"
b111 9"
b100 }"
b1010101 s"
b1010101 5"
1&
15
#29000
0&
05
#29500
1-
0v"
b1000 |"
12
0k"
bx %#
bx 0
bx T
bx n
bx *"
bx F"
bx c"
1u"
17"
b1000 w"
b1 }"
b1000 l"
1j"
1>"
b1 n"
1&
15
#30000
0&
05
#30500
02
0-
b10 n"
0j"
0>"
b10 }"
b1000 {"
b1000 ;
b1000 +"
b1000 '#
0u"
07"
b101101100010 %#
b101101100010 0
b101101100010 T
b101101100010 n
b101101100010 *"
b101101100010 F"
b101101100010 c"
b1010101 4#
b1010101 +
b1010101 )"
b1010101 E"
b1010101 o"
1&
15
#31000
0&
05
#31500
b101010101100011 t"
b1010100110011001 i"
b1000 g"
b1100011 -#
b1100011 <
b1100011 ("
b1100011 p"
b11 }"
b11 n"
1&
15
#32000
0&
05
#32500
b1000 .
b1000 ~"
b1000 C
b1010100110011001 1
b1010100110011001 /"
b1010100110011001 "#
1k"
b1001 m"
b1000 /
b1000 ."
1v"
b111 x"
b101010101100011 ,
b101010101100011 -"
b101010101100011 1#
b100 n"
b1010100110011001 h"
b1010100110011001 <"
b1000 f"
b1000 9"
b100 }"
b101010101100011 s"
b101010101100011 5"
1&
15
#33000
0&
05
#33500
1-
0v"
b11 r"
b111 |"
12
0k"
bx %#
bx 0
bx T
bx n
bx *"
bx F"
bx c"
1u"
17"
b111 w"
b1 }"
b1001 l"
1j"
1>"
b1 n"
1&
15
#34000
0&
05
#34500
02
b11 *
b11 ,"
b11 /#
0-
b10 n"
0j"
0>"
b10 }"
b11 q"
b11 2"
b111 {"
b111 ;
b111 +"
b111 '#
0u"
07"
b1010100110011001 %#
b1010100110011001 0
b1010100110011001 T
b1010100110011001 n
b1010100110011001 *"
b1010100110011001 F"
b1010100110011001 c"
b101010101100011 4#
b101010101100011 +
b101010101100011 )"
b101010101100011 E"
b101010101100011 o"
1&
15
#35000
0&
05
#35500
b1010001 t"
b100011111010000 i"
b1001 g"
b0 4#
b0 +
b0 )"
b0 E"
b0 o"
b1010001 -#
b1010001 <
b1010001 ("
b1010001 p"
b11 }"
b11 n"
1&
15
#36000
0&
05
#36500
b1001 .
b1001 ~"
b1001 C
b100011111010000 1
b100011111010000 /"
b100011111010000 "#
1k"
b1010 m"
b1001 /
b1001 ."
1v"
b110 x"
b1010001 ,
b1010001 -"
b1010001 1#
b100 n"
b100011111010000 h"
b100011111010000 <"
b1001 f"
b1001 9"
b100 }"
b1010001 s"
b1010001 5"
1&
15
#37000
0&
05
#37500
1-
0v"
b110 |"
12
0k"
bx %#
bx 0
bx T
bx n
bx *"
bx F"
bx c"
1u"
17"
b110 w"
b1 }"
b1010 l"
1j"
1>"
b1 n"
1&
15
#38000
0&
05
#38500
02
0-
b10 n"
0j"
0>"
b10 }"
b110 {"
b110 ;
b110 +"
b110 '#
0u"
07"
b100011111010000 %#
b100011111010000 0
b100011111010000 T
b100011111010000 n
b100011111010000 *"
b100011111010000 F"
b100011111010000 c"
b1010001 4#
b1010001 +
b1010001 )"
b1010001 E"
b1010001 o"
1&
15
#39000
0&
05
#39500
b101000110110010 t"
b1110011000000111 i"
b1010 g"
b10110010 -#
b10110010 <
b10110010 ("
b10110010 p"
b11 }"
b11 n"
1&
15
#40000
0&
05
#40500
b1010 .
b1010 ~"
b1010 C
b1110011000000111 1
b1110011000000111 /"
b1110011000000111 "#
1k"
b1011 m"
b1010 /
b1010 ."
1v"
b101 x"
b101000110110010 ,
b101000110110010 -"
b101000110110010 1#
b100 n"
b1110011000000111 h"
b1110011000000111 <"
b1010 f"
b1010 9"
b100 }"
b101000110110010 s"
b101000110110010 5"
1&
15
#41000
0&
05
#41500
1-
0v"
b10 r"
b101 |"
12
0k"
bx %#
bx 0
bx T
bx n
bx *"
bx F"
bx c"
1u"
17"
b101 w"
b1 }"
b1011 l"
1j"
1>"
b1 n"
1&
15
#42000
0&
05
#42500
02
b10 *
b10 ,"
b10 /#
0-
b10 n"
0j"
0>"
b10 }"
b10 q"
b10 2"
b101 {"
b101 ;
b101 +"
b101 '#
0u"
07"
b1110011000000111 %#
b1110011000000111 0
b1110011000000111 T
b1110011000000111 n
b1110011000000111 *"
b1110011000000111 F"
b1110011000000111 c"
b101000110110010 4#
b101000110110010 +
b101000110110010 )"
b101000110110010 E"
b101000110110010 o"
1&
15
#43000
0&
05
#43500
b1000001 t"
b1000010000111110 i"
b1011 g"
b0 4#
b0 +
b0 )"
b0 E"
b0 o"
b1000001 -#
b1000001 <
b1000001 ("
b1000001 p"
b11 }"
b11 n"
1&
15
#44000
0&
05
#44500
b1011 .
b1011 ~"
b1011 C
b1000010000111110 1
b1000010000111110 /"
b1000010000111110 "#
1k"
b1100 m"
b1011 /
b1011 ."
1v"
b100 x"
b1000001 ,
b1000001 -"
b1000001 1#
b100 n"
b1000010000111110 h"
b1000010000111110 <"
b1011 f"
b1011 9"
b100 }"
b1000001 s"
b1000001 5"
1&
15
#45000
0&
05
#45500
1-
0v"
b100 |"
12
0k"
bx %#
bx 0
bx T
bx n
bx *"
bx F"
bx c"
1u"
17"
b100 w"
b1 }"
b1100 l"
1j"
1>"
b1 n"
1&
15
#46000
0&
05
#46500
02
0-
b10 n"
0j"
0>"
b10 }"
b100 {"
b100 ;
b100 +"
b100 '#
0u"
07"
b1000010000111110 %#
b1000010000111110 0
b1000010000111110 T
b1000010000111110 n
b1000010000111110 *"
b1000010000111110 F"
b1000010000111110 c"
b1000001 4#
b1000001 +
b1000001 )"
b1000001 E"
b1000001 o"
1&
15
#47000
0&
05
#47500
b100000110111110 t"
b10001001110101 i"
b1100 g"
b10111110 -#
b10111110 <
b10111110 ("
b10111110 p"
b11 }"
b11 n"
1&
15
#48000
0&
05
#48500
b1100 .
b1100 ~"
b1100 C
b10001001110101 1
b10001001110101 /"
b10001001110101 "#
1k"
b1101 m"
b1100 /
b1100 ."
1v"
b11 x"
b100000110111110 ,
b100000110111110 -"
b100000110111110 1#
b100 n"
b10001001110101 h"
b10001001110101 <"
b1100 f"
b1100 9"
b100 }"
b100000110111110 s"
b100000110111110 5"
1&
15
#49000
0&
05
#49500
1-
0v"
b1 r"
b11 |"
12
0k"
bx %#
bx 0
bx T
bx n
bx *"
bx F"
bx c"
1u"
17"
b11 w"
b1 }"
b1101 l"
1j"
1>"
b1 n"
1&
15
#50000
0&
05
#50500
02
b1 *
b1 ,"
b1 /#
0-
b10 n"
0j"
0>"
b10 }"
b1 q"
b1 2"
b11 {"
b11 ;
b11 +"
b11 '#
0u"
07"
b10001001110101 %#
b10001001110101 0
b10001001110101 T
b10001001110101 n
b10001001110101 *"
b10001001110101 F"
b10001001110101 c"
b100000110111110 4#
b100000110111110 +
b100000110111110 )"
b100000110111110 E"
b100000110111110 o"
1&
15
#51000
0&
05
