proyectoLeon/codigo/rc5/version4/dut.vcd
$date
	Sat Dec  5 22:56:16 2015
$end
$version
	Icarus Verilog
$end
$timescale
	10ps
$end
$scope module testbench $end
$var wire 16 ! oA_cipher [15:0] $end
$var wire 16 " oA_decipher [15:0] $end
$var wire 16 # oB_cipher [15:0] $end
$var wire 16 $ oB_decipher [15:0] $end
$var wire 1 % oDoneCipher $end
$var wire 1 & oDoneDecipher $end
$var reg 1 ' clk $end
$var integer 32 ( i [31:0] $end
$var reg 16 ) iA [15:0] $end
$var reg 16 * iA_cipher [15:0] $end
$var reg 16 + iB [15:0] $end
$var reg 16 , iB_cipher [15:0] $end
$var reg 4 - iKey_address [3:0] $end
$var reg 8 . iKey_sub_i [7:0] $end
$var reg 1 / iStartCipher $end
$var reg 1 0 iStartDecipher $end
$var reg 1 1 iWen $end
$var reg 128 2 key [127:0] $end
$var reg 1 3 rst $end
$scope module dut $end
$var wire 3 4 L_address [2:0] $end
$var wire 16 5 L_sub_i [15:0] $end
$var wire 16 6 L_sub_i_prima [15:0] $end
$var wire 1 7 L_we $end
$var wire 5 8 S_address [4:0] $end
$var wire 5 9 S_address_expander [4:0] $end
$var wire 16 : S_sub_i [15:0] $end
$var wire 16 ; S_sub_i_prima [15:0] $end
$var wire 1 < S_we $end
$var wire 1 = clk $end
$var wire 16 > iA [15:0] $end
$var wire 16 ? iA_cipher [15:0] $end
$var wire 16 @ iB [15:0] $end
$var wire 16 A iB_cipher [15:0] $end
$var wire 4 B iKey_address [3:0] $end
$var wire 8 C iKey_sub_i [7:0] $end
$var wire 16 D iS_sub_i2 [15:0] $end
$var wire 1 E iStartCipher $end
$var wire 1 F iStartDecipher $end
$var wire 1 G iWen $end
$var wire 1 H keyExpanderDone $end
$var wire 1 I keyExpanderDone1 $end
$var wire 1 J keyExpanderDone2 $end
$var wire 4 K key_address [3:0] $end
$var wire 8 L key_sub_i [7:0] $end
$var wire 16 M oA_cipher [15:0] $end
$var wire 16 N oA_decipher [15:0] $end
$var wire 16 O oB_cipher [15:0] $end
$var wire 16 P oB_decipher [15:0] $end
$var wire 1 % oDoneCipher $end
$var wire 1 & oDoneDecipher $end
$var wire 1 Q rst $end
$var wire 5 R wS_address2 [4:0] $end
$var wire 5 S wS_address_cipher [4:0] $end
$var wire 5 T wS_address_cipher1 [4:0] $end
$var wire 5 U wS_address_cipher2 [4:0] $end
$var wire 5 V wS_address_decipher1 [4:0] $end
$var wire 5 W wS_address_decipher2 [4:0] $end
$var wire 1 X wStartCipher $end
$var wire 1 Y wStartDecipher $end
$scope module ff1 $end
$var wire 1 = Clock $end
$var wire 1 H D $end
$var wire 1 Z Enable $end
$var wire 1 Q Reset $end
$var reg 1 [ Q $end
$upscope $end
$scope module ff2 $end
$var wire 1 = Clock $end
$var wire 1 I D $end
$var wire 1 \ Enable $end
$var wire 1 Q Reset $end
$var reg 1 ] Q $end
$upscope $end
$scope module descifrador $end
$var wire 1 = clk $end
$var wire 16 ^ iA [15:0] $end
$var wire 16 _ iB [15:0] $end
$var wire 16 ` iS_sub_i1 [15:0] $end
$var wire 16 a iS_sub_i2 [15:0] $end
$var wire 1 Y iStart $end
$var wire 1 Q rst $end
$var wire 16 b wAorB_rot [15:0] $end
$var reg 16 c oA_decipher [15:0] $end
$var reg 16 d oA_decipher_nxt [15:0] $end
$var reg 16 e oB_decipher [15:0] $end
$var reg 16 f oB_decipher_nxt [15:0] $end
$var reg 1 g oDone $end
$var reg 1 h oDone_nxt $end
$var reg 5 i oS_address1 [4:0] $end
$var reg 16 j oS_address1_nxt [15:0] $end
$var reg 5 k oS_address2 [4:0] $end
$var reg 16 l oS_address2_nxt [15:0] $end
$var reg 16 m rAorB [15:0] $end
$var reg 16 n rAorB_nxt [15:0] $end
$var reg 4 o rCount [3:0] $end
$var reg 4 p rCount_nxt [3:0] $end
$var reg 4 q rRot_value [3:0] $end
$var reg 4 r rRot_value_nxt [3:0] $end
$var reg 4 s state [3:0] $end
$scope module bar $end
$var wire 16 t iData [15:0] $end
$var wire 1 u iDir $end
$var wire 4 v iRotate [3:0] $end
$var reg 16 w oData [15:0] $end
$upscope $end
$upscope $end
$scope module cifrador $end
$var wire 1 = clk $end
$var wire 16 x iA [15:0] $end
$var wire 16 y iB [15:0] $end
$var wire 16 z iS_sub_i1 [15:0] $end
$var wire 16 { iS_sub_i2 [15:0] $end
$var wire 1 X iStart $end
$var wire 1 Q rst $end
$var wire 16 | wA_XOR_B_rot [15:0] $end
$var reg 16 } oA_cipher [15:0] $end
$var reg 16 ~ oA_cipher_nxt [15:0] $end
$var reg 16 !" oB_cipher [15:0] $end
$var reg 16 "" oB_cipher_nxt [15:0] $end
$var reg 1 #" oDone $end
$var reg 1 $" oDone_nxt $end
$var reg 5 %" oS_address1 [4:0] $end
$var reg 16 &" oS_address1_nxt [15:0] $end
$var reg 5 '" oS_address2 [4:0] $end
$var reg 16 (" oS_address2_nxt [15:0] $end
$var reg 16 )" rA_XOR_B [15:0] $end
$var reg 16 *" rA_XOR_B_nxt [15:0] $end
$var reg 4 +" rCount [3:0] $end
$var reg 4 ," rCount_nxt [3:0] $end
$var reg 4 -" rRot_value [3:0] $end
$var reg 4 ." rRot_value_nxt [3:0] $end
$var reg 4 /" state [3:0] $end
$scope module bar $end
$var wire 16 0" iData [15:0] $end
$var wire 1 1" iDir $end
$var wire 4 2" iRotate [3:0] $end
$var reg 16 3" oData [15:0] $end
$upscope $end
$upscope $end
$scope module expander $end
$var wire 1 = clk $end
$var wire 8 4" iKey_sub_i [7:0] $end
$var wire 16 5" iL_sub_i [15:0] $end
$var wire 16 6" iS_sub_i [15:0] $end
$var wire 1 7" iStart $end
$var wire 1 H oKeyExpanderDone $end
$var wire 4 8" oKey_address [3:0] $end
$var wire 3 9" oL_address [2:0] $end
$var wire 16 :" oL_sub_i_prima [15:0] $end
$var wire 1 7 oL_we $end
$var wire 5 ;" oS_address [4:0] $end
$var wire 16 <" oS_sub_i_prima [15:0] $end
$var wire 1 < oS_we $end
$var wire 1 Q rst $end
$var wire 3 =" wL_address1 [2:0] $end
$var wire 3 >" wL_address2 [2:0] $end
$var wire 1 ?" wL_done $end
$var wire 16 @" wL_sub_i_prima1 [15:0] $end
$var wire 16 A" wL_sub_i_prima2 [15:0] $end
$var wire 1 B" wL_we1 $end
$var wire 1 C" wL_we2 $end
$var wire 5 D" wS_address1 [4:0] $end
$var wire 5 E" wS_address2 [4:0] $end
$var wire 1 F" wS_done $end
$var wire 16 G" wS_sub_i_prima1 [15:0] $end
$var wire 16 H" wS_sub_i_prima2 [15:0] $end
$var wire 1 I" wS_we1 $end
$var wire 1 J" wS_we2 $end
$var wire 1 K" wStart $end
$scope module mixer $end
$var wire 1 = clk $end
$var wire 16 L" iL_sub_i [15:0] $end
$var wire 16 M" iS_sub_i [15:0] $end
$var wire 1 K" iStart $end
$var wire 1 Q rst $end
$var wire 16 N" wL_rotate [15:0] $end
$var reg 16 O" A [15:0] $end
$var reg 16 P" A_nxt [15:0] $end
$var reg 16 Q" B [15:0] $end
$var reg 16 R" B_nxt [15:0] $end
$var reg 1 S" oDone $end
$var reg 1 T" oDone_nxt $end
$var reg 3 U" oL_address [2:0] $end
$var reg 3 V" oL_address_nxt [2:0] $end
$var reg 16 W" oL_sub_i_prima [15:0] $end
$var reg 16 X" oL_sub_i_prima_nxt [15:0] $end
$var reg 1 Y" oL_we $end
$var reg 1 Z" oL_we_nxt $end
$var reg 5 [" oS_address [4:0] $end
$var reg 5 \" oS_address_nxt [4:0] $end
$var reg 16 ]" oS_sub_i_prima [15:0] $end
$var reg 16 ^" oS_sub_i_prima_nxt [15:0] $end
$var reg 1 _" oS_we $end
$var reg 1 `" oS_we_nxt $end
$var reg 7 a" rCount [6:0] $end
$var reg 7 b" rCount_nxt [6:0] $end
$var reg 16 c" rSumTemp [15:0] $end
$var reg 16 d" rSumTemp_nxt [15:0] $end
$var reg 4 e" state [3:0] $end
$scope module barrel $end
$var wire 16 f" iData [15:0] $end
$var wire 1 g" iDir $end
$var wire 4 h" iRotate [3:0] $end
$var reg 16 i" oData [15:0] $end
$upscope $end
$upscope $end
$scope module S $end
$var wire 1 = clk $end
$var wire 16 j" iS_sub_i [15:0] $end
$var wire 1 7" iStart $end
$var wire 1 Q rst $end
$var reg 1 k" oDone $end
$var reg 1 l" oDone_nxt $end
$var reg 5 m" oS_address [4:0] $end
$var reg 5 n" oS_address_nxt [4:0] $end
$var reg 16 o" oS_sub_i_prima [15:0] $end
$var reg 16 p" oS_sub_i_prima_nxt [15:0] $end
$var reg 1 q" oS_we $end
$var reg 1 r" oS_we_nxt $end
$var reg 5 s" rCount [4:0] $end
$var reg 5 t" rCount_nxt [4:0] $end
$var reg 3 u" state [2:0] $end
$upscope $end
$scope module L $end
$var wire 16 v" L_sub_i [15:0] $end
$var wire 1 = clk $end
$var wire 1 7" iStart $end
$var wire 8 w" key_sub_i [7:0] $end
$var wire 1 Q rst $end
$var reg 3 x" L_address [2:0] $end
$var reg 3 y" L_address_nxt [2:0] $end
$var reg 16 z" L_sub_i_prima [15:0] $end
$var reg 16 {" L_sub_i_prima_nxt [15:0] $end
$var reg 1 |" L_we $end
$var reg 1 }" L_we_nxt $end
$var reg 4 ~" count [3:0] $end
$var reg 4 !# count_nxt [3:0] $end
$var reg 1 "# done $end
$var reg 1 ## done_nxt $end
$var reg 4 $# key_address [3:0] $end
$var reg 4 %# key_address_nxt [3:0] $end
$var reg 3 &# state [2:0] $end
$upscope $end
$upscope $end
$scope module S_RAM $end
$var wire 5 '# addr_a [4:0] $end
$var wire 5 (# addr_b [4:0] $end
$var wire 1 = clk $end
$var wire 16 )# data_a [15:0] $end
$var wire 16 *# data_b [15:0] $end
$var wire 1 < we_a $end
$var wire 1 +# we_b $end
$var reg 16 ,# q_a [15:0] $end
$var reg 16 -# q_b [15:0] $end
$upscope $end
$scope module key_RAM $end
$var wire 4 .# addr_a [3:0] $end
$var wire 4 /# addr_b [3:0] $end
$var wire 1 = clk $end
$var wire 8 0# data_a [7:0] $end
$var wire 8 1# data_b [7:0] $end
$var wire 1 2# we_a $end
$var wire 1 G we_b $end
$var reg 8 3# q_a [7:0] $end
$var reg 8 4# q_b [7:0] $end
$upscope $end
$scope module L_RAM $end
$var wire 3 5# addr_a [2:0] $end
$var wire 3 6# addr_b [2:0] $end
$var wire 1 = clk $end
$var wire 16 7# data_a [15:0] $end
$var wire 16 8# data_b [15:0] $end
$var wire 1 7 we_a $end
$var wire 1 9# we_b $end
$var reg 16 :# q_a [15:0] $end
$var reg 16 ;# q_b [15:0] $end
$upscope $end
$upscope $end
$upscope $end
$enddefinitions $end
#0
$dumpvars
bx ;#
bx :#
09#
b0 8#
bx 7#
b0 6#
bx 5#
bx 4#
bx 3#
02#
bx 1#
b0 0#
bx /#
bx .#
bx -#
bx ,#
0+#
b0 *#
bx )#
bx (#
bx '#
bx &#
bx %#
bx $#
x##
x"#
bx !#
bx ~"
x}"
x|"
bx {"
bx z"
bx y"
bx x"
bx w"
bx v"
bx u"
bx t"
bx s"
xr"
xq"
bx p"
bx o"
bx n"
bx m"
xl"
xk"
bx j"
bx i"
bx h"
0g"
bx f"
bx e"
bx d"
bx c"
bx b"
bx a"
x`"
x_"
bx ^"
bx ]"
bx \"
bx ["
xZ"
xY"
bx X"
bx W"
bx V"
bx U"
xT"
xS"
bx R"
bx Q"
bx P"
bx O"
bx N"
bx M"
bx L"
xK"
xJ"
xI"
bx H"
bx G"
xF"
bx E"
bx D"
xC"
xB"
bx A"
bx @"
x?"
bx >"
bx ="
bx <"
bx ;"
bx :"
bx 9"
bx 8"
07"
bx 6"
bx 5"
bx 4"
bx 3"
bx 2"
01"
bx 0"
bx /"
bx ."
bx -"
bx ,"
bx +"
bx *"
bx )"
b0xxxxx ("
bx '"
b0xxxxx &"
bx %"
x$"
x#"
bx ""
bx !"
bx ~
bx }
bx |
bx {
bx z
b100101100010101 y
b1010010100100001 x
bx w
bx v
1u
bx t
bx s
bx r
bx q
bx p
bx o
bx n
bx m
bx l
bx k
bx j
bx i
xh
xg
bx f
bx e
bx d
bx c
bx b
bx a
bx `
bx _
bx ^
x]
1\
x[
1Z
0Y
0X
bx W
bx V
bx U
bx T
bx S
bx R
0Q
bx P
bx O
bx N
bx M
bx L
bx K
xJ
xI
xH
xG
0F
0E
bx D
bx C
bx B
bx A
b100101100010101 @
bx ?
b1010010100100001 >
0=
x<
bx ;
bx :
bx 9
bx 8
x7
bx 6
bx 5
bx 4
03
b10010001110011101010100100010000000000011010010101010101011000110101000110110010010000011011111000011001010001100101111110010001 2
x1
00
0/
bx .
bx -
bx ,
b100101100010101 +
bx *
b1010010100100001 )
b10000 (
0'
x&
x%
bx $
bx #
bx "
bx !
$end
#200
13
1Q
#500
b0 w
b0 b
b0 3"
b0 |
b0 i"
b0 N"
b0 8
b0 '#
b0 S
0h
b0 r
b0 n
b1100 p
b0 f
b0 d
b11001 l
b11000 j
b1 R
b1 (#
0$"
b0 ."
b0 *"
b1 ,"
b0 ""
b0 ~
b1 ("
b0 &"
b0 h"
0`"
0Z"
b0 X"
b0 ^"
0T"
b0 d"
b0 R"
b0 P"
b111 V"
b11001 \"
b1111111 b"
b0 ;
b0 <"
b0 )#
0<
b1 t"
b0 p"
0r"
0l"
b1 n"
b0 9
b0 ;"
b0 6
b0 :"
b0 7#
b0 4
b0 9"
b0 5#
07
0K"
b0 {"
b0 y"
b0 %#
0}"
0##
b1111 !#
0[
0I
0]
0J
b0 s
0g
0&
b0 q
b0 v
b0 m
b0 t
b1100 o
b0 e
b0 $
b0 P
b0 c
b0 "
b0 N
b11001 k
b11001 W
b11000 i
b11000 V
b0 /"
0#"
0%
b0 -"
b0 2"
b0 )"
b0 0"
b1 +"
b0 !"
b0 #
b0 O
b0 }
b0 !
b0 M
b1 '"
b1 U
b0 %"
b0 T
0_"
0J"
0Y"
0C"
b0 W"
b0 A"
b0 f"
b0 ]"
b0 H"
0S"
0H
b0 c"
b0 Q"
b0 O"
b111 U"
b111 >"
b11001 ["
b11001 E"
b1111111 a"
b1 s"
b0 o"
b0 G"
0q"
0I"
0k"
0F"
b0 m"
b0 D"
b0 &#
b0 z"
b0 @"
b0 x"
b0 ="
b0 $#
b0 K
b0 8"
b0 .#
0|"
0B"
0"#
0?"
b1111 ~"
b0 ;#
b0 e"
b0 u"
1'
1=
#600
03
0Q
#1000
0'
0=
#1500
b0 :#
b0 5
b0 5"
b0 L"
b0 v"
b10010001 3#
b10010001 L
b10010001 4"
b10010001 w"
b1011011111100001 ,#
b1011011111100001 :
b1011011111100001 `
b1011011111100001 z
b1011011111100001 6"
b1011011111100001 M"
b1011011111100001 j"
1'
1=
#2000
0'
0=
#2500
1'
1=
#3000
0'
0=
#3500
1'
1=
#4000
0'
0=
#4500
1'
1=
#5000
0'
0=
#5500
1'
1=
#6000
0'
0=
#6500
1'
1=
#7000
0'
0=
#7500
1'
1=
#8000
0'
0=
#8500
1'
1=
#9000
0'
0=
#9500
1'
1=
#10000
0'
0=
#10500
1'
1=
#10600
17"
1/
1E
#11000
0'
0=
#11500
b1 8
b1 '#
b1 S
b111 y"
b1111 %#
b1 9
b1 ;"
b0 n"
b1 &#
b1 m"
b1 D"
b1 u"
1'
1=
#12000
0'
0=
#12500
b0 8
b0 '#
b0 S
b0 9
b0 ;"
b111 4
b111 9"
b111 5#
b10 u"
b0 m"
b0 D"
b10 &#
b111 x"
b111 ="
b1111 $#
b1111 K
b1111 8"
b1111 .#
bx ,#
bx :
bx `
bx z
bx 6"
bx M"
bx j"
1'
1=
#13000
0'
0=
#13500
b10010001 {"
b101011000011000 p"
b1 n"
b1011011111100001 ,#
b1011011111100001 :
b1011011111100001 `
b1011011111100001 z
b1011011111100001 6"
b1011011111100001 M"
b1011011111100001 j"
b11 &#
b11 u"
1'
1=
#14000
0'
0=
#14500
b1 8
b1 '#
b1 S
b101011000011000 ;
b101011000011000 <"
b101011000011000 )#
1r"
b10 t"
b1 9
b1 ;"
1}"
b1110 !#
b10010001 6
b10010001 :"
b10010001 7#
b100 u"
b101011000011000 o"
b101011000011000 G"
b1 m"
b1 D"
b100 &#
b10010001 z"
b10010001 @"
1'
1=
#15000
0'
0=
#15500
17
0}"
b1110 %#
1<
0r"
bx ,#
bx :
bx `
bx z
bx 6"
bx M"
bx j"
1|"
1B"
b1110 ~"
b1 &#
b10 s"
1q"
1I"
b1 u"
1'
1=
#16000
0'
0=
#16500
0<
07
b10 u"
0q"
0I"
b10 &#
b1110 $#
b1110 K
b1110 8"
b1110 .#
0|"
0B"
b101011000011000 ,#
b101011000011000 :
b101011000011000 `
b101011000011000 z
b101011000011000 6"
b101011000011000 M"
b101011000011000 j"
b10010001 :#
b10010001 5
b10010001 5"
b10010001 L"
b10010001 v"
1'
1=
#17000
0'
0=
#17500
b1001000111001110 {"
b1111010001001111 p"
b10 n"
b11001110 3#
b11001110 L
b11001110 4"
b11001110 w"
b101011000011000 -#
b101011000011000 D
b101011000011000 a
b101011000011000 {
b11 &#
b11 u"
1'
1=
#18000
0'
0=
#18500
b10 8
b10 '#
b10 S
b1111010001001111 ;
b1111010001001111 <"
b1111010001001111 )#
1r"
b11 t"
b10 9
b10 ;"
1}"
b1101 !#
b1001000111001110 6
b1001000111001110 :"
b1001000111001110 7#
b100 u"
b1111010001001111 o"
b1111010001001111 G"
b10 m"
b10 D"
b100 &#
b1001000111001110 z"
b1001000111001110 @"
1'
1=
#19000
0'
0=
#19500
17
0}"
b110 y"
b1101 %#
1<
0r"
bx ,#
bx :
bx `
bx z
bx 6"
bx M"
bx j"
1|"
1B"
b1101 ~"
b1 &#
b11 s"
1q"
1I"
b1 u"
1'
1=
#20000
0'
0=
#20500
0<
b110 4
b110 9"
b110 5#
07
b10 u"
0q"
0I"
b10 &#
b110 x"
b110 ="
b1101 $#
b1101 K
b1101 8"
b1101 .#
0|"
0B"
b1111010001001111 ,#
b1111010001001111 :
b1111010001001111 `
b1111010001001111 z
b1111010001001111 6"
b1111010001001111 M"
b1111010001001111 j"
b1001000111001110 :#
b1001000111001110 5
b1001000111001110 5"
b1001000111001110 L"
b1001000111001110 v"
1'
1=
#21000
0'
0=
#21500
b10101001 {"
b1001001010000110 p"
b11 n"
b0 :#
b0 5
b0 5"
b0 L"
b0 v"
b10101001 3#
b10101001 L
b10101001 4"
b10101001 w"
b11 &#
b11 u"
1'
1=
#22000
0'
0=
#22500
b11 8
b11 '#
b11 S
b1001001010000110 ;
b1001001010000110 <"
b1001001010000110 )#
1r"
b100 t"
b11 9
b11 ;"
1}"
b1100 !#
b10101001 6
b10101001 :"
b10101001 7#
b100 u"
b1001001010000110 o"
b1001001010000110 G"
b11 m"
b11 D"
b100 &#
b10101001 z"
b10101001 @"
1'
1=
#23000
0'
0=
#23500
17
0}"
b1100 %#
1<
0r"
bx ,#
bx :
bx `
bx z
bx 6"
bx M"
bx j"
1|"
1B"
b1100 ~"
b1 &#
b100 s"
1q"
1I"
b1 u"
1'
1=
#24000
0'
0=
#24500
0<
07
b10 u"
0q"
0I"
b10 &#
b1100 $#
b1100 K
b1100 8"
b1100 .#
0|"
0B"
b1001001010000110 ,#
b1001001010000110 :
b1001001010000110 `
b1001001010000110 z
b1001001010000110 6"
b1001001010000110 M"
b1001001010000110 j"
b10101001 :#
b10101001 5
b10101001 5"
b10101001 L"
b10101001 v"
1'
1=
#25000
0'
0=
#25500
b1010100100010000 {"
b11000010111101 p"
b100 n"
b10000 3#
b10000 L
b10000 4"
b10000 w"
b11 &#
b11 u"
1'
1=
#26000
0'
0=
#26500
b100 8
b100 '#
b100 S
b11000010111101 ;
b11000010111101 <"
b11000010111101 )#
1r"
b101 t"
b100 9
b100 ;"
1}"
b1011 !#
b1010100100010000 6
b1010100100010000 :"
b1010100100010000 7#
b100 u"
b11000010111101 o"
b11000010111101 G"
b100 m"
b100 D"
b100 &#
b1010100100010000 z"
b1010100100010000 @"
1'
1=
#27000
0'
0=
#27500
17
0}"
b101 y"
b1011 %#
1<
0r"
bx ,#
bx :
bx `
bx z
bx 6"
bx M"
bx j"
1|"
1B"
b1011 ~"
b1 &#
b101 s"
1q"
1I"
b1 u"
1'
1=
#28000
0'
0=
#28500
0<
b101 4
b101 9"
b101 5#
07
b10 u"
0q"
0I"
b10 &#
b101 x"
b101 ="
b1011 $#
b1011 K
b1011 8"
b1011 .#
0|"
0B"
b11000010111101 ,#
b11000010111101 :
b11000010111101 `
b11000010111101 z
b11000010111101 6"
b11000010111101 M"
b11000010111101 j"
b1010100100010000 :#
b1010100100010000 5
b1010100100010000 5"
b1010100100010000 L"
b1010100100010000 v"
1'
1=
#29000
0'
0=
#29500
b1 {"
b1100111011110100 p"
b101 n"
b0 :#
b0 5
b0 5"
b0 L"
b0 v"
b1 3#
b1 L
b1 4"
b1 w"
b11 &#
b11 u"
1'
1=
#30000
0'
0=
#30500
b101 8
b101 '#
b101 S
b1100111011110100 ;
b1100111011110100 <"
b1100111011110100 )#
1r"
b110 t"
b101 9
b101 ;"
1}"
b1010 !#
b1 6
b1 :"
b1 7#
b100 u"
b1100111011110100 o"
b1100111011110100 G"
b101 m"
b101 D"
b100 &#
b1 z"
b1 @"
1'
1=
#31000
0'
0=
#31500
17
0}"
b1010 %#
1<
0r"
bx ,#
bx :
bx `
bx z
bx 6"
bx M"
bx j"
1|"
1B"
b1010 ~"
b1 &#
b110 s"
1q"
1I"
b1 u"
1'
1=
#32000
0'
0=
#32500
0<
07
b10 u"
0q"
0I"
b10 &#
b1010 $#
b1010 K
b1010 8"
b1010 .#
0|"
0B"
b1100111011110100 ,#
b1100111011110100 :
b1100111011110100 `
b1100111011110100 z
b1100111011110100 6"
b1100111011110100 M"
b1100111011110100 j"
b1 :#
b1 5
b1 5"
b1 L"
b1 v"
1'
1=
#33000
0'
0=
#33500
b110100101 {"
b110110100101011 p"
b110 n"
b10100101 3#
b10100101 L
b10100101 4"
b10100101 w"
b11 &#
b11 u"
1'
1=
#34000
0'
0=
#34500
b110 8
b110 '#
b110 S
b110110100101011 ;
b110110100101011 <"
b110110100101011 )#
1r"
b111 t"
b110 9
b110 ;"
1}"
b1001 !#
b110100101 6
b110100101 :"
b110100101 7#
b100 u"
b110110100101011 o"
b110110100101011 G"
b110 m"
b110 D"
b100 &#
b110100101 z"
b110100101 @"
1'
1=
#35000
0'
0=
#35500
17
0}"
b100 y"
b1001 %#
1<
0r"
bx ,#
bx :
bx `
bx z
bx 6"
bx M"
bx j"
1|"
1B"
b1001 ~"
b1 &#
b111 s"
1q"
1I"
b1 u"
1'
1=
#36000
0'
0=
#36500
0<
b100 4
b100 9"
b100 5#
07
b10 u"
0q"
0I"
b10 &#
b100 x"
b100 ="
b1001 $#
b1001 K
b1001 8"
b1001 .#
0|"
0B"
b110110100101011 ,#
b110110100101011 :
b110110100101011 `
b110110100101011 z
b110110100101011 6"
b110110100101011 M"
b110110100101011 j"
b110100101 :#
b110100101 5
b110100101 5"
b110100101 L"
b110100101 v"
1'
1=
#37000
0'
0=
#37500
b1010101 {"
b101101100010 p"
b111 n"
b0 :#
b0 5
b0 5"
b0 L"
b0 v"
b1010101 3#
b1010101 L
b1010101 4"
b1010101 w"
b11 &#
b11 u"
1'
1=
#38000
0'
0=
#38500
b111 8
b111 '#
b111 S
b101101100010 ;
b101101100010 <"
b101101100010 )#
1r"
b1000 t"
b111 9
b111 ;"
1}"
b1000 !#
b1010101 6
b1010101 :"
b1010101 7#
b100 u"
b101101100010 o"
b101101100010 G"
b111 m"
b111 D"
b100 &#
b1010101 z"
b1010101 @"
1'
1=
#39000
0'
0=
#39500
17
0}"
b1000 %#
1<
0r"
bx ,#
bx :
bx `
bx z
bx 6"
bx M"
bx j"
1|"
1B"
b1000 ~"
b1 &#
b1000 s"
1q"
1I"
b1 u"
1'
1=
#40000
0'
0=
#40500
0<
07
b10 u"
0q"
0I"
b10 &#
b1000 $#
b1000 K
b1000 8"
b1000 .#
0|"
0B"
b101101100010 ,#
b101101100010 :
b101101100010 `
b101101100010 z
b101101100010 6"
b101101100010 M"
b101101100010 j"
b1010101 :#
b1010101 5
b1010101 5"
b1010101 L"
b1010101 v"
1'
1=
#41000
0'
0=
#41500
b101010101100011 {"
b1010100110011001 p"
b1000 n"
b1100011 3#
b1100011 L
b1100011 4"
b1100011 w"
b11 &#
b11 u"
1'
1=
#42000
0'
0=
#42500
b1000 8
b1000 '#
b1000 S
b1010100110011001 ;
b1010100110011001 <"
b1010100110011001 )#
1r"
b1001 t"
b1000 9
b1000 ;"
1}"
b111 !#
b101010101100011 6
b101010101100011 :"
b101010101100011 7#
b100 u"
b1010100110011001 o"
b1010100110011001 G"
b1000 m"
b1000 D"
b100 &#
b101010101100011 z"
b101010101100011 @"
1'
1=
#43000
0'
0=
#43500
17
0}"
b11 y"
b111 %#
1<
0r"
bx ,#
bx :
bx `
bx z
bx 6"
bx M"
bx j"
1|"
1B"
b111 ~"
b1 &#
b1001 s"
1q"
1I"
b1 u"
1'
1=
#44000
0'
0=
#44500
0<
b11 4
b11 9"
b11 5#
07
b10 u"
0q"
0I"
b10 &#
b11 x"
b11 ="
b111 $#
b111 K
b111 8"
b111 .#
0|"
0B"
b1010100110011001 ,#
b1010100110011001 :
b1010100110011001 `
b1010100110011001 z
b1010100110011001 6"
b1010100110011001 M"
b1010100110011001 j"
b101010101100011 :#
b101010101100011 5
b101010101100011 5"
b101010101100011 L"
b101010101100011 v"
1'
1=
#45000
0'
0=
#45500
b1010001 {"
b100011111010000 p"
b1001 n"
b0 :#
b0 5
b0 5"
b0 L"
b0 v"
b1010001 3#
b1010001 L
b1010001 4"
b1010001 w"
b11 &#
b11 u"
1'
1=
#46000
0'
0=
#46500
b1001 8
b1001 '#
b1001 S
b100011111010000 ;
b100011111010000 <"
b100011111010000 )#
1r"
b1010 t"
b1001 9
b1001 ;"
1}"
b110 !#
b1010001 6
b1010001 :"
b1010001 7#
b100 u"
b100011111010000 o"
b100011111010000 G"
b1001 m"
b1001 D"
b100 &#
b1010001 z"
b1010001 @"
1'
1=
#47000
0'
0=
#47500
17
0}"
b110 %#
1<
0r"
bx ,#
bx :
bx `
bx z
bx 6"
bx M"
bx j"
1|"
1B"
b110 ~"
b1 &#
b1010 s"
1q"
1I"
b1 u"
1'
1=
#48000
0'
0=
#48500
0<
07
b10 u"
0q"
0I"
b10 &#
b110 $#
b110 K
b110 8"
b110 .#
0|"
0B"
b100011111010000 ,#
b100011111010000 :
b100011111010000 `
b100011111010000 z
b100011111010000 6"
b100011111010000 M"
b100011111010000 j"
b1010001 :#
b1010001 5
b1010001 5"
b1010001 L"
b1010001 v"
1'
1=
#49000
0'
0=
#49500
b101000110110010 {"
b1110011000000111 p"
b1010 n"
b10110010 3#
b10110010 L
b10110010 4"
b10110010 w"
b11 &#
b11 u"
1'
1=
#50000
0'
0=
#50500
b1010 8
b1010 '#
b1010 S
b1110011000000111 ;
b1110011000000111 <"
b1110011000000111 )#
1r"
b1011 t"
b1010 9
b1010 ;"
1}"
b101 !#
b101000110110010 6
b101000110110010 :"
b101000110110010 7#
b100 u"
b1110011000000111 o"
b1110011000000111 G"
b1010 m"
b1010 D"
b100 &#
b101000110110010 z"
b101000110110010 @"
1'
1=
#51000
0'
0=
#51500
17
0}"
b10 y"
b101 %#
1<
0r"
bx ,#
bx :
bx `
bx z
bx 6"
bx M"
bx j"
1|"
1B"
b101 ~"
b1 &#
b1011 s"
1q"
1I"
b1 u"
1'
1=
#52000
0'
0=
#52500
0<
b10 4
b10 9"
b10 5#
07
b10 u"
0q"
0I"
b10 &#
b10 x"
b10 ="
b101 $#
b101 K
b101 8"
b101 .#
0|"
0B"
b1110011000000111 ,#
b1110011000000111 :
b1110011000000111 `
b1110011000000111 z
b1110011000000111 6"
b1110011000000111 M"
b1110011000000111 j"
b101000110110010 :#
b101000110110010 5
b101000110110010 5"
b101000110110010 L"
b101000110110010 v"
1'
1=
#53000
0'
0=
#53500
b1000001 {"
b1000010000111110 p"
b1011 n"
b0 :#
b0 5
b0 5"
b0 L"
b0 v"
b1000001 3#
b1000001 L
b1000001 4"
b1000001 w"
b11 &#
b11 u"
1'
1=
#54000
0'
0=
#54500
b1011 8
b1011 '#
b1011 S
b1000010000111110 ;
b1000010000111110 <"
b1000010000111110 )#
1r"
b1100 t"
b1011 9
b1011 ;"
1}"
b100 !#
b1000001 6
b1000001 :"
b1000001 7#
b100 u"
b1000010000111110 o"
b1000010000111110 G"
b1011 m"
b1011 D"
b100 &#
b1000001 z"
b1000001 @"
1'
1=
#55000
0'
0=
#55500
17
0}"
b100 %#
1<
0r"
bx ,#
bx :
bx `
bx z
bx 6"
bx M"
bx j"
1|"
1B"
b100 ~"
b1 &#
b1100 s"
1q"
1I"
b1 u"
1'
1=
#56000
0'
0=
#56500
0<
07
b10 u"
0q"
0I"
b10 &#
b100 $#
b100 K
b100 8"
b100 .#
0|"
0B"
b1000010000111110 ,#
b1000010000111110 :
b1000010000111110 `
b1000010000111110 z
b1000010000111110 6"
b1000010000111110 M"
b1000010000111110 j"
b1000001 :#
b1000001 5
b1000001 5"
b1000001 L"
b1000001 v"
1'
1=
#57000
0'
0=
#57500
b100000110111110 {"
b10001001110101 p"
b1100 n"
b10111110 3#
b10111110 L
b10111110 4"
b10111110 w"
b11 &#
b11 u"
1'
1=
#58000
0'
0=
