proyectoLeon/codigo/version2/decipher.vcd
$date
	Mon Nov  9 02:41:27 2015
$end
$version
	Icarus Verilog
$end
$timescale
	10ps
$end
$scope module barrelShifter16 $end
$var wire 16 ! iData [15:0] $end
$var wire 1 " iDir $end
$var wire 4 # iRotate [3:0] $end
$var reg 16 $ oData [15:0] $end
$upscope $end
$scope module barrelShifter64 $end
$var wire 64 % iData [63:0] $end
$var wire 1 & iDir $end
$var wire 6 ' iRotate [5:0] $end
$var reg 64 ( oData [63:0] $end
$upscope $end
$scope module testbench $end
$var wire 32 ) A_cipher [31:0] $end
$var wire 32 * B_cipher [31:0] $end
$var wire 1 + done $end
$var reg 32 , A [31:0] $end
$var reg 32 - B [31:0] $end
$var reg 1 . clk $end
$var integer 32 / i [31:0] $end
$var reg 128 0 key [127:0] $end
$var reg 1 1 rst $end
$scope module dut $end
$var wire 2 2 L_address [1:0] $end
$var wire 32 3 L_sub_i [31:0] $end
$var wire 32 4 L_sub_i_prima [31:0] $end
$var wire 1 5 L_we $end
$var wire 5 6 S_address [4:0] $end
$var wire 5 7 S_address_expander [4:0] $end
$var wire 32 8 S_sub_i [31:0] $end
$var wire 32 9 S_sub_i_prima [31:0] $end
$var wire 1 : S_we $end
$var wire 1 ; cipherDone $end
$var wire 1 < cipherDone1 $end
$var wire 1 = clk $end
$var wire 32 > iA [31:0] $end
$var wire 32 ? iB [31:0] $end
$var wire 32 @ iS_sub_i2 [31:0] $end
$var wire 1 A keyExpanderDone $end
$var wire 1 B keyExpanderDone1 $end
$var wire 4 C key_address [3:0] $end
$var wire 8 D key_sub_i [7:0] $end
$var wire 32 E oA_cipher [31:0] $end
$var wire 32 F oA_decipher [31:0] $end
$var wire 32 G oB_cipher [31:0] $end
$var wire 32 H oB_decipher [31:0] $end
$var wire 1 + oDone $end
$var wire 1 I rst $end
$var wire 5 J wS_address2 [4:0] $end
$var wire 5 K wS_address_cipher [4:0] $end
$var wire 5 L wS_address_cipher1 [4:0] $end
$var wire 5 M wS_address_cipher2 [4:0] $end
$var wire 5 N wS_address_decipher1 [4:0] $end
$var wire 5 O wS_address_decipher2 [4:0] $end
$var wire 1 P wStartCipher $end
$var wire 1 Q wStartDecipher $end
$scope module ff1 $end
$var wire 1 = Clock $end
$var wire 1 A D $end
$var wire 1 R Enable $end
$var wire 1 I Reset $end
$var reg 1 S Q $end
$upscope $end
$scope module ff2 $end
$var wire 1 = Clock $end
$var wire 1 B D $end
$var wire 1 T Enable $end
$var wire 1 I Reset $end
$var reg 1 U Q $end
$upscope $end
$scope module ff3 $end
$var wire 1 = Clock $end
$var wire 1 ; D $end
$var wire 1 V Enable $end
$var wire 1 I Reset $end
$var reg 1 W Q $end
$upscope $end
$scope module ff4 $end
$var wire 1 = Clock $end
$var wire 1 < D $end
$var wire 1 X Enable $end
$var wire 1 I Reset $end
$var reg 1 Y Q $end
$upscope $end
$scope module descifrador $end
$var wire 1 = clk $end
$var wire 32 Z iA [31:0] $end
$var wire 32 [ iB [31:0] $end
$var wire 32 \ iS_sub_i1 [31:0] $end
$var wire 32 ] iS_sub_i2 [31:0] $end
$var wire 1 Q iStart $end
$var wire 1 I rst $end
$var wire 32 ^ wAorB_rot [31:0] $end
$var reg 32 _ oA_decipher [31:0] $end
$var reg 32 ` oA_decipher_nxt [31:0] $end
$var reg 32 a oB_decipher [31:0] $end
$var reg 32 b oB_decipher_nxt [31:0] $end
$var reg 1 c oDone $end
$var reg 1 d oDone_nxt $end
$var reg 5 e oS_address1 [4:0] $end
$var reg 32 f oS_address1_nxt [31:0] $end
$var reg 5 g oS_address2 [4:0] $end
$var reg 32 h oS_address2_nxt [31:0] $end
$var reg 32 i rAorB [31:0] $end
$var reg 32 j rAorB_nxt [31:0] $end
$var reg 4 k rCount [3:0] $end
$var reg 4 l rCount_nxt [3:0] $end
$var reg 5 m rRot_value [4:0] $end
$var reg 5 n rRot_value_nxt [4:0] $end
$var reg 4 o state [3:0] $end
$scope module bar $end
$var wire 32 p iData [31:0] $end
$var wire 1 q iDir $end
$var wire 5 r iRotate [4:0] $end
$var reg 32 s oData [31:0] $end
$upscope $end
$upscope $end
$scope module cifrador $end
$var wire 1 = clk $end
$var wire 32 t iA [31:0] $end
$var wire 32 u iB [31:0] $end
$var wire 32 v iS_sub_i1 [31:0] $end
$var wire 32 w iS_sub_i2 [31:0] $end
$var wire 1 P iStart $end
$var wire 1 I rst $end
$var wire 32 x wA_XOR_B_rot [31:0] $end
$var reg 32 y oA_cipher [31:0] $end
$var reg 32 z oA_cipher_nxt [31:0] $end
$var reg 32 { oB_cipher [31:0] $end
$var reg 32 | oB_cipher_nxt [31:0] $end
$var reg 1 } oDone $end
$var reg 1 ~ oDone_nxt $end
$var reg 5 !" oS_address1 [4:0] $end
$var reg 32 "" oS_address1_nxt [31:0] $end
$var reg 5 #" oS_address2 [4:0] $end
$var reg 32 $" oS_address2_nxt [31:0] $end
$var reg 32 %" rA_XOR_B [31:0] $end
$var reg 32 &" rA_XOR_B_nxt [31:0] $end
$var reg 4 '" rCount [3:0] $end
$var reg 4 (" rCount_nxt [3:0] $end
$var reg 5 )" rRot_value [4:0] $end
$var reg 5 *" rRot_value_nxt [4:0] $end
$var reg 4 +" state [3:0] $end
$scope module bar $end
$var wire 32 ," iData [31:0] $end
$var wire 1 -" iDir $end
$var wire 5 ." iRotate [4:0] $end
$var reg 32 /" oData [31:0] $end
$upscope $end
$upscope $end
$scope module expander $end
$var wire 1 = clk $end
$var wire 8 0" iKey_sub_i [7:0] $end
$var wire 32 1" iL_sub_i [31:0] $end
$var wire 32 2" iS_sub_i [31:0] $end
$var wire 1 A oKeyExpanderDone $end
$var wire 4 3" oKey_address [3:0] $end
$var wire 2 4" oL_address [1:0] $end
$var wire 32 5" oL_sub_i_prima [31:0] $end
$var wire 1 5 oL_we $end
$var wire 5 6" oS_address [4:0] $end
$var wire 32 7" oS_sub_i_prima [31:0] $end
$var wire 1 : oS_we $end
$var wire 1 I rst $end
$var wire 1 8" start1 $end
$var wire 1 9" start2 $end
$var wire 2 :" wL_address1 [1:0] $end
$var wire 2 ;" wL_address2 [1:0] $end
$var wire 1 <" wL_done $end
$var wire 32 =" wL_sub_i_prima1 [31:0] $end
$var wire 32 >" wL_sub_i_prima2 [31:0] $end
$var wire 1 ?" wL_we1 $end
$var wire 1 @" wL_we2 $end
$var wire 5 A" wS_address1 [4:0] $end
$var wire 5 B" wS_address2 [4:0] $end
$var wire 1 C" wS_done $end
$var wire 32 D" wS_sub_i_prima1 [31:0] $end
$var wire 32 E" wS_sub_i_prima2 [31:0] $end
$var wire 1 F" wS_we1 $end
$var wire 1 G" wS_we2 $end
$var wire 1 H" wStart $end
$scope module ff1 $end
$var wire 1 = Clock $end
$var wire 1 8" D $end
$var wire 1 I" Enable $end
$var wire 1 I Reset $end
$var reg 1 J" Q $end
$upscope $end
$scope module ff2 $end
$var wire 1 = Clock $end
$var wire 1 9" D $end
$var wire 1 K" Enable $end
$var wire 1 I Reset $end
$var reg 1 L" Q $end
$upscope $end
$scope module mixer $end
$var wire 1 = clk $end
$var wire 32 M" iL_sub_i [31:0] $end
$var wire 32 N" iS_sub_i [31:0] $end
$var wire 1 H" iStart $end
$var wire 1 I rst $end
$var wire 32 O" wL_rotate [31:0] $end
$var reg 32 P" A [31:0] $end
$var reg 32 Q" A_nxt [31:0] $end
$var reg 32 R" B [31:0] $end
$var reg 32 S" B_nxt [31:0] $end
$var reg 5 T" i_nxt [4:0] $end
$var reg 2 U" j_nxt [1:0] $end
$var reg 1 V" oDone $end
$var reg 1 W" oDone_nxt $end
$var reg 2 X" oL_address [1:0] $end
$var reg 2 Y" oL_address_nxt [1:0] $end
$var reg 32 Z" oL_sub_i_prima [31:0] $end
$var reg 32 [" oL_sub_i_prima_nxt [31:0] $end
$var reg 1 \" oL_we $end
$var reg 1 ]" oL_we_nxt $end
$var reg 5 ^" oS_address [4:0] $end
$var reg 5 _" oS_address_nxt [4:0] $end
$var reg 32 `" oS_sub_i_prima [31:0] $end
$var reg 32 a" oS_sub_i_prima_nxt [31:0] $end
$var reg 1 b" oS_we $end
$var reg 1 c" oS_we_nxt $end
$var reg 7 d" rCount [6:0] $end
$var reg 7 e" rCount_nxt [6:0] $end
$var reg 32 f" rSumTemp [31:0] $end
$var reg 32 g" rSumTemp_nxt [31:0] $end
$var reg 4 h" state [3:0] $end
$scope module barrel $end
$var wire 32 i" iData [31:0] $end
$var wire 1 j" iDir $end
$var wire 5 k" iRotate [4:0] $end
$var reg 32 l" oData [31:0] $end
$upscope $end
$upscope $end
$scope module S $end
$var wire 1 = clk $end
$var wire 32 m" iS_sub_i [31:0] $end
$var wire 1 I rst $end
$var reg 1 n" oDone $end
$var reg 1 o" oDone_nxt $end
$var reg 5 p" oS_address [4:0] $end
$var reg 5 q" oS_address_nxt [4:0] $end
$var reg 32 r" oS_sub_i_prima [31:0] $end
$var reg 32 s" oS_sub_i_prima_nxt [31:0] $end
$var reg 1 t" oS_we $end
$var reg 1 u" oS_we_nxt $end
$var reg 5 v" rCount [4:0] $end
$var reg 5 w" rCount_nxt [4:0] $end
$var reg 3 x" state [2:0] $end
$upscope $end
$scope module L $end
$var wire 32 y" L_sub_i [31:0] $end
$var wire 1 = clk $end
$var wire 8 z" key_sub_i [7:0] $end
$var wire 1 I rst $end
$var reg 2 {" L_address [1:0] $end
$var reg 2 |" L_address_nxt [1:0] $end
$var reg 32 }" L_sub_i_prima [31:0] $end
$var reg 32 ~" L_sub_i_prima_nxt [31:0] $end
$var reg 1 !# L_we $end
$var reg 1 "# L_we_nxt $end
$var reg 4 ## count [3:0] $end
$var reg 4 $# count_nxt [3:0] $end
$var reg 1 %# done $end
$var reg 1 &# done_nxt $end
$var reg 4 '# key_address [3:0] $end
$var reg 4 (# key_address_nxt [3:0] $end
$var reg 3 )# state [2:0] $end
$upscope $end
$upscope $end
$scope module S_RAM $end
$var wire 5 *# addr_a [4:0] $end
$var wire 5 +# addr_b [4:0] $end
$var wire 1 = clk $end
$var wire 32 ,# data_a [31:0] $end
$var wire 32 -# data_b [31:0] $end
$var wire 1 : we_a $end
$var wire 1 .# we_b $end
$var reg 32 /# q_a [31:0] $end
$var reg 32 0# q_b [31:0] $end
$upscope $end
$scope module key_RAM $end
$var wire 4 1# addr_a [3:0] $end
$var wire 4 2# addr_b [3:0] $end
$var wire 1 = clk $end
$var wire 8 3# data_a [7:0] $end
$var wire 8 4# data_b [7:0] $end
$var wire 1 5# we_a $end
$var wire 1 6# we_b $end
$var reg 8 7# q_a [7:0] $end
$var reg 8 8# q_b [7:0] $end
$upscope $end
$scope module L_RAM $end
$var wire 2 9# addr_a [1:0] $end
$var wire 2 :# addr_b [1:0] $end
$var wire 1 = clk $end
$var wire 32 ;# data_a [31:0] $end
$var wire 32 <# data_b [31:0] $end
$var wire 1 5 we_a $end
$var wire 1 =# we_b $end
$var reg 32 ># q_a [31:0] $end
$var reg 32 ?# q_b [31:0] $end
$upscope $end
$upscope $end
$upscope $end
$enddefinitions $end
#0
$dumpvars
bx ?#
bx >#
0=#
b0 <#
bx ;#
b0 :#
bx 9#
bx 8#
bx 7#
06#
05#
b0 4#
b0 3#
b0 2#
bx 1#
bx 0#
bx /#
0.#
b0 -#
bx ,#
bx +#
bx *#
bx )#
bx (#
bx '#
x&#
x%#
bx $#
bx ##
x"#
x!#
bx ~"
bx }"
bx |"
bx {"
bx z"
bx y"
bx x"
bx w"
bx v"
xu"
xt"
bx s"
bx r"
bx q"
bx p"
xo"
xn"
bx m"
bx l"
bx k"
0j"
bx i"
bx h"
bx g"
bx f"
bx e"
bx d"
xc"
xb"
bx a"
bx `"
bx _"
bx ^"
x]"
x\"
bx ["
bx Z"
bx Y"
bx X"
xW"
xV"
bx U"
bx T"
bx S"
bx R"
bx Q"
bx P"
bx O"
bx N"
bx M"
xL"
1K"
xJ"
1I"
xH"
xG"
xF"
bx E"
bx D"
xC"
bx B"
bx A"
x@"
x?"
bx >"
bx ="
x<"
bx ;"
bx :"
x9"
x8"
bx 7"
bx 6"
bx 5"
bx 4"
bx 3"
bx 2"
bx 1"
bx 0"
bx /"
bx ."
0-"
bx ,"
bx +"
bx *"
bx )"
bx ("
bx '"
bx &"
bx %"
b0xxxxx $"
bx #"
b0xxxxx ""
bx !"
x~
x}
bx |
bx {
bx z
bx y
bx x
bx w
bx v
b10100 u
b1010 t
bx s
bx r
1q
bx p
bx o
bx n
bx m
bx l
bx k
bx j
bx i
bx h
bx g
bx f
bx e
xd
xc
bx b
bx a
bx `
bx _
bx ^
bx ]
bx \
bx [
bx Z
xY
1X
xW
1V
xU
1T
xS
1R
xQ
xP
bx O
bx N
bx M
bx L
bx K
bx J
0I
bx H
bx G
bx F
bx E
bx D
bx C
xB
xA
bx @
b10100 ?
b1010 >
0=
x<
x;
x:
bx 9
bx 8
bx 7
bx 6
x5
bx 4
bx 3
bx 2
01
b11111111111111101110111011100101100001101000010011111111111100000101111111111110010010010011100001010011000000000000010000110100 0
b10000 /
0.
b10100 -
b1010 ,
x+
bx *
bx )
bx (
bz '
z&
bz %
bx $
bz #
z"
bz !
$end
#200
11
1I
#500
b0 s
b0 ^
b0 /"
b0 x
b0 l"
b0 O"
b0 6
b0 *#
0d
b0 n
b0 j
b1100 l
b0 b
b11001 h
b11000 f
b1 J
b1 +#
0~
b0 *"
b0 &"
b1 ("
b0 |
b1 $"
b0 ""
b0 K
05
b0 4
b0 5"
b0 ;#
b0 k"
b0 2
b0 4"
b0 9#
0c"
0]"
b0 ["
b0 a"
0W"
b0 g"
b0 S"
b0 Q"
b11 Y"
b11001 _"
b1111111 e"
b0 9
b0 7"
b0 ,#
0:
b1 w"
b0 s"
0u"
0o"
b1 q"
b0 7
b0 6"
0S
0B
0U
0P
0W
0<
0Y
0Q
b0 o
0c
0+
b0 m
b0 r
b0 i
b0 p
b1100 k
b0 a
b0 *
b0 H
b0 _
b0 )
b0 F
b11001 g
b11001 O
b11000 e
b11000 N
b0 +"
0}
0;
b0 )"
b0 ."
b0 %"
b0 ,"
b1 '"
b0 {
b0 G
b0 [
b0 y
b0 E
b0 Z
b1 #"
b1 M
b0 !"
b0 L
0J"
09"
0L"
0H"
0b"
0G"
0\"
0@"
b0 Z"
b0 >"
b0 i"
b0 `"
b0 E"
0V"
0A
b0 f"
b0 R"
b0 P"
b11 X"
b11 ;"
b11001 ^"
b11001 B"
b1111111 d"
b1 v"
b0 r"
b0 D"
0t"
0F"
0n"
0C"
b0 p"
b0 A"
b110100 8#
b0 ?#
08"
b0 ~"
b0 |"
b0 (#
0"#
0&#
b1111 $#
b0 h"
b0 x"
b0 )#
b0 }"
b0 ="
b0 {"
b0 :"
b0 '#
b0 C
b0 3"
b0 1#
0!#
0?"
0%#
0<"
b1111 ##
1.
1=
#600
01
0I
#1000
0.
0=
#1500
b1 6
b1 *#
b1 K
b11 |"
b1111 (#
b1 7
b1 6"
b0 q"
b0 >#
b0 3
b0 1"
b0 M"
b0 y"
b110100 7#
b110100 D
b110100 0"
b110100 z"
b10011110001101110111100110111001 /#
b10011110001101110111100110111001 8
b10011110001101110111100110111001 \
b10011110001101110111100110111001 v
b10011110001101110111100110111001 2"
b10011110001101110111100110111001 N"
b10011110001101110111100110111001 m"
b1 )#
b1 p"
b1 A"
b1 x"
bx y
bx E
bx Z
bx _
bx )
bx F
1.
1=
#2000
0.
0=
#2500
b0 6
b0 *#
b0 K
b0 7
b0 6"
b10 x"
b0 p"
b0 A"
b10 )#
bx /#
bx 8
bx \
bx v
bx 2"
bx N"
bx m"
b11 2
b11 4"
b11 9#
b11 {"
b11 :"
b1111 '#
b1111 C
b1111 3"
b1111 1#
1.
1=
#3000
0.
0=
#3500
b11111111 ~"
b1010110000110001100101100011100 s"
b1 q"
b11111111 7#
b11111111 D
b11111111 0"
b11111111 z"
b10011110001101110111100110111001 /#
b10011110001101110111100110111001 8
b10011110001101110111100110111001 \
b10011110001101110111100110111001 v
b10011110001101110111100110111001 2"
b10011110001101110111100110111001 N"
b10011110001101110111100110111001 m"
b11 )#
b11 x"
1.
1=
#4000
0.
0=
#4500
b1 6
b1 *#
b1 K
b1010110000110001100101100011100 9
b1010110000110001100101100011100 7"
b1010110000110001100101100011100 ,#
1u"
b10 w"
b1 7
b1 6"
1"#
b1110 $#
b100 x"
b1010110000110001100101100011100 r"
b1010110000110001100101100011100 D"
b1 p"
b1 A"
b100 )#
b11111111 4
b11111111 5"
b11111111 ;#
b11111111 }"
b11111111 ="
1.
1=
#5000
0.
0=
#5500
0"#
b1110 (#
1:
0u"
bx /#
bx 8
bx \
bx v
bx 2"
bx N"
bx m"
b1 )#
b10 v"
1t"
1F"
b1 x"
15
b1110 $#
1!#
1?"
b1110 ##
1.
1=
#6000
0.
0=
#6500
0:
b10 x"
0t"
0F"
b10 )#
b1010110000110001100101100011100 /#
b1010110000110001100101100011100 8
b1010110000110001100101100011100 \
b1010110000110001100101100011100 v
b1010110000110001100101100011100 2"
b1010110000110001100101100011100 N"
b1010110000110001100101100011100 m"
b11111111 >#
b11111111 3
b11111111 1"
b11111111 M"
b11111111 y"
05
b1110 '#
b1110 C
b1110 3"
b1110 1#
0!#
0?"
1.
1=
#7000
0.
0=
#7500
b1111111111111110 ~"
b1101111110100001110001111111 s"
b10 q"
b11111110 7#
b11111110 D
b11111110 0"
b11111110 z"
b1010110000110001100101100011100 0#
b1010110000110001100101100011100 @
b1010110000110001100101100011100 ]
b1010110000110001100101100011100 w
b11 )#
b11 x"
1.
1=
#8000
0.
0=
#8500
b10 6
b10 *#
b10 K
b1101111110100001110001111111 9
b1101111110100001110001111111 7"
b1101111110100001110001111111 ,#
1u"
b11 w"
b10 7
b10 6"
1"#
b1101 $#
b100 x"
b1101111110100001110001111111 r"
b1101111110100001110001111111 D"
b10 p"
b10 A"
b100 )#
b1111111111111110 4
b1111111111111110 5"
b1111111111111110 ;#
b1111111111111110 }"
b1111111111111110 ="
1.
1=
#9000
0.
0=
#9500
0"#
b1101 (#
1:
0u"
bx /#
bx 8
bx \
bx v
bx 2"
bx N"
bx m"
b1 )#
b11 v"
1t"
1F"
b1 x"
15
b1101 $#
1!#
1?"
b1101 ##
1.
1=
#10000
0.
0=
#10500
0:
b10 x"
0t"
0F"
b10 )#
b1101111110100001110001111111 /#
b1101111110100001110001111111 8
b1101111110100001110001111111 \
b1101111110100001110001111111 v
b1101111110100001110001111111 2"
b1101111110100001110001111111 N"
b1101111110100001110001111111 m"
b1111111111111110 >#
b1111111111111110 3
b1111111111111110 1"
b1111111111111110 M"
b1111111111111110 y"
05
b1101 '#
b1101 C
b1101 3"
b1101 1#
0!#
0?"
1.
1=
#11000
0.
0=
#11500
b111111111111111011101110 ~"
b11000101110110110110110111100010 s"
b11 q"
b11101110 7#
b11101110 D
b11101110 0"
b11101110 z"
b11 )#
b11 x"
1.
1=
#12000
0.
0=
#12500
b11 6
b11 *#
b11 K
b11000101110110110110110111100010 9
b11000101110110110110110111100010 7"
b11000101110110110110110111100010 ,#
1u"
b100 w"
b11 7
b11 6"
1"#
b1100 $#
b100 x"
b11000101110110110110110111100010 r"
b11000101110110110110110111100010 D"
b11 p"
b11 A"
b100 )#
b111111111111111011101110 4
b111111111111111011101110 5"
b111111111111111011101110 ;#
b111111111111111011101110 }"
b111111111111111011101110 ="
1.
1=
#13000
0.
0=
#13500
0"#
b1100 (#
1:
0u"
bx /#
bx 8
bx \
bx v
bx 2"
bx N"
bx m"
b1 )#
b100 v"
1t"
1F"
b1 x"
15
b1100 $#
1!#
1?"
b1100 ##
1.
1=
#14000
0.
0=
#14500
0:
b10 x"
0t"
0F"
b10 )#
b11000101110110110110110111100010 /#
b11000101110110110110110111100010 8
b11000101110110110110110111100010 \
b11000101110110110110110111100010 v
b11000101110110110110110111100010 2"
b11000101110110110110110111100010 N"
b11000101110110110110110111100010 m"
b111111111111111011101110 >#
b111111111111111011101110 3
b111111111111111011101110 1"
b111111111111111011101110 M"
b111111111111111011101110 y"
05
b1100 '#
b1100 C
b1100 3"
b1100 1#
0!#
0?"
1.
1=
#15000
0.
0=
#15500
b11111111111111101110111011100101 ~"
b1111101101111001011111101000101 s"
b100 q"
b11100101 7#
b11100101 D
b11100101 0"
b11100101 z"
b11 )#
b11 x"
1.
1=
#16000
0.
0=
#16500
b100 6
b100 *#
b100 K
b1111101101111001011111101000101 9
b1111101101111001011111101000101 7"
b1111101101111001011111101000101 ,#
1u"
b101 w"
b100 7
b100 6"
1"#
b1011 $#
b100 x"
b1111101101111001011111101000101 r"
b1111101101111001011111101000101 D"
b100 p"
b100 A"
b100 )#
b11111111111111101110111011100101 4
b11111111111111101110111011100101 5"
b11111111111111101110111011100101 ;#
b11111111111111101110111011100101 }"
b11111111111111101110111011100101 ="
1.
1=
#17000
0.
0=
#17500
0"#
b10 |"
b1011 (#
1:
0u"
bx /#
bx 8
bx \
bx v
bx 2"
bx N"
bx m"
b1 )#
b101 v"
1t"
1F"
b1 x"
15
b1011 $#
1!#
1?"
b1011 ##
1.
1=
#18000
0.
0=
#18500
0:
b10 x"
0t"
0F"
b10 )#
b1111101101111001011111101000101 /#
b1111101101111001011111101000101 8
b1111101101111001011111101000101 \
b1111101101111001011111101000101 v
b1111101101111001011111101000101 2"
b1111101101111001011111101000101 N"
b1111101101111001011111101000101 m"
b11111111111111101110111011100101 >#
b11111111111111101110111011100101 3
b11111111111111101110111011100101 1"
b11111111111111101110111011100101 M"
b11111111111111101110111011100101 y"
b10 2
b10 4"
b10 9#
05
b10 {"
b10 :"
b1011 '#
b1011 C
b1011 3"
b1011 1#
0!#
0?"
1.
1=
#19000
0.
0=
#19500
b10000110 ~"
b110101100111100001000010101000 s"
b101 q"
b0 >#
b0 3
b0 1"
b0 M"
b0 y"
b10000110 7#
b10000110 D
b10000110 0"
b10000110 z"
b11 )#
b11 x"
1.
1=
#20000
0.
0=
#20500
b101 6
b101 *#
b101 K
b110101100111100001000010101000 9
b110101100111100001000010101000 7"
b110101100111100001000010101000 ,#
1u"
b110 w"
b101 7
b101 6"
1"#
b1010 $#
b100 x"
b110101100111100001000010101000 r"
b110101100111100001000010101000 D"
b101 p"
b101 A"
b100 )#
b10000110 4
b10000110 5"
b10000110 ;#
b10000110 }"
b10000110 ="
1.
1=
#21000
0.
0=
#21500
0"#
b1010 (#
1:
0u"
bx /#
bx 8
bx \
bx v
bx 2"
bx N"
bx m"
b1 )#
b110 v"
1t"
1F"
b1 x"
15
b1010 $#
1!#
1?"
b1010 ##
1.
1=
#22000
0.
0=
#22500
0:
b10 x"
0t"
0F"
b10 )#
b110101100111100001000010101000 /#
b110101100111100001000010101000 8
b110101100111100001000010101000 \
b110101100111100001000010101000 v
b110101100111100001000010101000 2"
b110101100111100001000010101000 N"
b110101100111100001000010101000 m"
b10000110 >#
b10000110 3
b10000110 1"
b10000110 M"
b10000110 y"
05
b1010 '#
b1010 C
b1010 3"
b1010 1#
0!#
0?"
1.
1=
#23000
0.
0=
#23500
b1000011010000100 ~"
b11101101011111110110001000001011 s"
b110 q"
b10000100 7#
b10000100 D
b10000100 0"
b10000100 z"
b11 )#
b11 x"
1.
1=
#24000
0.
0=
#24500
b110 6
b110 *#
b110 K
b11101101011111110110001000001011 9
b11101101011111110110001000001011 7"
b11101101011111110110001000001011 ,#
1u"
b111 w"
b110 7
b110 6"
1"#
b1001 $#
b100 x"
b11101101011111110110001000001011 r"
b11101101011111110110001000001011 D"
b110 p"
b110 A"
b100 )#
b1000011010000100 4
b1000011010000100 5"
b1000011010000100 ;#
b1000011010000100 }"
b1000011010000100 ="
1.
1=
#25000
0.
0=
#25500
0"#
b1001 (#
1:
0u"
bx /#
bx 8
bx \
bx v
bx 2"
bx N"
bx m"
b1 )#
b111 v"
1t"
1F"
b1 x"
15
b1001 $#
1!#
1?"
b1001 ##
1.
1=
#26000
0.
0=
#26500
0:
b10 x"
0t"
0F"
b10 )#
b11101101011111110110001000001011 /#
b11101101011111110110001000001011 8
b11101101011111110110001000001011 \
b11101101011111110110001000001011 v
b11101101011111110110001000001011 2"
b11101101011111110110001000001011 N"
b11101101011111110110001000001011 m"
b1000011010000100 >#
b1000011010000100 3
b1000011010000100 1"
b1000011010000100 M"
b1000011010000100 y"
05
b1001 '#
b1001 C
b1001 3"
b1001 1#
0!#
0?"
1.
1=
#27000
0.
0=
#27500
b100001101000010011111111 ~"
b10100101011000001011001101101110 s"
b111 q"
b11111111 7#
b11111111 D
b11111111 0"
b11111111 z"
b11 )#
b11 x"
1.
1=
#28000
0.
0=
#28500
b111 6
b111 *#
b111 K
b10100101011000001011001101101110 9
b10100101011000001011001101101110 7"
b10100101011000001011001101101110 ,#
1u"
b1000 w"
b111 7
b111 6"
1"#
b1000 $#
b100 x"
b10100101011000001011001101101110 r"
b10100101011000001011001101101110 D"
b111 p"
b111 A"
b100 )#
b100001101000010011111111 4
b100001101000010011111111 5"
b100001101000010011111111 ;#
b100001101000010011111111 }"
b100001101000010011111111 ="
1.
1=
#29000
0.
0=
#29500
0"#
b1000 (#
1:
0u"
bx /#
bx 8
bx \
bx v
bx 2"
bx N"
bx m"
b1 )#
b1000 v"
1t"
1F"
b1 x"
15
b1000 $#
1!#
1?"
b1000 ##
1.
1=
#30000
0.
0=
#30500
0:
b10 x"
0t"
0F"
b10 )#
b10100101011000001011001101101110 /#
b10100101011000001011001101101110 8
b10100101011000001011001101101110 \
b10100101011000001011001101101110 v
b10100101011000001011001101101110 2"
b10100101011000001011001101101110 N"
b10100101011000001011001101101110 m"
b100001101000010011111111 >#
b100001101000010011111111 3
b100001101000010011111111 1"
b100001101000010011111111 M"
b100001101000010011111111 y"
05
b1000 '#
b1000 C
b1000 3"
b1000 1#
0!#
0?"
1.
1=
#31000
0.
0=
#31500
b10000110100001001111111111110000 ~"
b1011101010000100000010011010001 s"
b1000 q"
b11110000 7#
b11110000 D
b11110000 0"
b11110000 z"
b11 )#
b11 x"
1.
1=
#32000
0.
0=
#32500
b1000 6
b1000 *#
b1000 K
b1011101010000100000010011010001 9
b1011101010000100000010011010001 7"
b1011101010000100000010011010001 ,#
1u"
b1001 w"
b1000 7
b1000 6"
1"#
b111 $#
b100 x"
b1011101010000100000010011010001 r"
b1011101010000100000010011010001 D"
b1000 p"
b1000 A"
b100 )#
b10000110100001001111111111110000 4
b10000110100001001111111111110000 5"
b10000110100001001111111111110000 ;#
b10000110100001001111111111110000 }"
b10000110100001001111111111110000 ="
1.
1=
#33000
0.
0=
#33500
0"#
b1 |"
b111 (#
1:
0u"
bx /#
bx 8
bx \
bx v
bx 2"
bx N"
bx m"
b1 )#
b1001 v"
1t"
1F"
b1 x"
15
b111 $#
1!#
1?"
b111 ##
1.
1=
#34000
0.
0=
#34500
0:
b10 x"
0t"
0F"
b10 )#
b1011101010000100000010011010001 /#
b1011101010000100000010011010001 8
b1011101010000100000010011010001 \
b1011101010000100000010011010001 v
b1011101010000100000010011010001 2"
b1011101010000100000010011010001 N"
b1011101010000100000010011010001 m"
b10000110100001001111111111110000 >#
b10000110100001001111111111110000 3
b10000110100001001111111111110000 1"
b10000110100001001111111111110000 M"
b10000110100001001111111111110000 y"
b1 2
b1 4"
b1 9#
05
b1 {"
b1 :"
b111 '#
b111 C
b111 3"
b111 1#
0!#
0?"
1.
1=
#35000
0.
0=
#35500
b1011111 ~"
b10101001000110101011000110100 s"
b1001 q"
b0 >#
b0 3
b0 1"
b0 M"
b0 y"
b1011111 7#
b1011111 D
b1011111 0"
b1011111 z"
b11 )#
b11 x"
1.
1=
#36000
0.
0=
#36500
b1001 6
b1001 *#
b1001 K
b10101001000110101011000110100 9
b10101001000110101011000110100 7"
b10101001000110101011000110100 ,#
1u"
b1010 w"
b1001 7
b1001 6"
1"#
b110 $#
b100 x"
b10101001000110101011000110100 r"
b10101001000110101011000110100 D"
b1001 p"
b1001 A"
b100 )#
b1011111 4
b1011111 5"
b1011111 ;#
b1011111 }"
b1011111 ="
1.
1=
#37000
0.
0=
#37500
0"#
b110 (#
1:
0u"
bx /#
bx 8
bx \
bx v
bx 2"
bx N"
bx m"
b1 )#
b1010 v"
1t"
1F"
b1 x"
15
b110 $#
1!#
1?"
b110 ##
1.
1=
#38000
0.
0=
#38500
0:
b10 x"
0t"
0F"
b10 )#
b10101001000110101011000110100 /#
b10101001000110101011000110100 8
b10101001000110101011000110100 \
b10101001000110101011000110100 v
b10101001000110101011000110100 2"
b10101001000110101011000110100 N"
b10101001000110101011000110100 m"
b1011111 >#
b1011111 3
b1011111 1"
b1011111 M"
b1011111 y"
05
b110 '#
b110 C
b110 3"
b110 1#
0!#
0?"
1.
1=
#39000
0.
0=
#39500
b101111111111110 ~"
b11001101000001001010011110010111 s"
b1010 q"
b11111110 7#
b11111110 D
b11111110 0"
b11111110 z"
b11 )#
b11 x"
1.
1=
#40000
0.
0=
#40500
b1010 6
b1010 *#
b1010 K
b11001101000001001010011110010111 9
b11001101000001001010011110010111 7"
b11001101000001001010011110010111 ,#
1u"
b1011 w"
b1010 7
b1010 6"
1"#
b101 $#
b100 x"
b11001101000001001010011110010111 r"
b11001101000001001010011110010111 D"
b1010 p"
b1010 A"
b100 )#
b101111111111110 4
b101111111111110 5"
b101111111111110 ;#
b101111111111110 }"
b101111111111110 ="
1.
1=
#41000
0.
0=
#41500
0"#
b101 (#
1:
0u"
bx /#
bx 8
bx \
bx v
bx 2"
bx N"
bx m"
b1 )#
b1011 v"
1t"
1F"
b1 x"
15
b101 $#
1!#
1?"
b101 ##
1.
1=
#42000
0.
0=
