proyectoLeon/codigo/version2/expander.vcd
$date
	Sat Nov  7 01:03:20 2015
$end
$version
	Icarus Verilog
$end
$timescale
	10ps
$end
$scope module barrelShifter16 $end
$var wire 16 ! iData [15:0] $end
$var wire 1 " iDir $end
$var wire 4 # iRotate [3:0] $end
$var reg 16 $ oData [15:0] $end
$upscope $end
$scope module barrelShifter64 $end
$var wire 64 % iData [63:0] $end
$var wire 1 & iDir $end
$var wire 6 ' iRotate [5:0] $end
$var reg 64 ( oData [63:0] $end
$upscope $end
$scope module testbench $end
$var reg 1 ) clk $end
$var integer 32 * i [31:0] $end
$var reg 128 + key [127:0] $end
$var reg 1 , rst $end
$scope module expander $end
$var wire 2 - L_address [1:0] $end
$var wire 2 . L_address1 [1:0] $end
$var wire 2 / L_address2 [1:0] $end
$var wire 1 0 L_done $end
$var wire 32 1 L_sub_i [31:0] $end
$var wire 32 2 L_sub_i_prima [31:0] $end
$var wire 32 3 L_sub_i_prima1 [31:0] $end
$var wire 32 4 L_sub_i_prima2 [31:0] $end
$var wire 1 5 L_we $end
$var wire 1 6 L_we1 $end
$var wire 1 7 L_we2 $end
$var wire 5 8 S_address [4:0] $end
$var wire 5 9 S_address1 [4:0] $end
$var wire 5 : S_address2 [4:0] $end
$var wire 1 ; S_done $end
$var wire 32 < S_sub_i [31:0] $end
$var wire 32 = S_sub_i_prima [31:0] $end
$var wire 32 > S_sub_i_prima1 [31:0] $end
$var wire 32 ? S_sub_i_prima2 [31:0] $end
$var wire 1 @ S_we $end
$var wire 1 A S_we1 $end
$var wire 1 B S_we2 $end
$var wire 1 C clk $end
$var wire 1 D keyExpanderDone $end
$var wire 4 E key_address [3:0] $end
$var wire 8 F key_sub_i [7:0] $end
$var wire 1 G rst $end
$var wire 1 H start $end
$var wire 1 I start1 $end
$var wire 1 J start2 $end
$scope module ff1 $end
$var wire 1 C Clock $end
$var wire 1 I D $end
$var wire 1 K Enable $end
$var wire 1 G Reset $end
$var reg 1 L Q $end
$upscope $end
$scope module ff2 $end
$var wire 1 C Clock $end
$var wire 1 J D $end
$var wire 1 M Enable $end
$var wire 1 G Reset $end
$var reg 1 N Q $end
$upscope $end
$scope module mixer $end
$var wire 1 C clk $end
$var wire 32 O iL_sub_i [31:0] $end
$var wire 32 P iS_sub_i [31:0] $end
$var wire 1 H iStart $end
$var wire 1 G rst $end
$var wire 32 Q wS_rotate [31:0] $end
$var reg 32 R A [31:0] $end
$var reg 32 S A_nxt [31:0] $end
$var reg 32 T B [31:0] $end
$var reg 32 U B_nxt [31:0] $end
$var reg 5 V i [4:0] $end
$var reg 5 W i_nxt [4:0] $end
$var reg 2 X j [1:0] $end
$var reg 2 Y j_nxt [1:0] $end
$var reg 1 Z oDone $end
$var reg 1 [ oDone_nxt $end
$var reg 2 \ oL_address [1:0] $end
$var reg 2 ] oL_address_nxt [1:0] $end
$var reg 32 ^ oL_sub_i_prima [31:0] $end
$var reg 32 _ oL_sub_i_prima_nxt [31:0] $end
$var reg 1 ` oL_we $end
$var reg 1 a oL_we_nxt $end
$var reg 5 b oS_address [4:0] $end
$var reg 5 c oS_address_nxt [4:0] $end
$var reg 32 d oS_sub_i_prima [31:0] $end
$var reg 32 e oS_sub_i_prima_nxt [31:0] $end
$var reg 1 f oS_we $end
$var reg 1 g oS_we_nxt $end
$var reg 7 h rCount [6:0] $end
$var reg 7 i rCount_nxt [6:0] $end
$var reg 5 j rRot_L [4:0] $end
$var reg 5 k rRot_L_nxt [4:0] $end
$var reg 32 l rSumTemp [31:0] $end
$var reg 32 m rSumTemp_nxt [31:0] $end
$var reg 3 n state [2:0] $end
$scope module barrel $end
$var wire 32 o iData [31:0] $end
$var wire 1 p iDir $end
$var wire 5 q iRotate [4:0] $end
$var reg 32 r oData [31:0] $end
$upscope $end
$upscope $end
$scope module S $end
$var wire 1 C clk $end
$var wire 32 s iS_sub_i [31:0] $end
$var wire 1 G rst $end
$var reg 1 t oDone $end
$var reg 1 u oDone_nxt $end
$var reg 5 v oS_address [4:0] $end
$var reg 5 w oS_address_nxt [4:0] $end
$var reg 32 x oS_sub_i_prima [31:0] $end
$var reg 32 y oS_sub_i_prima_nxt [31:0] $end
$var reg 1 z oS_we $end
$var reg 1 { oS_we_nxt $end
$var reg 5 | rCount [4:0] $end
$var reg 5 } rCount_nxt [4:0] $end
$var reg 3 ~ state [2:0] $end
$upscope $end
$scope module S_RAM $end
$var wire 5 !" addr_a [4:0] $end
$var wire 5 "" addr_b [4:0] $end
$var wire 1 C clk $end
$var wire 32 #" data_a [31:0] $end
$var wire 32 $" data_b [31:0] $end
$var wire 1 @ we_a $end
$var wire 1 %" we_b $end
$var reg 32 &" q_a [31:0] $end
$var reg 32 '" q_b [31:0] $end
$upscope $end
$scope module L $end
$var wire 32 (" L_sub_i [31:0] $end
$var wire 1 C clk $end
$var wire 8 )" key_sub_i [7:0] $end
$var wire 1 G rst $end
$var reg 2 *" L_address [1:0] $end
$var reg 2 +" L_address_nxt [1:0] $end
$var reg 32 ," L_sub_i_prima [31:0] $end
$var reg 32 -" L_sub_i_prima_nxt [31:0] $end
$var reg 1 ." L_we $end
$var reg 1 /" L_we_nxt $end
$var reg 4 0" count [3:0] $end
$var reg 4 1" count_nxt [3:0] $end
$var reg 1 2" done $end
$var reg 1 3" done_nxt $end
$var reg 4 4" key_address [3:0] $end
$var reg 4 5" key_address_nxt [3:0] $end
$var reg 3 6" state [2:0] $end
$upscope $end
$scope module key_RAM $end
$var wire 4 7" addr_a [3:0] $end
$var wire 4 8" addr_b [3:0] $end
$var wire 1 C clk $end
$var wire 8 9" data_a [7:0] $end
$var wire 8 :" data_b [7:0] $end
$var wire 1 ;" we_a $end
$var wire 1 <" we_b $end
$var reg 8 =" q_a [7:0] $end
$var reg 8 >" q_b [7:0] $end
$upscope $end
$scope module L_RAM $end
$var wire 2 ?" addr_a [1:0] $end
$var wire 2 @" addr_b [1:0] $end
$var wire 1 C clk $end
$var wire 32 A" data_a [31:0] $end
$var wire 32 B" data_b [31:0] $end
$var wire 1 5 we_a $end
$var wire 1 C" we_b $end
$var reg 32 D" q_a [31:0] $end
$var reg 32 E" q_b [31:0] $end
$upscope $end
$upscope $end
$upscope $end
$enddefinitions $end
#0
$dumpvars
bx E"
bx D"
0C"
b0 B"
bx A"
b0 @"
bx ?"
bx >"
bx ="
0<"
0;"
b0 :"
b0 9"
b0 8"
bx 7"
bx 6"
bx 5"
bx 4"
x3"
x2"
bx 1"
bx 0"
x/"
x."
bx -"
bx ,"
bx +"
bx *"
bx )"
bx ("
bx '"
bx &"
0%"
b0 $"
bx #"
b0 ""
bx !"
bx ~
bx }
bx |
x{
xz
bx y
bx x
bx w
bx v
xu
xt
bx s
bx r
bx q
0p
bx o
bx n
bx m
bx l
bx k
bx j
bx i
bx h
xg
xf
bx e
bx d
bx c
bx b
xa
x`
bx _
bx ^
bx ]
bx \
x[
xZ
bx Y
bx X
bx W
bx V
bx U
bx T
bx S
bx R
bx Q
bx P
bx O
xN
1M
xL
1K
xJ
xI
xH
0G
bx F
bx E
xD
0C
xB
xA
x@
bx ?
bx >
bx =
bx <
x;
bx :
bx 9
bx 8
x7
x6
x5
bx 4
bx 3
bx 2
bx 1
x0
bx /
bx .
bx -
0,
b11111111111111101110111011100101100001101000010011111111111100000101111111111110010010010011100001010011000000000000010000110100 +
b10000 *
0)
bx (
bz '
z&
bz %
bx $
bz #
z"
bz !
$end
#200
1,
1G
#500
b0 r
b0 Q
05
b0 2
b0 A"
b0 -
b0 ?"
0g
0a
b0 _
b0 e
0[
b0 k
b0 m
b0 U
b0 S
b0 Y
b0 W
b0 ]
b0 c
b1111111 i
b0 =
b0 #"
0@
b1 }
b0 y
0{
0u
b1 w
b0 8
b0 !"
0L
0J
0N
0H
0f
0B
0`
07
b0 ^
b0 4
b0 d
b0 ?
b0 o
0Z
0D
b0 j
b0 q
b0 l
b0 T
b0 R
b0 X
b0 V
b0 \
b0 /
b0 b
b0 :
b1111111 h
b1 |
b0 x
b0 >
0z
0A
0t
0;
b0 v
b0 9
b10110111111000010101000101100011 '"
b110100 >"
b0 E"
0I
b0 -"
b0 +"
b0 5"
0/"
03"
b1111 1"
b0 n
b0 ~
b0 6"
b0 ,"
b0 3
b0 *"
b0 .
b0 4"
b0 E
b0 7"
0."
06
02"
00
b1111 0"
1)
1C
#600
0,
0G
#1000
0)
0C
#1500
b11 +"
b1111 5"
b1 8
b1 !"
b0 w
b0 D"
b0 1
b0 O
b0 ("
b110100 ="
b110100 F
b110100 )"
b1 6"
b10110111111000010101000101100011 &"
b10110111111000010101000101100011 <
b10110111111000010101000101100011 P
b10110111111000010101000101100011 s
b1 v
b1 9
b1 ~
1)
1C
#2000
0)
0C
#2500
b0 8
b0 !"
b10 ~
b0 v
b0 9
bx &"
bx <
bx P
bx s
b10 6"
b11 -
b11 ?"
b11 *"
b11 .
b1111 4"
b1111 E
b1111 7"
1)
1C
#3000
0)
0C
#3500
b11111111 -"
b1010110000110001100101100011100 y
b1 w
b11111111 ="
b11111111 F
b11111111 )"
b11 6"
b10110111111000010101000101100011 &"
b10110111111000010101000101100011 <
b10110111111000010101000101100011 P
b10110111111000010101000101100011 s
b11 ~
1)
1C
#4000
0)
0C
#4500
b1010110000110001100101100011100 =
b1010110000110001100101100011100 #"
1{
b10 }
b1 8
b1 !"
1/"
b1110 1"
b100 ~
b1010110000110001100101100011100 x
b1010110000110001100101100011100 >
b1 v
b1 9
b100 6"
b11111111 2
b11111111 A"
b11111111 ,"
b11111111 3
1)
1C
#5000
0)
0C
#5500
0/"
b1110 5"
1@
0{
b1 6"
bx &"
bx <
bx P
bx s
b10 |
1z
1A
b1 ~
15
b1110 1"
1."
16
b1110 0"
1)
1C
#6000
0)
0C
#6500
0@
b10 ~
0z
0A
b1010110000110001100101100011100 &"
b1010110000110001100101100011100 <
b1010110000110001100101100011100 P
b1010110000110001100101100011100 s
b10 6"
b11111111 D"
b11111111 1
b11111111 O
b11111111 ("
05
b1110 4"
b1110 E
b1110 7"
0."
06
1)
1C
#7000
0)
0C
#7500
b1111111111111110 -"
b11110100010100000100010011010101 y
b10 w
b11111110 ="
b11111110 F
b11111110 )"
b11 6"
b11 ~
1)
1C
#8000
0)
0C
#8500
b11110100010100000100010011010101 =
b11110100010100000100010011010101 #"
1{
b11 }
b10 8
b10 !"
1/"
b1101 1"
b100 ~
b11110100010100000100010011010101 x
b11110100010100000100010011010101 >
b10 v
b10 9
b100 6"
b1111111111111110 2
b1111111111111110 A"
b1111111111111110 ,"
b1111111111111110 3
1)
1C
#9000
0)
0C
#9500
0/"
b1101 5"
1@
0{
b1 6"
bx &"
bx <
bx P
bx s
b11 |
1z
1A
b1 ~
15
b1101 1"
1."
16
b1101 0"
1)
1C
#10000
0)
0C
#10500
0@
b10 ~
0z
0A
b11110100010100000100010011010101 &"
b11110100010100000100010011010101 <
b11110100010100000100010011010101 P
b11110100010100000100010011010101 s
b10 6"
b1111111111111110 D"
b1111111111111110 1
b1111111111111110 O
b1111111111111110 ("
05
b1101 4"
b1101 E
b1101 7"
0."
06
1)
1C
#11000
0)
0C
#11500
b111111111111111011101110 -"
b10010010100001111011111010001110 y
b11 w
b11101110 ="
b11101110 F
b11101110 )"
b11 6"
b11 ~
1)
1C
#12000
0)
0C
#12500
b10010010100001111011111010001110 =
b10010010100001111011111010001110 #"
1{
b100 }
b11 8
b11 !"
1/"
b1100 1"
b100 ~
b10010010100001111011111010001110 x
b10010010100001111011111010001110 >
b11 v
b11 9
b100 6"
b111111111111111011101110 2
b111111111111111011101110 A"
b111111111111111011101110 ,"
b111111111111111011101110 3
1)
1C
#13000
0)
0C
#13500
0/"
b1100 5"
1@
0{
b1 6"
bx &"
bx <
bx P
bx s
b100 |
1z
1A
b1 ~
15
b1100 1"
1."
16
b1100 0"
1)
1C
#14000
0)
0C
#14500
0@
b10 ~
0z
0A
b10010010100001111011111010001110 &"
b10010010100001111011111010001110 <
b10010010100001111011111010001110 P
b10010010100001111011111010001110 s
b10 6"
b111111111111111011101110 D"
b111111111111111011101110 1
b111111111111111011101110 O
b111111111111111011101110 ("
05
b1100 4"
b1100 E
b1100 7"
0."
06
1)
1C
#15000
0)
0C
#15500
b11111111111111101110111011100101 -"
b110000101111110011100001000111 y
b100 w
b11100101 ="
b11100101 F
b11100101 )"
b11 6"
b11 ~
1)
1C
#16000
0)
0C
#16500
b110000101111110011100001000111 =
b110000101111110011100001000111 #"
1{
b101 }
b100 8
b100 !"
1/"
b1011 1"
b100 ~
b110000101111110011100001000111 x
b110000101111110011100001000111 >
b100 v
b100 9
b100 6"
b11111111111111101110111011100101 2
b11111111111111101110111011100101 A"
b11111111111111101110111011100101 ,"
b11111111111111101110111011100101 3
1)
1C
#17000
0)
0C
#17500
0/"
b10 +"
b1011 5"
1@
0{
b1 6"
bx &"
bx <
bx P
bx s
b101 |
1z
1A
b1 ~
15
b1011 1"
1."
16
b1011 0"
1)
1C
#18000
0)
0C
#18500
0@
b10 ~
0z
0A
b110000101111110011100001000111 &"
b110000101111110011100001000111 <
b110000101111110011100001000111 P
b110000101111110011100001000111 s
b10 6"
b11111111111111101110111011100101 D"
b11111111111111101110111011100101 1
b11111111111111101110111011100101 O
b11111111111111101110111011100101 ("
b10 -
b10 ?"
05
b10 *"
b10 .
b1011 4"
b1011 E
b1011 7"
0."
06
1)
1C
#19000
0)
0C
#19500
b10000110 -"
b11001110111101101011001000000000 y
b101 w
b0 D"
b0 1
b0 O
b0 ("
b10000110 ="
b10000110 F
b10000110 )"
b11 6"
b11 ~
1)
1C
#20000
0)
0C
#20500
b11001110111101101011001000000000 =
b11001110111101101011001000000000 #"
1{
b110 }
b101 8
b101 !"
1/"
b1010 1"
b100 ~
b11001110111101101011001000000000 x
b11001110111101101011001000000000 >
b101 v
b101 9
b100 6"
b10000110 2
b10000110 A"
b10000110 ,"
b10000110 3
1)
1C
#21000
0)
0C
#21500
0/"
b1010 5"
1@
0{
b1 6"
bx &"
bx <
bx P
bx s
b110 |
1z
1A
b1 ~
15
b1010 1"
1."
16
b1010 0"
1)
1C
#22000
0)
0C
#22500
0@
b10 ~
0z
0A
b11001110111101101011001000000000 &"
b11001110111101101011001000000000 <
b11001110111101101011001000000000 P
b11001110111101101011001000000000 s
b10 6"
b10000110 D"
b10000110 1
b10000110 O
b10000110 ("
05
b1010 4"
b1010 E
b1010 7"
0."
06
1)
1C
#23000
0)
0C
#23500
b1000011010000100 -"
b1101101001011100010101110111001 y
b110 w
b10000100 ="
b10000100 F
b10000100 )"
b11 6"
b11 ~
1)
1C
#24000
0)
0C
#24500
b1101101001011100010101110111001 =
b1101101001011100010101110111001 #"
1{
b111 }
b110 8
b110 !"
1/"
b1001 1"
b100 ~
b1101101001011100010101110111001 x
b1101101001011100010101110111001 >
b110 v
b110 9
b100 6"
b1000011010000100 2
b1000011010000100 A"
b1000011010000100 ,"
b1000011010000100 3
1)
1C
#25000
0)
0C
#25500
0/"
b1001 5"
1@
0{
b1 6"
bx &"
bx <
bx P
bx s
b111 |
1z
1A
b1 ~
15
b1001 1"
1."
16
b1001 0"
1)
1C
#26000
0)
0C
#26500
0@
b10 ~
0z
0A
b1101101001011100010101110111001 &"
b1101101001011100010101110111001 <
b1101101001011100010101110111001 P
b1101101001011100010101110111001 s
b10 6"
b1000011010000100 D"
b1000011010000100 1
b1000011010000100 O
b1000011010000100 ("
05
b1001 4"
b1001 E
b1001 7"
0."
06
1)
1C
#27000
0)
0C
#27500
b100001101000010011111111 -"
b1011011001011010010101110010 y
b111 w
b11111111 ="
b11111111 F
b11111111 )"
b11 6"
b11 ~
1)
1C
#28000
0)
0C
#28500
b1011011001011010010101110010 =
b1011011001011010010101110010 #"
1{
b1000 }
b111 8
b111 !"
1/"
b1000 1"
b100 ~
b1011011001011010010101110010 x
b1011011001011010010101110010 >
b111 v
b111 9
b100 6"
b100001101000010011111111 2
b100001101000010011111111 A"
b100001101000010011111111 ,"
b100001101000010011111111 3
1)
1C
#29000
0)
0C
#29500
0/"
b1000 5"
1@
0{
b1 6"
bx &"
bx <
bx P
bx s
b1000 |
1z
1A
b1 ~
15
b1000 1"
1."
16
b1000 0"
1)
1C
#30000
0)
0C
#30500
0@
b10 ~
0z
0A
b1011011001011010010101110010 &"
b1011011001011010010101110010 <
b1011011001011010010101110010 P
b1011011001011010010101110010 s
b10 6"
b100001101000010011111111 D"
b100001101000010011111111 1
b100001101000010011111111 O
b100001101000010011111111 ("
05
b1000 4"
b1000 E
b1000 7"
0."
06
1)
1C
#31000
0)
0C
#31500
b10000110100001001111111111110000 -"
b10101001100111010001111100101011 y
b1000 w
b11110000 ="
b11110000 F
b11110000 )"
b11 6"
b11 ~
1)
1C
#32000
0)
0C
#32500
b10101001100111010001111100101011 =
b10101001100111010001111100101011 #"
1{
b1001 }
b1000 8
b1000 !"
1/"
b111 1"
b100 ~
b10101001100111010001111100101011 x
b10101001100111010001111100101011 >
b1000 v
b1000 9
b100 6"
b10000110100001001111111111110000 2
b10000110100001001111111111110000 A"
b10000110100001001111111111110000 ,"
b10000110100001001111111111110000 3
1)
1C
#33000
0)
0C
#33500
0/"
b1 +"
b111 5"
1@
0{
b1 6"
bx &"
bx <
bx P
bx s
b1001 |
1z
1A
b1 ~
15
b111 1"
1."
16
b111 0"
1)
1C
#34000
0)
0C
#34500
0@
b10 ~
0z
0A
b10101001100111010001111100101011 &"
b10101001100111010001111100101011 <
b10101001100111010001111100101011 P
b10101001100111010001111100101011 s
b10 6"
b10000110100001001111111111110000 D"
b10000110100001001111111111110000 1
b10000110100001001111111111110000 O
b10000110100001001111111111110000 ("
b1 -
b1 ?"
05
b1 *"
b1 .
b111 4"
b111 E
b111 7"
0."
06
1)
1C
#35000
0)
0C
#35500
b1011111 -"
b1000111110101001001100011100100 y
b1001 w
b0 D"
b0 1
b0 O
b0 ("
b1011111 ="
b1011111 F
b1011111 )"
b11 6"
b11 ~
1)
1C
#36000
0)
0C
#36500
b1000111110101001001100011100100 =
b1000111110101001001100011100100 #"
1{
b1010 }
b1001 8
b1001 !"
1/"
b110 1"
b100 ~
b1000111110101001001100011100100 x
b1000111110101001001100011100100 >
b1001 v
b1001 9
b100 6"
b1011111 2
b1011111 A"
b1011111 ,"
b1011111 3
1)
1C
#37000
0)
0C
#37500
0/"
b110 5"
1@
0{
b1 6"
bx &"
bx <
bx P
bx s
b1010 |
1z
1A
b1 ~
15
b110 1"
1."
16
b110 0"
1)
1C
#38000
0)
0C
#38500
0@
b10 ~
0z
0A
b1000111110101001001100011100100 &"
b1000111110101001001100011100100 <
b1000111110101001001100011100100 P
b1000111110101001001100011100100 s
b10 6"
b1011111 D"
b1011111 1
b1011111 O
b1011111 ("
05
b110 4"
b110 E
b110 7"
0."
06
1)
1C
#39000
0)
0C
#39500
b101111111111110 -"
b11100110000011000001001010011101 y
b1010 w
b11111110 ="
b11111110 F
b11111110 )"
b11 6"
b11 ~
1)
1C
#40000
0)
0C
#40500
b11100110000011000001001010011101 =
b11100110000011000001001010011101 #"
1{
b1011 }
b1010 8
b1010 !"
1/"
b101 1"
b100 ~
b11100110000011000001001010011101 x
b11100110000011000001001010011101 >
b1010 v
b1010 9
b100 6"
b101111111111110 2
b101111111111110 A"
b101111111111110 ,"
b101111111111110 3
1)
1C
#41000
0)
0C
#41500
0/"
b101 5"
1@
0{
b1 6"
bx &"
bx <
bx P
bx s
b1011 |
1z
1A
b1 ~
15
b101 1"
1."
16
b101 0"
1)
1C
#42000
0)
0C
#42500
0@
b10 ~
0z
0A
b11100110000011000001001010011101 &"
b11100110000011000001001010011101 <
b11100110000011000001001010011101 P
b11100110000011000001001010011101 s
b10 6"
b101111111111110 D"
b101111111111110 1
b101111111111110 O
b101111111111110 ("
05
b101 4"
b101 E
b101 7"
0."
06
1)
1C
#43000
0)
0C
#43500
b10111111111111001001001 -"
b10000100010000111000110001010110 y
b1011 w
b1001001 ="
b1001001 F
b1001001 )"
b11 6"
b11 ~
1)
1C
#44000
0)
0C
#44500
b10000100010000111000110001010110 =
b10000100010000111000110001010110 #"
1{
b1100 }
b1011 8
b1011 !"
1/"
b100 1"
b100 ~
b10000100010000111000110001010110 x
b10000100010000111000110001010110 >
b1011 v
b1011 9
b100 6"
b10111111111111001001001 2
b10111111111111001001001 A"
b10111111111111001001001 ,"
b10111111111111001001001 3
1)
1C
#45000
0)
0C
#45500
0/"
b100 5"
1@
0{
b1 6"
bx &"
bx <
bx P
bx s
b1100 |
1z
1A
b1 ~
15
b100 1"
1."
16
b100 0"
1)
1C
#46000
0)
0C
#46500
0@
b10 ~
0z
0A
b10000100010000111000110001010110 &"
b10000100010000111000110001010110 <
b10000100010000111000110001010110 P
b10000100010000111000110001010110 s
b10 6"
b10111111111111001001001 D"
b10111111111111001001001 1
b10111111111111001001001 O
b10111111111111001001001 ("
05
b100 4"
b100 E
b100 7"
0."
06
1)
1C
#47000
0)
0C
#47500
b1011111111111100100100100111000 -"
b100010011110110000011000001111 y
b1100 w
b111000 ="
b111000 F
b111000 )"
b11 6"
b11 ~
1)
1C
#48000
0)
0C
#48500
b100010011110110000011000001111 =
b100010011110110000011000001111 #"
1{
b1101 }
b1100 8
b1100 !"
1/"
b11 1"
b100 ~
b100010011110110000011000001111 x
b100010011110110000011000001111 >
b1100 v
b1100 9
b100 6"
b1011111111111100100100100111000 2
b1011111111111100100100100111000 A"
b1011111111111100100100100111000 ,"
b1011111111111100100100100111000 3
1)
1C
#49000
0)
0C
#49500
0/"
b0 +"
b11 5"
1@
0{
b1 6"
bx &"
bx <
bx P
bx s
b1101 |
1z
1A
b1 ~
15
b11 1"
1."
16
b11 0"
1)
1C
#50000
0)
0C
#50500
0@
b10 ~
0z
0A
b100010011110110000011000001111 &"
b100010011110110000011000001111 <
b100010011110110000011000001111 P
b100010011110110000011000001111 s
b10 6"
b1011111111111100100100100111000 D"
b1011111111111100100100100111000 1
b1011111111111100100100100111000 O
b1011111111111100100100100111000 ("
b0 -
b0 ?"
05
b0 *"
b0 .
b11 4"
b11 E
b11 7"
0."
06
1)
1C
#51000
0)
0C
#51500
b1010011 -"
b11000000101100100111111111001000 y
b1101 w
b0 D"
b0 1
b0 O
b0 ("
b1010011 ="
b1010011 F
b1010011 )"
b11 6"
b11 ~
1)
1C
#52000
0)
0C
#52500
b11000000101100100111111111001000 =
b11000000101100100111111111001000 #"
1{
b1110 }
b1101 8
b1101 !"
1/"
b10 1"
b100 ~
b11000000101100100111111111001000 x
b11000000101100100111111111001000 >
b1101 v
b1101 9
b100 6"
b1010011 2
b1010011 A"
b1010011 ,"
b1010011 3
1)
1C
#53000
0)
0C
#53500
0/"
b10 5"
1@
0{
b1 6"
bx &"
bx <
bx P
bx s
b1110 |
1z
1A
b1 ~
15
b10 1"
1."
16
b10 0"
1)
1C
#54000
0)
0C
#54500
0@
b10 ~
0z
0A
b11000000101100100111111111001000 &"
b11000000101100100111111111001000 <
b11000000101100100111111111001000 P
b11000000101100100111111111001000 s
b10 6"
b1010011 D"
b1010011 1
b1010011 O
b1010011 ("
05
b10 4"
b10 E
b10 7"
0."
06
1)
1C
#55000
0)
0C
#55500
b101001100000000 -"
b1011110111010011111100110000001 y
b1110 w
b1010011 E"
b0 ="
b0 F
b0 )"
b11 6"
b11 ~
1)
1C
#56000
0)
0C
#56500
b1011110111010011111100110000001 =
b1011110111010011111100110000001 #"
1{
b1111 }
b1110 8
b1110 !"
1/"
b1 1"
b100 ~
b1011110111010011111100110000001 x
b1011110111010011111100110000001 >
b1110 v
b1110 9
b100 6"
b101001100000000 2
b101001100000000 A"
b101001100000000 ,"
b101001100000000 3
1)
1C
#57000
0)
0C
#57500
0/"
b1 5"
1@
0{
b1 6"
bx &"
bx <
bx P
bx s
b1111 |
1z
1A
b1 ~
15
b1 1"
1."
16
b1 0"
1)
1C
#58000
0)
0C
#58500
0@
b10 ~
0z
0A
b1011110111010011111100110000001 &"
b1011110111010011111100110000001 <
b1011110111010011111100110000001 P
b1011110111010011111100110000001 s
b10 6"
b101001100000000 D"
b101001100000000 1
b101001100000000 O
b101001100000000 ("
05
b1 4"
b1 E
b1 7"
0."
06
1)
1C
#59000
0)
0C
#59500
b10100110000000000000100 -"
b11111101001000010111001100111010 y
b1111 w
b101001100000000 E"
b100 ="
b100 F
b100 )"
b11 6"
b11 ~
1)
1C
#60000
0)
0C
#60500
b11111101001000010111001100111010 =
b11111101001000010111001100111010 #"
1{
b10000 }
b1111 8
b1111 !"
1/"
b0 1"
b100 ~
b11111101001000010111001100111010 x
b11111101001000010111001100111010 >
b1111 v
b1111 9
b100 6"
b10100110000000000000100 2
b10100110000000000000100 A"
b10100110000000000000100 ,"
b10100110000000000000100 3
1)
1C
#61000
0)
0C
#61500
0/"
b0 5"
1@
0{
b1 6"
bx &"
bx <
bx P
bx s
b10000 |
1z
1A
b1 ~
15
03"
b0 1"
1."
16
b0 0"
1)
1C
#62000
0)
0C
#62500
0@
b10 ~
0z
0A
b11111101001000010111001100111010 &"
b11111101001000010111001100111010 <
b11111101001000010111001100111010 P
b11111101001000010111001100111010 s
b10 6"
b10100110000000000000100 D"
b10100110000000000000100 1
b10100110000000000000100 O
b10100110000000000000100 ("
05
b0 4"
b0 E
b0 7"
0."
06
1)
1C
#63000
0)
0C
#63500
b1010011000000000000010000110100 -"
b10011011010110001110110011110011 y
b10000 w
b10100110000000000000100 E"
b110100 ="
b110100 F
b110100 )"
b11 6"
b11 ~
1)
1C
#64000
0)
0C
#64500
b10011011010110001110110011110011 =
b10011011010110001110110011110011 #"
1{
b10001 }
b10000 8
b10000 !"
13"
1/"
b1111 1"
b100 ~
b10011011010110001110110011110011 x
b10011011010110001110110011110011 >
b10000 v
b10000 9
b100 6"
b1010011000000000000010000110100 2
b1010011000000000000010000110100 A"
b1010011000000000000010000110100 ,"
b1010011000000000000010000110100 3
1)
1C
#65000
0)
0C
#65500
0/"
b11 +"
b1111 5"
1@
0{
b1 6"
bx &"
bx <
bx P
bx s
b10001 |
1z
1A
b1 ~
15
b1111 1"
1."
16
12"
10
b1111 0"
1)
1C
#66000
0)
0C
#66500
0@
b10 ~
0z
0A
b10011011010110001110110011110011 &"
b10011011010110001110110011110011 <
b10011011010110001110110011110011 P
b10011011010110001110110011110011 s
b1010011000000000000010000110100 D"
b1010011000000000000010000110100 1
b1010011000000000000010000110100 O
b1010011000000000000010000110100 ("
b11 -
b11 ?"
05
b11 *"
b11 .
b1111 4"
b1111 E
b1111 7"
0."
06
1)
1C
#67000
0)
0C
#67500
b111001100100000110011010101100 y
b10001 w
b1010011000000000000010000110100 E"
b11111111111111101110111011100101 D"
b11111111111111101110111011100101 1
b11111111111111101110111011100101 O
b11111111111111101110111011100101 ("
b11111111 ="
b11111111 F
b11111111 )"
b11 ~
1)
1C
#68000
0)
0C
#68500
b111001100100000110011010101100 =
b111001100100000110011010101100 #"
1{
b10010 }
b10001 8
b10001 !"
b100 ~
b111001100100000110011010101100 x
b111001100100000110011010101100 >
b10001 v
b10001 9
1)
1C
#69000
0)
0C
#69500
1@
0{
bx &"
bx <
bx P
bx s
b10010 |
1z
1A
b1 ~
1)
1C
#70000
0)
0C
#70500
0@
b10 ~
0z
0A
b111001100100000110011010101100 &"
b111001100100000110011010101100 <
b111001100100000110011010101100 P
b111001100100000110011010101100 s
1)
1C
#71000
0)
0C
#71500
b11010111110001111110000001100101 y
b10010 w
b11 ~
1)
1C
#72000
0)
0C
#72500
b11010111110001111110000001100101 =
b11010111110001111110000001100101 #"
1{
b10011 }
b10010 8
b10010 !"
b100 ~
b11010111110001111110000001100101 x
b11010111110001111110000001100101 >
b10010 v
b10010 9
1)
1C
#73000
0)
0C
#73500
1@
0{
bx &"
bx <
bx P
bx s
b10011 |
1z
1A
b1 ~
1)
1C
#74000
0)
0C
#74500
0@
b10 ~
0z
0A
b11010111110001111110000001100101 &"
b11010111110001111110000001100101 <
b11010111110001111110000001100101 P
b11010111110001111110000001100101 s
1)
1C
#75000
0)
0C
#75500
b1110101111111110101101000011110 y
b10011 w
b11 ~
1)
1C
#76000
0)
0C
#76500
b1110101111111110101101000011110 =
b1110101111111110101101000011110 #"
1{
b10100 }
b10011 8
b10011 !"
b100 ~
b1110101111111110101101000011110 x
b1110101111111110101101000011110 >
b10011 v
b10011 9
1)
1C
#77000
0)
0C
#77500
1@
0{
bx &"
bx <
bx P
bx s
b10100 |
1z
1A
b1 ~
1)
1C
#78000
0)
0C
#78500
0@
b10 ~
0z
0A
b1110101111111110101101000011110 &"
b1110101111111110101101000011110 <
b1110101111111110101101000011110 P
b1110101111111110101101000011110 s
1)
1C
#79000
0)
0C
#79500
b10100001101101101001111010111 y
b10100 w
b11 ~
1)
1C
#80000
0)
0C
#80500
b10100001101101101001111010111 =
b10100001101101101001111010111 #"
1{
b10101 }
b10100 8
b10100 !"
b100 ~
b10100001101101101001111010111 x
b10100001101101101001111010111 >
b10100 v
b10100 9
1)
1C
#81000
0)
0C
#81500
1@
0{
bx &"
bx <
bx P
bx s
b10101 |
1z
1A
b1 ~
1)
1C
#82000
0)
0C
#82500
0@
b10 ~
0z
0A
b10100001101101101001111010111 &"
b10100001101101101001111010111 <
b10100001101101101001111010111 P
b10100001101101101001111010111 s
1)
1C
#83000
0)
0C
#83500
b10110010011011100100110110010000 y
b10101 w
b11 ~
1)
1C
#84000
0)
0C
#84500
b10110010011011100100110110010000 =
b10110010011011100100110110010000 #"
1{
b10110 }
b10101 8
b10101 !"
b100 ~
b10110010011011100100110110010000 x
b10110010011011100100110110010000 >
b10101 v
b10101 9
1)
1C
#85000
0)
0C
#85500
1@
0{
bx &"
bx <
bx P
bx s
b10110 |
1z
1A
b1 ~
1)
1C
#86000
0)
0C
