proyectoLeon/codigo/version2/expander.vcd
$date
	Sun Nov  8 19:00:28 2015
$end
$version
	Icarus Verilog
$end
$timescale
	10ps
$end
$scope module barrelShifter16 $end
$var wire 16 ! iData [15:0] $end
$var wire 1 " iDir $end
$var wire 4 # iRotate [3:0] $end
$var reg 16 $ oData [15:0] $end
$upscope $end
$scope module barrelShifter64 $end
$var wire 64 % iData [63:0] $end
$var wire 1 & iDir $end
$var wire 6 ' iRotate [5:0] $end
$var reg 64 ( oData [63:0] $end
$upscope $end
$scope module testbench $end
$var reg 1 ) clk $end
$var integer 32 * i [31:0] $end
$var reg 128 + key [127:0] $end
$var reg 1 , rst $end
$scope module expander $end
$var wire 2 - L_address [1:0] $end
$var wire 32 . L_sub_i [31:0] $end
$var wire 32 / L_sub_i_prima [31:0] $end
$var wire 1 0 L_we $end
$var wire 5 1 S_address [4:0] $end
$var wire 32 2 S_sub_i [31:0] $end
$var wire 32 3 S_sub_i_prima [31:0] $end
$var wire 1 4 S_we $end
$var wire 1 5 clk $end
$var wire 1 6 keyExpanderDone $end
$var wire 4 7 key_address [3:0] $end
$var wire 8 8 key_sub_i [7:0] $end
$var wire 1 9 rst $end
$scope module expander $end
$var wire 1 5 clk $end
$var wire 8 : iKey_sub_i [7:0] $end
$var wire 32 ; iL_sub_i [31:0] $end
$var wire 32 < iS_sub_i [31:0] $end
$var wire 1 6 oKeyExpanderDone $end
$var wire 4 = oKey_address [3:0] $end
$var wire 2 > oL_address [1:0] $end
$var wire 32 ? oL_sub_i_prima [31:0] $end
$var wire 1 0 oL_we $end
$var wire 5 @ oS_address [4:0] $end
$var wire 32 A oS_sub_i_prima [31:0] $end
$var wire 1 4 oS_we $end
$var wire 1 9 rst $end
$var wire 1 B start1 $end
$var wire 1 C start2 $end
$var wire 2 D wL_address1 [1:0] $end
$var wire 2 E wL_address2 [1:0] $end
$var wire 1 F wL_done $end
$var wire 32 G wL_sub_i_prima1 [31:0] $end
$var wire 32 H wL_sub_i_prima2 [31:0] $end
$var wire 1 I wL_we1 $end
$var wire 1 J wL_we2 $end
$var wire 5 K wS_address1 [4:0] $end
$var wire 5 L wS_address2 [4:0] $end
$var wire 1 M wS_done $end
$var wire 32 N wS_sub_i_prima1 [31:0] $end
$var wire 32 O wS_sub_i_prima2 [31:0] $end
$var wire 1 P wS_we1 $end
$var wire 1 Q wS_we2 $end
$var wire 1 R wStart $end
$scope module ff1 $end
$var wire 1 5 Clock $end
$var wire 1 B D $end
$var wire 1 S Enable $end
$var wire 1 9 Reset $end
$var reg 1 T Q $end
$upscope $end
$scope module ff2 $end
$var wire 1 5 Clock $end
$var wire 1 C D $end
$var wire 1 U Enable $end
$var wire 1 9 Reset $end
$var reg 1 V Q $end
$upscope $end
$scope module mixer $end
$var wire 1 5 clk $end
$var wire 32 W iL_sub_i [31:0] $end
$var wire 32 X iS_sub_i [31:0] $end
$var wire 1 R iStart $end
$var wire 1 9 rst $end
$var wire 32 Y wS_rotate [31:0] $end
$var reg 32 Z A [31:0] $end
$var reg 32 [ A_nxt [31:0] $end
$var reg 32 \ B [31:0] $end
$var reg 32 ] B_nxt [31:0] $end
$var reg 5 ^ i [4:0] $end
$var reg 5 _ i_nxt [4:0] $end
$var reg 2 ` j [1:0] $end
$var reg 2 a j_nxt [1:0] $end
$var reg 1 b oDone $end
$var reg 1 c oDone_nxt $end
$var reg 2 d oL_address [1:0] $end
$var reg 2 e oL_address_nxt [1:0] $end
$var reg 32 f oL_sub_i_prima [31:0] $end
$var reg 32 g oL_sub_i_prima_nxt [31:0] $end
$var reg 1 h oL_we $end
$var reg 1 i oL_we_nxt $end
$var reg 5 j oS_address [4:0] $end
$var reg 5 k oS_address_nxt [4:0] $end
$var reg 32 l oS_sub_i_prima [31:0] $end
$var reg 32 m oS_sub_i_prima_nxt [31:0] $end
$var reg 1 n oS_we $end
$var reg 1 o oS_we_nxt $end
$var reg 7 p rCount [6:0] $end
$var reg 7 q rCount_nxt [6:0] $end
$var reg 5 r rRot_L [4:0] $end
$var reg 5 s rRot_L_nxt [4:0] $end
$var reg 32 t rSumTemp [31:0] $end
$var reg 32 u rSumTemp_nxt [31:0] $end
$var reg 3 v state [2:0] $end
$scope module barrel $end
$var wire 32 w iData [31:0] $end
$var wire 1 x iDir $end
$var wire 5 y iRotate [4:0] $end
$var reg 32 z oData [31:0] $end
$upscope $end
$upscope $end
$scope module S $end
$var wire 1 5 clk $end
$var wire 32 { iS_sub_i [31:0] $end
$var wire 1 9 rst $end
$var reg 1 | oDone $end
$var reg 1 } oDone_nxt $end
$var reg 5 ~ oS_address [4:0] $end
$var reg 5 !" oS_address_nxt [4:0] $end
$var reg 32 "" oS_sub_i_prima [31:0] $end
$var reg 32 #" oS_sub_i_prima_nxt [31:0] $end
$var reg 1 $" oS_we $end
$var reg 1 %" oS_we_nxt $end
$var reg 5 &" rCount [4:0] $end
$var reg 5 '" rCount_nxt [4:0] $end
$var reg 3 (" state [2:0] $end
$upscope $end
$scope module L $end
$var wire 32 )" L_sub_i [31:0] $end
$var wire 1 5 clk $end
$var wire 8 *" key_sub_i [7:0] $end
$var wire 1 9 rst $end
$var reg 2 +" L_address [1:0] $end
$var reg 2 ," L_address_nxt [1:0] $end
$var reg 32 -" L_sub_i_prima [31:0] $end
$var reg 32 ." L_sub_i_prima_nxt [31:0] $end
$var reg 1 /" L_we $end
$var reg 1 0" L_we_nxt $end
$var reg 4 1" count [3:0] $end
$var reg 4 2" count_nxt [3:0] $end
$var reg 1 3" done $end
$var reg 1 4" done_nxt $end
$var reg 4 5" key_address [3:0] $end
$var reg 4 6" key_address_nxt [3:0] $end
$var reg 3 7" state [2:0] $end
$upscope $end
$upscope $end
$scope module S_RAM $end
$var wire 5 8" addr_a [4:0] $end
$var wire 5 9" addr_b [4:0] $end
$var wire 1 5 clk $end
$var wire 32 :" data_a [31:0] $end
$var wire 32 ;" data_b [31:0] $end
$var wire 1 4 we_a $end
$var wire 1 <" we_b $end
$var reg 32 =" q_a [31:0] $end
$var reg 32 >" q_b [31:0] $end
$upscope $end
$scope module key_RAM $end
$var wire 4 ?" addr_a [3:0] $end
$var wire 4 @" addr_b [3:0] $end
$var wire 1 5 clk $end
$var wire 8 A" data_a [7:0] $end
$var wire 8 B" data_b [7:0] $end
$var wire 1 C" we_a $end
$var wire 1 D" we_b $end
$var reg 8 E" q_a [7:0] $end
$var reg 8 F" q_b [7:0] $end
$upscope $end
$scope module L_RAM $end
$var wire 2 G" addr_a [1:0] $end
$var wire 2 H" addr_b [1:0] $end
$var wire 1 5 clk $end
$var wire 32 I" data_a [31:0] $end
$var wire 32 J" data_b [31:0] $end
$var wire 1 0 we_a $end
$var wire 1 K" we_b $end
$var reg 32 L" q_a [31:0] $end
$var reg 32 M" q_b [31:0] $end
$upscope $end
$upscope $end
$upscope $end
$enddefinitions $end
#0
$dumpvars
bx M"
bx L"
0K"
b0 J"
bx I"
b0 H"
bx G"
bx F"
bx E"
0D"
0C"
b0 B"
b0 A"
b0 @"
bx ?"
bx >"
bx ="
0<"
b0 ;"
bx :"
b0 9"
bx 8"
bx 7"
bx 6"
bx 5"
x4"
x3"
bx 2"
bx 1"
x0"
x/"
bx ."
bx -"
bx ,"
bx +"
bx *"
bx )"
bx ("
bx '"
bx &"
x%"
x$"
bx #"
bx ""
bx !"
bx ~
x}
x|
bx {
bx z
bx y
0x
bx w
bx v
bx u
bx t
bx s
bx r
bx q
bx p
xo
xn
bx m
bx l
bx k
bx j
xi
xh
bx g
bx f
bx e
bx d
xc
xb
bx a
bx `
bx _
bx ^
bx ]
bx \
bx [
bx Z
bx Y
bx X
bx W
xV
1U
xT
1S
xR
xQ
xP
bx O
bx N
xM
bx L
bx K
xJ
xI
bx H
bx G
xF
bx E
bx D
xC
xB
bx A
bx @
bx ?
bx >
bx =
bx <
bx ;
bx :
09
bx 8
bx 7
x6
05
x4
bx 3
bx 2
bx 1
x0
bx /
bx .
bx -
0,
b11111111111111101110111011100101100001101000010011111111111100000101111111111110010010010011100001010011000000000000010000110100 +
b10000 *
0)
bx (
bz '
z&
bz %
bx $
bz #
z"
bz !
$end
#200
1,
19
#500
b0 z
b0 Y
00
b0 /
b0 ?
b0 I"
b0 -
b0 >
b0 G"
0o
0i
b0 g
b0 m
0c
b0 s
b0 u
b0 ]
b0 [
b0 a
b0 _
b0 e
b0 k
b1111111 q
b0 3
b0 A
b0 :"
04
b1 '"
b0 #"
0%"
0}
b1 !"
b0 1
b0 @
b0 8"
0T
0C
0V
0R
0n
0Q
0h
0J
b0 f
b0 H
b0 l
b0 O
b0 w
0b
06
b0 r
b0 y
b0 t
b0 \
b0 Z
b0 `
b0 ^
b0 d
b0 E
b0 j
b0 L
b1111111 p
b1 &"
b0 ""
b0 N
0$"
0P
0|
0M
b0 ~
b0 K
b10110111111000010101000101100011 >"
b110100 F"
b0 M"
0B
b0 ."
b0 ,"
b0 6"
00"
04"
b1111 2"
b0 v
b0 ("
b0 7"
b0 -"
b0 G
b0 +"
b0 D
b0 5"
b0 7
b0 =
b0 ?"
0/"
0I
03"
0F
b1111 1"
1)
15
#600
0,
09
#1000
0)
05
#1500
b11 ,"
b1111 6"
b1 1
b1 @
b1 8"
b0 !"
b0 L"
b0 .
b0 ;
b0 W
b0 )"
b110100 E"
b110100 8
b110100 :
b110100 *"
b10110111111000010101000101100011 ="
b10110111111000010101000101100011 2
b10110111111000010101000101100011 <
b10110111111000010101000101100011 X
b10110111111000010101000101100011 {
b1 7"
b1 ~
b1 K
b1 ("
1)
15
#2000
0)
05
#2500
b0 1
b0 @
b0 8"
b10 ("
b0 ~
b0 K
b10 7"
bx ="
bx 2
bx <
bx X
bx {
b11 -
b11 >
b11 G"
b11 +"
b11 D
b1111 5"
b1111 7
b1111 =
b1111 ?"
1)
15
#3000
0)
05
#3500
b11111111 ."
b1101111110000101010001011000110 #"
b1 !"
b11111111 E"
b11111111 8
b11111111 :
b11111111 *"
b10110111111000010101000101100011 ="
b10110111111000010101000101100011 2
b10110111111000010101000101100011 <
b10110111111000010101000101100011 X
b10110111111000010101000101100011 {
b11 7"
b11 ("
1)
15
#4000
0)
05
#4500
b1101111110000101010001011000110 3
b1101111110000101010001011000110 A
b1101111110000101010001011000110 :"
1%"
b10 '"
b1 1
b1 @
b1 8"
10"
b1110 2"
b100 ("
b1101111110000101010001011000110 ""
b1101111110000101010001011000110 N
b1 ~
b1 K
b100 7"
b11111111 /
b11111111 ?
b11111111 I"
b11111111 -"
b11111111 G
1)
15
#5000
0)
05
#5500
00"
b1110 6"
14
0%"
bx ="
bx 2
bx <
bx X
bx {
b1 7"
b10 &"
1$"
1P
b1 ("
10
b1110 2"
1/"
1I
b1110 1"
1)
15
#6000
0)
05
#6500
04
b10 ("
0$"
0P
b10 7"
b1101111110000101010001011000110 ="
b1101111110000101010001011000110 2
b1101111110000101010001011000110 <
b1101111110000101010001011000110 X
b1101111110000101010001011000110 {
b11111111 L"
b11111111 .
b11111111 ;
b11111111 W
b11111111 )"
00
b1110 5"
b1110 7
b1110 =
b1110 ?"
0/"
0I
1)
15
#7000
0)
05
#7500
b1111111111111110 ."
b100111101000111111010000101001 #"
b10 !"
b11111110 E"
b11111110 8
b11111110 :
b11111110 *"
b11 7"
b11 ("
1)
15
#8000
0)
05
#8500
b100111101000111111010000101001 3
b100111101000111111010000101001 A
b100111101000111111010000101001 :"
1%"
b11 '"
b10 1
b10 @
b10 8"
10"
b1101 2"
b100 ("
b100111101000111111010000101001 ""
b100111101000111111010000101001 N
b10 ~
b10 K
b100 7"
b1111111111111110 /
b1111111111111110 ?
b1111111111111110 I"
b1111111111111110 -"
b1111111111111110 G
1)
15
#9000
0)
05
#9500
00"
b1101 6"
14
0%"
bx ="
bx 2
bx <
bx X
bx {
b1 7"
b11 &"
1$"
1P
b1 ("
10
b1101 2"
1/"
1I
b1101 1"
1)
15
#10000
0)
05
#10500
04
b10 ("
0$"
0P
b10 7"
b100111101000111111010000101001 ="
b100111101000111111010000101001 2
b100111101000111111010000101001 <
b100111101000111111010000101001 X
b100111101000111111010000101001 {
b1111111111111110 L"
b1111111111111110 .
b1111111111111110 ;
b1111111111111110 W
b1111111111111110 )"
00
b1101 5"
b1101 7
b1101 =
b1101 ?"
0/"
0I
1)
15
#11000
0)
05
#11500
b111111111111111011101110 ."
b11011111100001010100010110001100 #"
b11 !"
b11101110 E"
b11101110 8
b11101110 :
b11101110 *"
b11 7"
b11 ("
1)
15
#12000
0)
05
#12500
b11011111100001010100010110001100 3
b11011111100001010100010110001100 A
b11011111100001010100010110001100 :"
1%"
b100 '"
b11 1
b11 @
b11 8"
10"
b1100 2"
b100 ("
b11011111100001010100010110001100 ""
b11011111100001010100010110001100 N
b11 ~
b11 K
b100 7"
b111111111111111011101110 /
b111111111111111011101110 ?
b111111111111111011101110 I"
b111111111111111011101110 -"
b111111111111111011101110 G
1)
15
#13000
0)
05
#13500
00"
b1100 6"
14
0%"
bx ="
bx 2
bx <
bx X
bx {
b1 7"
b100 &"
1$"
1P
b1 ("
10
b1100 2"
1/"
1I
b1100 1"
1)
15
#14000
0)
05
#14500
04
b10 ("
0$"
0P
b10 7"
b11011111100001010100010110001100 ="
b11011111100001010100010110001100 2
b11011111100001010100010110001100 <
b11011111100001010100010110001100 X
b11011111100001010100010110001100 {
b111111111111111011101110 L"
b111111111111111011101110 .
b111111111111111011101110 ;
b111111111111111011101110 W
b111111111111111011101110 )"
00
b1100 5"
b1100 7
b1100 =
b1100 ?"
0/"
0I
1)
15
#15000
0)
05
#15500
b11111111111111101110111011100101 ."
b10010111011001101001011011101111 #"
b100 !"
b11100101 E"
b11100101 8
b11100101 :
b11100101 *"
b11 7"
b11 ("
1)
15
#16000
0)
05
#16500
b10010111011001101001011011101111 3
b10010111011001101001011011101111 A
b10010111011001101001011011101111 :"
1%"
b101 '"
b100 1
b100 @
b100 8"
10"
b1011 2"
b100 ("
b10010111011001101001011011101111 ""
b10010111011001101001011011101111 N
b100 ~
b100 K
b100 7"
b11111111111111101110111011100101 /
b11111111111111101110111011100101 ?
b11111111111111101110111011100101 I"
b11111111111111101110111011100101 -"
b11111111111111101110111011100101 G
1)
15
#17000
0)
05
#17500
00"
b10 ,"
b1011 6"
14
0%"
bx ="
bx 2
bx <
bx X
bx {
b1 7"
b101 &"
1$"
1P
b1 ("
10
b1011 2"
1/"
1I
b1011 1"
1)
15
#18000
0)
05
#18500
04
b10 ("
0$"
0P
b10 7"
b10010111011001101001011011101111 ="
b10010111011001101001011011101111 2
b10010111011001101001011011101111 <
b10010111011001101001011011101111 X
b10010111011001101001011011101111 {
b11111111111111101110111011100101 L"
b11111111111111101110111011100101 .
b11111111111111101110111011100101 ;
b11111111111111101110111011100101 W
b11111111111111101110111011100101 )"
b10 -
b10 >
b10 G"
00
b10 +"
b10 D
b1011 5"
b1011 7
b1011 =
b1011 ?"
0/"
0I
1)
15
#19000
0)
05
#19500
b10000110 ."
b1001111010001111110100001010010 #"
b101 !"
b0 L"
b0 .
b0 ;
b0 W
b0 )"
b10000110 E"
b10000110 8
b10000110 :
b10000110 *"
b11 7"
b11 ("
1)
15
#20000
0)
05
#20500
b1001111010001111110100001010010 3
b1001111010001111110100001010010 A
b1001111010001111110100001010010 :"
1%"
b110 '"
b101 1
b101 @
b101 8"
10"
b1010 2"
b100 ("
b1001111010001111110100001010010 ""
b1001111010001111110100001010010 N
b101 ~
b101 K
b100 7"
b10000110 /
b10000110 ?
b10000110 I"
b10000110 -"
b10000110 G
1)
15
#21000
0)
05
#21500
00"
b1010 6"
14
0%"
bx ="
bx 2
bx <
bx X
bx {
b1 7"
b110 &"
1$"
1P
b1 ("
10
b1010 2"
1/"
1I
b1010 1"
1)
15
#22000
0)
05
#22500
04
b10 ("
0$"
0P
b10 7"
b1001111010001111110100001010010 ="
b1001111010001111110100001010010 2
b1001111010001111110100001010010 <
b1001111010001111110100001010010 X
b1001111010001111110100001010010 {
b10000110 L"
b10000110 .
b10000110 ;
b10000110 W
b10000110 )"
00
b1010 5"
b1010 7
b1010 =
b1010 ?"
0/"
0I
1)
15
#23000
0)
05
#23500
b1000011010000100 ."
b111001010010011100110110101 #"
b110 !"
b10000100 E"
b10000100 8
b10000100 :
b10000100 *"
b11 7"
b11 ("
1)
15
#24000
0)
05
#24500
b111001010010011100110110101 3
b111001010010011100110110101 A
b111001010010011100110110101 :"
1%"
b111 '"
b110 1
b110 @
b110 8"
10"
b1001 2"
b100 ("
b111001010010011100110110101 ""
b111001010010011100110110101 N
b110 ~
b110 K
b100 7"
b1000011010000100 /
b1000011010000100 ?
b1000011010000100 I"
b1000011010000100 -"
b1000011010000100 G
1)
15
#25000
0)
05
#25500
00"
b1001 6"
14
0%"
bx ="
bx 2
bx <
bx X
bx {
b1 7"
b111 &"
1$"
1P
b1 ("
10
b1001 2"
1/"
1I
b1001 1"
1)
15
#26000
0)
05
#26500
04
b10 ("
0$"
0P
b10 7"
b111001010010011100110110101 ="
b111001010010011100110110101 2
b111001010010011100110110101 <
b111001010010011100110110101 X
b111001010010011100110110101 {
b1000011010000100 L"
b1000011010000100 .
b1000011010000100 ;
b1000011010000100 W
b1000011010000100 )"
00
b1001 5"
b1001 7
b1001 =
b1001 ?"
0/"
0I
1)
15
#27000
0)
05
#27500
b100001101000010011111111 ."
b10111111000010101000101100011000 #"
b111 !"
b11111111 E"
b11111111 8
b11111111 :
b11111111 *"
b11 7"
b11 ("
1)
15
#28000
0)
05
#28500
b10111111000010101000101100011000 3
b10111111000010101000101100011000 A
b10111111000010101000101100011000 :"
1%"
b1000 '"
b111 1
b111 @
b111 8"
10"
b1000 2"
b100 ("
b10111111000010101000101100011000 ""
b10111111000010101000101100011000 N
b111 ~
b111 K
b100 7"
b100001101000010011111111 /
b100001101000010011111111 ?
b100001101000010011111111 I"
b100001101000010011111111 -"
b100001101000010011111111 G
1)
15
#29000
0)
05
#29500
00"
b1000 6"
14
0%"
bx ="
bx 2
bx <
bx X
bx {
b1 7"
b1000 &"
1$"
1P
b1 ("
10
b1000 2"
1/"
1I
b1000 1"
1)
15
#30000
0)
05
#30500
04
b10 ("
0$"
0P
b10 7"
b10111111000010101000101100011000 ="
b10111111000010101000101100011000 2
b10111111000010101000101100011000 <
b10111111000010101000101100011000 X
b10111111000010101000101100011000 {
b100001101000010011111111 L"
b100001101000010011111111 .
b100001101000010011111111 ;
b100001101000010011111111 W
b100001101000010011111111 )"
00
b1000 5"
b1000 7
b1000 =
b1000 ?"
0/"
0I
1)
15
#31000
0)
05
#31500
b10000110100001001111111111110000 ."
b1110110111010111101110001111011 #"
b1000 !"
b11110000 E"
b11110000 8
b11110000 :
b11110000 *"
b11 7"
b11 ("
1)
15
#32000
0)
05
#32500
b1110110111010111101110001111011 3
b1110110111010111101110001111011 A
b1110110111010111101110001111011 :"
1%"
b1001 '"
b1000 1
b1000 @
b1000 8"
10"
b111 2"
b100 ("
b1110110111010111101110001111011 ""
b1110110111010111101110001111011 N
b1000 ~
b1000 K
b100 7"
b10000110100001001111111111110000 /
b10000110100001001111111111110000 ?
b10000110100001001111111111110000 I"
b10000110100001001111111111110000 -"
b10000110100001001111111111110000 G
1)
15
#33000
0)
05
#33500
00"
b1 ,"
b111 6"
14
0%"
bx ="
bx 2
bx <
bx X
bx {
b1 7"
b1001 &"
1$"
1P
b1 ("
10
b111 2"
1/"
1I
b111 1"
1)
15
#34000
0)
05
#34500
04
b10 ("
0$"
0P
b10 7"
b1110110111010111101110001111011 ="
b1110110111010111101110001111011 2
b1110110111010111101110001111011 <
b1110110111010111101110001111011 X
b1110110111010111101110001111011 {
b10000110100001001111111111110000 L"
b10000110100001001111111111110000 .
b10000110100001001111111111110000 ;
b10000110100001001111111111110000 W
b10000110100001001111111111110000 )"
b1 -
b1 >
b1 G"
00
b1 +"
b1 D
b111 5"
b111 7
b111 =
b111 ?"
0/"
0I
1)
15
#35000
0)
05
#35500
b1011111 ."
b101110110011010010110111011110 #"
b1001 !"
b0 L"
b0 .
b0 ;
b0 W
b0 )"
b1011111 E"
b1011111 8
b1011111 :
b1011111 *"
b11 7"
b11 ("
1)
15
#36000
0)
05
#36500
b101110110011010010110111011110 3
b101110110011010010110111011110 A
b101110110011010010110111011110 :"
1%"
b1010 '"
b1001 1
b1001 @
b1001 8"
10"
b110 2"
b100 ("
b101110110011010010110111011110 ""
b101110110011010010110111011110 N
b1001 ~
b1001 K
b100 7"
b1011111 /
b1011111 ?
b1011111 I"
b1011111 -"
b1011111 G
1)
15
#37000
0)
05
#37500
00"
b110 6"
14
0%"
bx ="
bx 2
bx <
bx X
bx {
b1 7"
b1010 &"
1$"
1P
b1 ("
10
b110 2"
1/"
1I
b110 1"
1)
15
#38000
0)
05
#38500
04
b10 ("
0$"
0P
b10 7"
b101110110011010010110111011110 ="
b101110110011010010110111011110 2
b101110110011010010110111011110 <
b101110110011010010110111011110 X
b101110110011010010110111011110 {
b1011111 L"
b1011111 .
b1011111 ;
b1011111 W
b1011111 )"
00
b110 5"
b110 7
b110 =
b110 ?"
0/"
0I
1)
15
#39000
0)
05
#39500
b101111111111110 ."
b11100110101011100111111101000001 #"
b1010 !"
b11111110 E"
b11111110 8
b11111110 :
b11111110 *"
b11 7"
b11 ("
1)
15
#40000
0)
05
#40500
b11100110101011100111111101000001 3
b11100110101011100111111101000001 A
b11100110101011100111111101000001 :"
1%"
b1011 '"
b1010 1
b1010 @
b1010 8"
10"
b101 2"
b100 ("
b11100110101011100111111101000001 ""
b11100110101011100111111101000001 N
b1010 ~
b1010 K
b100 7"
b101111111111110 /
b101111111111110 ?
b101111111111110 I"
b101111111111110 -"
b101111111111110 G
1)
15
#41000
0)
05
#41500
00"
b101 6"
14
0%"
bx ="
bx 2
bx <
bx X
bx {
b1 7"
b1011 &"
1$"
1P
b1 ("
10
b101 2"
1/"
1I
b101 1"
1)
15
#42000
0)
05
#42500
04
b10 ("
0$"
0P
b10 7"
b11100110101011100111111101000001 ="
b11100110101011100111111101000001 2
b11100110101011100111111101000001 <
b11100110101011100111111101000001 X
b11100110101011100111111101000001 {
b101111111111110 L"
b101111111111110 .
b101111111111110 ;
b101111111111110 W
b101111111111110 )"
00
b101 5"
b101 7
b101 =
b101 ?"
0/"
0I
1)
15
#43000
0)
05
#43500
b10111111111111001001001 ."
b10011110100011111101000010100100 #"
b1011 !"
b1001001 E"
b1001001 8
b1001001 :
b1001001 *"
b11 7"
b11 ("
1)
15
#44000
0)
05
#44500
b10011110100011111101000010100100 3
b10011110100011111101000010100100 A
b10011110100011111101000010100100 :"
1%"
b1100 '"
b1011 1
b1011 @
b1011 8"
10"
b100 2"
b100 ("
b10011110100011111101000010100100 ""
b10011110100011111101000010100100 N
b1011 ~
b1011 K
b100 7"
b10111111111111001001001 /
b10111111111111001001001 ?
b10111111111111001001001 I"
b10111111111111001001001 -"
b10111111111111001001001 G
1)
15
#45000
0)
05
#45500
00"
b100 6"
14
0%"
bx ="
bx 2
bx <
bx X
bx {
b1 7"
b1100 &"
1$"
1P
b1 ("
10
b100 2"
1/"
1I
b100 1"
1)
15
#46000
0)
05
#46500
04
b10 ("
0$"
0P
b10 7"
b10011110100011111101000010100100 ="
b10011110100011111101000010100100 2
b10011110100011111101000010100100 <
b10011110100011111101000010100100 X
b10011110100011111101000010100100 {
b10111111111111001001001 L"
b10111111111111001001001 .
b10111111111111001001001 ;
b10111111111111001001001 W
b10111111111111001001001 )"
00
b100 5"
b100 7
b100 =
b100 ?"
0/"
0I
1)
15
#47000
0)
05
#47500
b1011111111111100100100100111000 ."
b1010110011100010010001000000111 #"
b1100 !"
b111000 E"
b111000 8
b111000 :
b111000 *"
b11 7"
b11 ("
1)
15
#48000
0)
05
#48500
b1010110011100010010001000000111 3
b1010110011100010010001000000111 A
b1010110011100010010001000000111 :"
1%"
b1101 '"
b1100 1
b1100 @
b1100 8"
10"
b11 2"
b100 ("
b1010110011100010010001000000111 ""
b1010110011100010010001000000111 N
b1100 ~
b1100 K
b100 7"
b1011111111111100100100100111000 /
b1011111111111100100100100111000 ?
b1011111111111100100100100111000 I"
b1011111111111100100100100111000 -"
b1011111111111100100100100111000 G
1)
15
#49000
0)
05
#49500
00"
b0 ,"
b11 6"
14
0%"
bx ="
bx 2
bx <
bx X
bx {
b1 7"
b1101 &"
1$"
1P
b1 ("
10
b11 2"
1/"
1I
b11 1"
1)
15
#50000
0)
05
#50500
04
b10 ("
0$"
0P
b10 7"
b1010110011100010010001000000111 ="
b1010110011100010010001000000111 2
b1010110011100010010001000000111 <
b1010110011100010010001000000111 X
b1010110011100010010001000000111 {
b1011111111111100100100100111000 L"
b1011111111111100100100100111000 .
b1011111111111100100100100111000 ;
b1011111111111100100100100111000 W
b1011111111111100100100100111000 )"
b0 -
b0 >
b0 G"
00
b0 +"
b0 D
b11 5"
b11 7
b11 =
b11 ?"
0/"
0I
1)
15
#51000
0)
05
#51500
b1010011 ."
b1110010100100111001101101010 #"
b1101 !"
b0 L"
b0 .
b0 ;
b0 W
b0 )"
b1010011 E"
b1010011 8
b1010011 :
b1010011 *"
b11 7"
b11 ("
1)
15
#52000
0)
05
#52500
b1110010100100111001101101010 3
b1110010100100111001101101010 A
b1110010100100111001101101010 :"
1%"
b1110 '"
b1101 1
b1101 @
b1101 8"
10"
b10 2"
b100 ("
b1110010100100111001101101010 ""
b1110010100100111001101101010 N
b1101 ~
b1101 K
b100 7"
b1010011 /
b1010011 ?
b1010011 I"
b1010011 -"
b1010011 G
1)
15
#53000
0)
05
#53500
00"
b10 6"
14
0%"
bx ="
bx 2
bx <
bx X
bx {
b1 7"
b1110 &"
1$"
1P
b1 ("
10
b10 2"
1/"
1I
b10 1"
1)
15
#54000
0)
05
#54500
04
b10 ("
0$"
0P
b10 7"
b1110010100100111001101101010 ="
b1110010100100111001101101010 2
b1110010100100111001101101010 <
b1110010100100111001101101010 X
b1110010100100111001101101010 {
b1010011 L"
b1010011 .
b1010011 ;
b1010011 W
b1010011 )"
00
b10 5"
b10 7
b10 =
b10 ?"
0/"
0I
1)
15
#55000
0)
05
#55500
b101001100000000 ."
b11000110001100111100010011001101 #"
b1110 !"
b1010011 M"
b0 E"
b0 8
b0 :
b0 *"
b11 7"
b11 ("
1)
15
#56000
0)
05
#56500
b11000110001100111100010011001101 3
b11000110001100111100010011001101 A
b11000110001100111100010011001101 :"
1%"
b1111 '"
b1110 1
b1110 @
b1110 8"
10"
b1 2"
b100 ("
b11000110001100111100010011001101 ""
b11000110001100111100010011001101 N
b1110 ~
b1110 K
b100 7"
b101001100000000 /
b101001100000000 ?
b101001100000000 I"
b101001100000000 -"
b101001100000000 G
1)
15
#57000
0)
05
#57500
00"
b1 6"
14
0%"
bx ="
bx 2
bx <
bx X
bx {
b1 7"
b1111 &"
1$"
1P
b1 ("
10
b1 2"
1/"
1I
b1 1"
1)
15
#58000
0)
05
#58500
04
b10 ("
0$"
0P
b10 7"
b11000110001100111100010011001101 ="
b11000110001100111100010011001101 2
b11000110001100111100010011001101 <
b11000110001100111100010011001101 X
b11000110001100111100010011001101 {
b101001100000000 L"
b101001100000000 .
b101001100000000 ;
b101001100000000 W
b101001100000000 )"
00
b1 5"
b1 7
b1 =
b1 ?"
0/"
0I
1)
15
#59000
0)
05
#59500
b10100110000000000000100 ."
b1111110000101010001011000110000 #"
b1111 !"
b101001100000000 M"
b100 E"
b100 8
b100 :
b100 *"
b11 7"
b11 ("
1)
15
#60000
0)
05
#60500
b1111110000101010001011000110000 3
b1111110000101010001011000110000 A
b1111110000101010001011000110000 :"
1%"
b10000 '"
b1111 1
b1111 @
b1111 8"
10"
b0 2"
b100 ("
b1111110000101010001011000110000 ""
b1111110000101010001011000110000 N
b1111 ~
b1111 K
b100 7"
b10100110000000000000100 /
b10100110000000000000100 ?
b10100110000000000000100 I"
b10100110000000000000100 -"
b10100110000000000000100 G
1)
15
#61000
0)
05
#61500
00"
b0 6"
14
0%"
bx ="
bx 2
bx <
bx X
bx {
b1 7"
b10000 &"
1$"
1P
b1 ("
10
04"
b0 2"
1/"
1I
b0 1"
1)
15
#62000
0)
05
#62500
04
b10 ("
0$"
0P
b10 7"
b1111110000101010001011000110000 ="
b1111110000101010001011000110000 2
b1111110000101010001011000110000 <
b1111110000101010001011000110000 X
b1111110000101010001011000110000 {
b10100110000000000000100 L"
b10100110000000000000100 .
b10100110000000000000100 ;
b10100110000000000000100 W
b10100110000000000000100 )"
00
b0 5"
b0 7
b0 =
b0 ?"
0/"
0I
1)
15
#63000
0)
05
#63500
b1010011000000000000010000110100 ."
b110101111101100110011110010011 #"
b10000 !"
b10100110000000000000100 M"
b110100 E"
b110100 8
b110100 :
b110100 *"
b11 7"
b11 ("
1)
15
#64000
0)
05
#64500
b110101111101100110011110010011 3
b110101111101100110011110010011 A
b110101111101100110011110010011 :"
1%"
b10001 '"
b10000 1
b10000 @
b10000 8"
14"
10"
b1111 2"
b100 ("
b110101111101100110011110010011 ""
b110101111101100110011110010011 N
b10000 ~
b10000 K
b100 7"
b1010011000000000000010000110100 /
b1010011000000000000010000110100 ?
b1010011000000000000010000110100 I"
b1010011000000000000010000110100 -"
b1010011000000000000010000110100 G
1)
15
#65000
0)
05
#65500
00"
b11 ,"
b1111 6"
14
0%"
bx ="
bx 2
bx <
bx X
bx {
b1 7"
b10001 &"
1$"
1P
b1 ("
10
b1111 2"
1/"
1I
13"
1F
b1111 1"
1)
15
#66000
0)
05
