proyectoLeon/codigo/version2/expander.vcd
$date
	Sun Nov  1 01:47:27 2015
$end
$version
	Icarus Verilog
$end
$timescale
	10ps
$end
$scope module barrelShifter16 $end
$var wire 16 ! iData [15:0] $end
$var wire 1 " iDir $end
$var wire 4 # iRotate [3:0] $end
$var reg 16 $ oData [15:0] $end
$upscope $end
$scope module barrelShifter64 $end
$var wire 64 % iData [63:0] $end
$var wire 1 & iDir $end
$var wire 6 ' iRotate [5:0] $end
$var reg 64 ( oData [63:0] $end
$upscope $end
$scope module testbench $end
$var reg 1 ) clk $end
$var integer 32 * i [31:0] $end
$var reg 128 + key [127:0] $end
$var reg 1 , rst $end
$scope module expander $end
$var wire 2 - L_address [1:0] $end
$var wire 2 . L_address1 [1:0] $end
$var wire 2 / L_address2 [1:0] $end
$var wire 1 0 L_done $end
$var wire 32 1 L_sub_i [31:0] $end
$var wire 32 2 L_sub_i_prima [31:0] $end
$var wire 32 3 L_sub_i_prima1 [31:0] $end
$var wire 32 4 L_sub_i_prima2 [31:0] $end
$var wire 1 5 L_we $end
$var wire 1 6 L_we1 $end
$var wire 1 7 L_we2 $end
$var wire 5 8 S_address [4:0] $end
$var wire 5 9 S_address1 [4:0] $end
$var wire 5 : S_address2 [4:0] $end
$var wire 1 ; S_done $end
$var wire 32 < S_sub_i [31:0] $end
$var wire 32 = S_sub_i_prima [31:0] $end
$var wire 32 > S_sub_i_prima1 [31:0] $end
$var wire 32 ? S_sub_i_prima2 [31:0] $end
$var wire 1 @ S_we $end
$var wire 1 A S_we1 $end
$var wire 1 B S_we2 $end
$var wire 1 C clk $end
$var wire 1 D keyExpanderDone $end
$var wire 4 E key_address [3:0] $end
$var wire 8 F key_sub_i [7:0] $end
$var wire 1 G rst $end
$var wire 1 H start $end
$var wire 1 I start1 $end
$var wire 1 J start2 $end
$scope module ff1 $end
$var wire 1 C Clock $end
$var wire 1 I D $end
$var wire 1 K Enable $end
$var wire 1 G Reset $end
$var reg 1 L Q $end
$upscope $end
$scope module ff2 $end
$var wire 1 C Clock $end
$var wire 1 J D $end
$var wire 1 M Enable $end
$var wire 1 G Reset $end
$var reg 1 N Q $end
$upscope $end
$scope module mixer $end
$var wire 1 C clk $end
$var wire 32 O iL_sub_i [31:0] $end
$var wire 32 P iS_sub_i [31:0] $end
$var wire 1 H iStart $end
$var wire 1 G rst $end
$var wire 32 Q wS_rotate [31:0] $end
$var reg 32 R A [31:0] $end
$var reg 32 S B [31:0] $end
$var reg 5 T i [4:0] $end
$var reg 2 U j [1:0] $end
$var reg 1 V oDone $end
$var reg 2 W oL_address [1:0] $end
$var reg 32 X oL_sub_i_prima [31:0] $end
$var reg 1 Y oL_we $end
$var reg 5 Z oS_address [4:0] $end
$var reg 32 [ oS_sub_i_prima [31:0] $end
$var reg 1 \ oS_we $end
$var reg 7 ] rCount [6:0] $end
$var reg 5 ^ rRot_L [4:0] $end
$var reg 32 _ rSumTemp [31:0] $end
$var reg 3 ` state [2:0] $end
$scope module barrel $end
$var wire 32 a iData [31:0] $end
$var wire 1 b iDir $end
$var wire 5 c iRotate [4:0] $end
$var reg 32 d oData [31:0] $end
$upscope $end
$upscope $end
$scope module S $end
$var wire 1 C clk $end
$var wire 32 e iS_sub_i [31:0] $end
$var wire 1 G rst $end
$var reg 1 f oDone $end
$var reg 5 g oS_address [4:0] $end
$var reg 32 h oS_sub_i_prima [31:0] $end
$var reg 1 i oS_we $end
$var reg 5 j rCount [4:0] $end
$var reg 3 k state [2:0] $end
$upscope $end
$scope module S_RAM $end
$var wire 5 l addr_a [4:0] $end
$var wire 5 m addr_b [4:0] $end
$var wire 1 C clk $end
$var wire 32 n data_a [31:0] $end
$var wire 32 o data_b [31:0] $end
$var wire 1 @ we_a $end
$var wire 1 p we_b $end
$var reg 32 q q_a [31:0] $end
$var reg 32 r q_b [31:0] $end
$upscope $end
$scope module L $end
$var wire 32 s L_sub_i [31:0] $end
$var wire 1 C clk $end
$var wire 8 t key_sub_i [7:0] $end
$var wire 1 G rst $end
$var reg 2 u L_address [1:0] $end
$var reg 32 v L_sub_i_prima [31:0] $end
$var reg 1 w L_we $end
$var reg 4 x count [3:0] $end
$var reg 1 y done $end
$var reg 4 z key_address [3:0] $end
$var reg 3 { state [2:0] $end
$upscope $end
$scope module key_RAM $end
$var wire 4 | addr_a [3:0] $end
$var wire 4 } addr_b [3:0] $end
$var wire 1 C clk $end
$var wire 8 ~ data_a [7:0] $end
$var wire 8 !" data_b [7:0] $end
$var wire 1 "" we_a $end
$var wire 1 #" we_b $end
$var reg 8 $" q_a [7:0] $end
$var reg 8 %" q_b [7:0] $end
$upscope $end
$scope module L_RAM $end
$var wire 2 &" addr_a [1:0] $end
$var wire 2 '" addr_b [1:0] $end
$var wire 1 C clk $end
$var wire 32 (" data_a [31:0] $end
$var wire 32 )" data_b [31:0] $end
$var wire 1 5 we_a $end
$var wire 1 *" we_b $end
$var reg 32 +" q_a [31:0] $end
$var reg 32 ," q_b [31:0] $end
$upscope $end
$upscope $end
$upscope $end
$enddefinitions $end
#0
$dumpvars
bx ,"
bx +"
0*"
b0 )"
bx ("
b0 '"
bx &"
bx %"
bx $"
0#"
0""
b0 !"
b0 ~
b0 }
bx |
bx {
bx z
xy
bx x
xw
bx v
bx u
bx t
bx s
bx r
bx q
0p
b0 o
bx n
b0 m
bx l
bx k
bx j
xi
bx h
bx g
xf
bx e
bx d
bx c
0b
bx a
bx `
bx _
bx ^
bx ]
x\
bx [
bx Z
xY
bx X
bx W
xV
bx U
bx T
bx S
bx R
bx Q
bx P
bx O
xN
1M
xL
1K
xJ
xI
xH
0G
bx F
bx E
xD
0C
xB
xA
x@
bx ?
bx >
bx =
bx <
x;
bx :
bx 9
bx 8
x7
x6
x5
bx 4
bx 3
bx 2
bx 1
x0
bx /
bx .
bx -
0,
b11111111111111101110111011100101100001101000010011111111111100000101111111111110010010010011100001010011000000000000010000110100 +
b10000 *
0)
bx (
bz '
z&
bz %
bx $
bz #
z"
bz !
$end
#200
0@
05
0I
b0 _
b0 ^
b0 c
b0 S
b0 R
b0 U
b0 T
0\
0B
0Y
07
0V
0D
b1111111 ]
0i
0A
0f
0;
b1 j
0w
06
0y
00
b1111 x
b0 `
b0 k
b0 {
1,
1G
#500
0L
0J
0N
0H
b10110111111000010101000101100011 r
b110100 %"
b0 ,"
1)
1C
#600
0,
0G
#1000
0)
0C
#1500
b0 8
b0 l
b11 -
b11 &"
b0 g
b0 9
b11 u
b11 .
b1111 z
b1111 E
b1111 |
b1 k
b1 {
1)
1C
#2000
0)
0C
#2500
b10110111111000010101000101100011 q
b10110111111000010101000101100011 <
b10110111111000010101000101100011 P
b10110111111000010101000101100011 e
b11111111 $"
b11111111 F
b11111111 t
b0 +"
b0 1
b0 O
b0 s
b10 {
b10 k
1)
1C
#3000
0)
0C
#3500
b1010110000110001100101100011100 =
b1010110000110001100101100011100 n
b1 8
b1 l
b11111111 2
b11111111 ("
b1010110000110001100101100011100 h
b1010110000110001100101100011100 >
b1 g
b1 9
b11111111 v
b11111111 3
b11 k
b11 {
1)
1C
#4000
0)
0C
#4500
15
1@
1w
16
1i
1A
b1110 x
b10 j
bx q
bx <
bx P
bx e
b100 {
b100 k
1)
1C
#5000
0)
0C
#5500
0@
05
0i
0A
0w
06
b1110 z
b1110 E
b1110 |
b11111111 +"
b11111111 1
b11111111 O
b11111111 s
b1010110000110001100101100011100 q
b1010110000110001100101100011100 <
b1010110000110001100101100011100 P
b1010110000110001100101100011100 e
b1 k
b1 {
1)
1C
#6000
0)
0C
#6500
b11111110 $"
b11111110 F
b11111110 t
b10 {
b10 k
1)
1C
#7000
0)
0C
#7500
b11110100010100000100010011010101 =
b11110100010100000100010011010101 n
b10 8
b10 l
b1111111111111110 2
b1111111111111110 ("
b11110100010100000100010011010101 h
b11110100010100000100010011010101 >
b10 g
b10 9
b1111111111111110 v
b1111111111111110 3
b11 k
b11 {
1)
1C
#8000
0)
0C
#8500
15
1@
1w
16
1i
1A
b1101 x
b11 j
bx q
bx <
bx P
bx e
b100 {
b100 k
1)
1C
#9000
0)
0C
#9500
0@
05
0i
0A
0w
06
b1101 z
b1101 E
b1101 |
b1111111111111110 +"
b1111111111111110 1
b1111111111111110 O
b1111111111111110 s
b11110100010100000100010011010101 q
b11110100010100000100010011010101 <
b11110100010100000100010011010101 P
b11110100010100000100010011010101 e
b1 k
b1 {
1)
1C
#10000
0)
0C
#10500
b11101110 $"
b11101110 F
b11101110 t
b10 {
b10 k
1)
1C
#11000
0)
0C
#11500
b10010010100001111011111010001110 =
b10010010100001111011111010001110 n
b11 8
b11 l
b111111111111111011101110 2
b111111111111111011101110 ("
b10010010100001111011111010001110 h
b10010010100001111011111010001110 >
b11 g
b11 9
b111111111111111011101110 v
b111111111111111011101110 3
b11 k
b11 {
1)
1C
#12000
0)
0C
#12500
15
1@
1w
16
1i
1A
b1100 x
b100 j
bx q
bx <
bx P
bx e
b100 {
b100 k
1)
1C
#13000
0)
0C
#13500
0@
05
0i
0A
0w
06
b1100 z
b1100 E
b1100 |
b111111111111111011101110 +"
b111111111111111011101110 1
b111111111111111011101110 O
b111111111111111011101110 s
b10010010100001111011111010001110 q
b10010010100001111011111010001110 <
b10010010100001111011111010001110 P
b10010010100001111011111010001110 e
b1 k
b1 {
1)
1C
#14000
0)
0C
#14500
b11100101 $"
b11100101 F
b11100101 t
b10 {
b10 k
1)
1C
#15000
0)
0C
#15500
b110000101111110011100001000111 =
b110000101111110011100001000111 n
b100 8
b100 l
b11111111111111101110111011100101 2
b11111111111111101110111011100101 ("
b110000101111110011100001000111 h
b110000101111110011100001000111 >
b100 g
b100 9
b11111111111111101110111011100101 v
b11111111111111101110111011100101 3
b11 k
b11 {
1)
1C
#16000
0)
0C
#16500
15
1@
1w
16
1i
1A
b1011 x
b101 j
bx q
bx <
bx P
bx e
b100 {
b100 k
1)
1C
#17000
0)
0C
#17500
0@
05
b10 -
b10 &"
0i
0A
0w
06
b10 u
b10 .
b1011 z
b1011 E
b1011 |
b11111111111111101110111011100101 +"
b11111111111111101110111011100101 1
b11111111111111101110111011100101 O
b11111111111111101110111011100101 s
b110000101111110011100001000111 q
b110000101111110011100001000111 <
b110000101111110011100001000111 P
b110000101111110011100001000111 e
b1 k
b1 {
1)
1C
#18000
0)
0C
#18500
b10000110 $"
b10000110 F
b10000110 t
b0 +"
b0 1
b0 O
b0 s
b10 {
b10 k
1)
1C
#19000
0)
0C
#19500
b11001110111101101011001000000000 =
b11001110111101101011001000000000 n
b101 8
b101 l
b10000110 2
b10000110 ("
b11001110111101101011001000000000 h
b11001110111101101011001000000000 >
b101 g
b101 9
b10000110 v
b10000110 3
b11 k
b11 {
1)
1C
#20000
0)
0C
#20500
15
1@
1w
16
1i
1A
b1010 x
b110 j
bx q
bx <
bx P
bx e
b100 {
b100 k
1)
1C
#21000
0)
0C
#21500
0@
05
0i
0A
0w
06
b1010 z
b1010 E
b1010 |
b10000110 +"
b10000110 1
b10000110 O
b10000110 s
b11001110111101101011001000000000 q
b11001110111101101011001000000000 <
b11001110111101101011001000000000 P
b11001110111101101011001000000000 e
b1 k
b1 {
1)
1C
#22000
0)
0C
#22500
b10000100 $"
b10000100 F
b10000100 t
b10 {
b10 k
1)
1C
#23000
0)
0C
#23500
b1101101001011100010101110111001 =
b1101101001011100010101110111001 n
b110 8
b110 l
b1000011010000100 2
b1000011010000100 ("
b1101101001011100010101110111001 h
b1101101001011100010101110111001 >
b110 g
b110 9
b1000011010000100 v
b1000011010000100 3
b11 k
b11 {
1)
1C
#24000
0)
0C
#24500
15
1@
1w
16
1i
1A
b1001 x
b111 j
bx q
bx <
bx P
bx e
b100 {
b100 k
1)
1C
#25000
0)
0C
#25500
0@
05
0i
0A
0w
06
b1001 z
b1001 E
b1001 |
b1000011010000100 +"
b1000011010000100 1
b1000011010000100 O
b1000011010000100 s
b1101101001011100010101110111001 q
b1101101001011100010101110111001 <
b1101101001011100010101110111001 P
b1101101001011100010101110111001 e
b1 k
b1 {
1)
1C
#26000
0)
0C
#26500
b11111111 $"
b11111111 F
b11111111 t
b10 {
b10 k
1)
1C
#27000
0)
0C
#27500
b1011011001011010010101110010 =
b1011011001011010010101110010 n
b111 8
b111 l
b100001101000010011111111 2
b100001101000010011111111 ("
b1011011001011010010101110010 h
b1011011001011010010101110010 >
b111 g
b111 9
b100001101000010011111111 v
b100001101000010011111111 3
b11 k
b11 {
1)
1C
#28000
0)
0C
#28500
15
1@
1w
16
1i
1A
b1000 x
b1000 j
bx q
bx <
bx P
bx e
b100 {
b100 k
1)
1C
#29000
0)
0C
#29500
0@
05
0i
0A
0w
06
b1000 z
b1000 E
b1000 |
b100001101000010011111111 +"
b100001101000010011111111 1
b100001101000010011111111 O
b100001101000010011111111 s
b1011011001011010010101110010 q
b1011011001011010010101110010 <
b1011011001011010010101110010 P
b1011011001011010010101110010 e
b1 k
b1 {
1)
1C
#30000
0)
0C
#30500
b11110000 $"
b11110000 F
b11110000 t
b10 {
b10 k
1)
1C
#31000
0)
0C
#31500
b10101001100111010001111100101011 =
b10101001100111010001111100101011 n
b1000 8
b1000 l
b10000110100001001111111111110000 2
b10000110100001001111111111110000 ("
b10101001100111010001111100101011 h
b10101001100111010001111100101011 >
b1000 g
b1000 9
b10000110100001001111111111110000 v
b10000110100001001111111111110000 3
b11 k
b11 {
1)
1C
#32000
0)
0C
#32500
15
1@
1w
16
1i
1A
b111 x
b1001 j
bx q
bx <
bx P
bx e
b100 {
b100 k
1)
1C
#33000
0)
0C
#33500
0@
05
b1 -
b1 &"
0i
0A
0w
06
b1 u
b1 .
b111 z
b111 E
b111 |
b10000110100001001111111111110000 +"
b10000110100001001111111111110000 1
b10000110100001001111111111110000 O
b10000110100001001111111111110000 s
b10101001100111010001111100101011 q
b10101001100111010001111100101011 <
b10101001100111010001111100101011 P
b10101001100111010001111100101011 e
b1 k
b1 {
1)
1C
#34000
0)
0C
#34500
b1011111 $"
b1011111 F
b1011111 t
b0 +"
b0 1
b0 O
b0 s
b10 {
b10 k
1)
1C
#35000
0)
0C
#35500
b1000111110101001001100011100100 =
b1000111110101001001100011100100 n
b1001 8
b1001 l
b1011111 2
b1011111 ("
b1000111110101001001100011100100 h
b1000111110101001001100011100100 >
b1001 g
b1001 9
b1011111 v
b1011111 3
b11 k
b11 {
1)
1C
#36000
0)
0C
#36500
15
1@
1w
16
1i
1A
b110 x
b1010 j
bx q
bx <
bx P
bx e
b100 {
b100 k
1)
1C
#37000
0)
0C
#37500
0@
05
0i
0A
0w
06
b110 z
b110 E
b110 |
b1011111 +"
b1011111 1
b1011111 O
b1011111 s
b1000111110101001001100011100100 q
b1000111110101001001100011100100 <
b1000111110101001001100011100100 P
b1000111110101001001100011100100 e
b1 k
b1 {
1)
1C
#38000
0)
0C
#38500
b11111110 $"
b11111110 F
b11111110 t
b10 {
b10 k
1)
1C
#39000
0)
0C
#39500
b11100110000011000001001010011101 =
b11100110000011000001001010011101 n
b1010 8
b1010 l
b101111111111110 2
b101111111111110 ("
b11100110000011000001001010011101 h
b11100110000011000001001010011101 >
b1010 g
b1010 9
b101111111111110 v
b101111111111110 3
b11 k
b11 {
1)
1C
#40000
0)
0C
#40500
15
1@
1w
16
1i
1A
b101 x
b1011 j
bx q
bx <
bx P
bx e
b100 {
b100 k
1)
1C
#41000
0)
0C
#41500
0@
05
0i
0A
0w
06
b101 z
b101 E
b101 |
b101111111111110 +"
b101111111111110 1
b101111111111110 O
b101111111111110 s
b11100110000011000001001010011101 q
b11100110000011000001001010011101 <
b11100110000011000001001010011101 P
b11100110000011000001001010011101 e
b1 k
b1 {
1)
1C
#42000
0)
0C
#42500
b1001001 $"
b1001001 F
b1001001 t
b10 {
b10 k
1)
1C
#43000
0)
0C
#43500
b10000100010000111000110001010110 =
b10000100010000111000110001010110 n
b1011 8
b1011 l
b10111111111111001001001 2
b10111111111111001001001 ("
b10000100010000111000110001010110 h
b10000100010000111000110001010110 >
b1011 g
b1011 9
b10111111111111001001001 v
b10111111111111001001001 3
b11 k
b11 {
1)
1C
#44000
0)
0C
#44500
15
1@
1w
16
1i
1A
b100 x
b1100 j
bx q
bx <
bx P
bx e
b100 {
b100 k
1)
1C
#45000
0)
0C
#45500
0@
05
0i
0A
0w
06
b100 z
b100 E
b100 |
b10111111111111001001001 +"
b10111111111111001001001 1
b10111111111111001001001 O
b10111111111111001001001 s
b10000100010000111000110001010110 q
b10000100010000111000110001010110 <
b10000100010000111000110001010110 P
b10000100010000111000110001010110 e
b1 k
b1 {
1)
1C
#46000
0)
0C
#46500
b111000 $"
b111000 F
b111000 t
b10 {
b10 k
1)
1C
#47000
0)
0C
#47500
b100010011110110000011000001111 =
b100010011110110000011000001111 n
b1100 8
b1100 l
b1011111111111100100100100111000 2
b1011111111111100100100100111000 ("
b100010011110110000011000001111 h
b100010011110110000011000001111 >
b1100 g
b1100 9
b1011111111111100100100100111000 v
b1011111111111100100100100111000 3
b11 k
b11 {
1)
1C
#48000
0)
0C
#48500
15
1@
1w
16
1i
1A
b11 x
b1101 j
bx q
bx <
bx P
bx e
b100 {
b100 k
1)
1C
#49000
0)
0C
#49500
0@
05
b0 -
b0 &"
0i
0A
0w
06
b0 u
b0 .
b11 z
b11 E
b11 |
b1011111111111100100100100111000 +"
b1011111111111100100100100111000 1
b1011111111111100100100100111000 O
b1011111111111100100100100111000 s
b100010011110110000011000001111 q
b100010011110110000011000001111 <
b100010011110110000011000001111 P
b100010011110110000011000001111 e
b1 k
b1 {
1)
1C
#50000
0)
0C
#50500
b1010011 $"
b1010011 F
b1010011 t
b0 +"
b0 1
b0 O
b0 s
b10 {
b10 k
1)
1C
#51000
0)
0C
#51500
b11000000101100100111111111001000 =
b11000000101100100111111111001000 n
b1101 8
b1101 l
b1010011 2
b1010011 ("
b11000000101100100111111111001000 h
b11000000101100100111111111001000 >
b1101 g
b1101 9
b1010011 v
b1010011 3
b11 k
b11 {
1)
1C
#52000
0)
0C
#52500
15
1@
1w
16
1i
1A
b10 x
b1110 j
bx q
bx <
bx P
bx e
b100 {
b100 k
1)
1C
#53000
0)
0C
#53500
0@
05
0i
0A
0w
06
b10 z
b10 E
b10 |
b1010011 +"
b1010011 1
b1010011 O
b1010011 s
b11000000101100100111111111001000 q
b11000000101100100111111111001000 <
b11000000101100100111111111001000 P
b11000000101100100111111111001000 e
b1 k
b1 {
1)
1C
#54000
0)
0C
#54500
b0 $"
b0 F
b0 t
b1010011 ,"
b10 {
b10 k
1)
1C
#55000
0)
0C
#55500
b1011110111010011111100110000001 =
b1011110111010011111100110000001 n
b1110 8
b1110 l
b101001100000000 2
b101001100000000 ("
b1011110111010011111100110000001 h
b1011110111010011111100110000001 >
b1110 g
b1110 9
b101001100000000 v
b101001100000000 3
b11 k
b11 {
1)
1C
#56000
0)
0C
#56500
15
1@
1w
16
1i
1A
b1 x
b1111 j
bx q
bx <
bx P
bx e
b100 {
b100 k
1)
1C
#57000
0)
0C
#57500
0@
05
0i
0A
0w
06
b1 z
b1 E
b1 |
b101001100000000 +"
b101001100000000 1
b101001100000000 O
b101001100000000 s
b1011110111010011111100110000001 q
b1011110111010011111100110000001 <
b1011110111010011111100110000001 P
b1011110111010011111100110000001 e
b1 k
b1 {
1)
1C
#58000
0)
0C
#58500
b100 $"
b100 F
b100 t
b101001100000000 ,"
b10 {
b10 k
1)
1C
#59000
0)
0C
#59500
b11111101001000010111001100111010 =
b11111101001000010111001100111010 n
b1111 8
b1111 l
b10100110000000000000100 2
b10100110000000000000100 ("
b11111101001000010111001100111010 h
b11111101001000010111001100111010 >
b1111 g
b1111 9
b10100110000000000000100 v
b10100110000000000000100 3
b11 k
b11 {
1)
1C
#60000
0)
0C
#60500
15
1@
1w
16
1i
1A
b0 x
b10000 j
bx q
bx <
bx P
bx e
b100 {
b100 k
1)
1C
#61000
0)
0C
#61500
0@
05
0i
0A
0w
06
b0 z
b0 E
b0 |
b10100110000000000000100 +"
b10100110000000000000100 1
b10100110000000000000100 O
b10100110000000000000100 s
b11111101001000010111001100111010 q
b11111101001000010111001100111010 <
b11111101001000010111001100111010 P
b11111101001000010111001100111010 e
b1 k
b1 {
1)
1C
#62000
0)
0C
#62500
b110100 $"
b110100 F
b110100 t
b10100110000000000000100 ,"
b10 {
b10 k
1)
1C
#63000
0)
0C
#63500
b10011011010110001110110011110011 =
b10011011010110001110110011110011 n
b10000 8
b10000 l
b1010011000000000000010000110100 2
b1010011000000000000010000110100 ("
b10011011010110001110110011110011 h
b10011011010110001110110011110011 >
b10000 g
b10000 9
b1010011000000000000010000110100 v
b1010011000000000000010000110100 3
b11 k
b11 {
1)
1C
#64000
0)
0C
#64500
15
1@
1y
10
1w
16
1i
1A
b1111 x
b10001 j
bx q
bx <
bx P
bx e
b100 {
b100 k
1)
1C
#65000
0)
0C
#65500
0@
05
b11 -
b11 &"
0i
0A
0w
06
b11 u
b11 .
b1111 z
b1111 E
b1111 |
b1010011000000000000010000110100 +"
b1010011000000000000010000110100 1
b1010011000000000000010000110100 O
b1010011000000000000010000110100 s
b10011011010110001110110011110011 q
b10011011010110001110110011110011 <
b10011011010110001110110011110011 P
b10011011010110001110110011110011 e
b1 k
b1 {
1)
1C
#66000
0)
0C
#66500
b11111111 $"
b11111111 F
b11111111 t
b11111111111111101110111011100101 +"
b11111111111111101110111011100101 1
b11111111111111101110111011100101 O
b11111111111111101110111011100101 s
b1010011000000000000010000110100 ,"
b10 k
1)
1C
#67000
0)
0C
#67500
b111001100100000110011010101100 =
b111001100100000110011010101100 n
b10001 8
b10001 l
b111001100100000110011010101100 h
b111001100100000110011010101100 >
b10001 g
b10001 9
b11 k
1)
1C
#68000
0)
0C
#68500
1@
1i
1A
b10010 j
bx q
bx <
bx P
bx e
b100 k
1)
1C
#69000
0)
0C
#69500
0@
0i
0A
b111001100100000110011010101100 q
b111001100100000110011010101100 <
b111001100100000110011010101100 P
b111001100100000110011010101100 e
b1 k
1)
1C
#70000
0)
0C
#70500
b10 k
1)
1C
#71000
0)
0C
#71500
b11010111110001111110000001100101 =
b11010111110001111110000001100101 n
b10010 8
b10010 l
b11010111110001111110000001100101 h
b11010111110001111110000001100101 >
b10010 g
b10010 9
b11 k
1)
1C
#72000
0)
0C
#72500
1@
1i
1A
b10011 j
bx q
bx <
bx P
bx e
b100 k
1)
1C
#73000
0)
0C
#73500
0@
0i
0A
b11010111110001111110000001100101 q
b11010111110001111110000001100101 <
b11010111110001111110000001100101 P
b11010111110001111110000001100101 e
b1 k
1)
1C
#74000
0)
0C
#74500
b10 k
1)
1C
#75000
0)
0C
#75500
b1110101111111110101101000011110 =
b1110101111111110101101000011110 n
b10011 8
b10011 l
b1110101111111110101101000011110 h
b1110101111111110101101000011110 >
b10011 g
b10011 9
b11 k
1)
1C
#76000
0)
0C
#76500
1@
1i
1A
b10100 j
bx q
bx <
bx P
bx e
b100 k
1)
1C
#77000
0)
0C
#77500
0@
0i
0A
b1110101111111110101101000011110 q
b1110101111111110101101000011110 <
b1110101111111110101101000011110 P
b1110101111111110101101000011110 e
b1 k
1)
1C
#78000
0)
0C
#78500
b10 k
1)
1C
#79000
0)
0C
#79500
b10100001101101101001111010111 =
b10100001101101101001111010111 n
b10100 8
b10100 l
b10100001101101101001111010111 h
b10100001101101101001111010111 >
b10100 g
b10100 9
b11 k
1)
1C
#80000
0)
0C
#80500
1@
1i
1A
b10101 j
bx q
bx <
bx P
bx e
b100 k
1)
1C
#81000
0)
0C
#81500
0@
0i
0A
b10100001101101101001111010111 q
b10100001101101101001111010111 <
b10100001101101101001111010111 P
b10100001101101101001111010111 e
b1 k
1)
1C
#82000
0)
0C
#82500
b10 k
1)
1C
#83000
0)
0C
#83500
b10110010011011100100110110010000 =
b10110010011011100100110110010000 n
b10101 8
b10101 l
b10110010011011100100110110010000 h
b10110010011011100100110110010000 >
b10101 g
b10101 9
b11 k
1)
1C
#84000
0)
0C
#84500
1@
1i
1A
b10110 j
bx q
bx <
bx P
bx e
b100 k
1)
1C
#85000
0)
0C
#85500
0@
0i
0A
b10110010011011100100110110010000 q
b10110010011011100100110110010000 <
b10110010011011100100110110010000 P
b10110010011011100100110110010000 e
b1 k
1)
1C
#86000
0)
0C
#86500
b10 k
1)
1C
#87000
0)
0C
#87500
b1010000101001011100011101001001 =
b1010000101001011100011101001001 n
b10110 8
b10110 l
b1010000101001011100011101001001 h
b1010000101001011100011101001001 >
b10110 g
b10110 9
b11 k
1)
1C
#88000
0)
0C
#88500
1@
1i
1A
b10111 j
bx q
bx <
bx P
bx e
b100 k
1)
1C
#89000
0)
0C
#89500
0@
0i
0A
b1010000101001011100011101001001 q
b1010000101001011100011101001001 <
b1010000101001011100011101001001 P
b1010000101001011100011101001001 e
b1 k
1)
1C
#90000
0)
0C
#90500
b10 k
1)
1C
#91000
0)
0C
#91500
b11101110110111010100000100000010 =
b11101110110111010100000100000010 n
b10111 8
b10111 l
b11101110110111010100000100000010 h
b11101110110111010100000100000010 >
b10111 g
b10111 9
b11 k
1)
1C
#92000
0)
0C
#92500
1@
1i
1A
b11000 j
bx q
bx <
bx P
bx e
b100 k
1)
1C
#93000
0)
0C
#93500
0@
0i
0A
b11101110110111010100000100000010 q
b11101110110111010100000100000010 <
b11101110110111010100000100000010 P
b11101110110111010100000100000010 e
b1 k
1)
1C
#94000
0)
0C
#94500
b10 k
1)
1C
#95000
0)
0C
#95500
b10001101000101001011101010111011 =
b10001101000101001011101010111011 n
b11000 8
b11000 l
b10001101000101001011101010111011 h
b10001101000101001011101010111011 >
b11000 g
b11000 9
b11 k
1)
1C
#96000
0)
0C
#96500
1@
1i
1A
b11001 j
bx q
bx <
bx P
bx e
b100 k
1)
1C
#97000
0)
0C
#97500
0@
0i
0A
b10001101000101001011101010111011 q
b10001101000101001011101010111011 <
b10001101000101001011101010111011 P
b10001101000101001011101010111011 e
b1 k
1)
1C
#98000
0)
0C
#98500
b10 k
1)
1C
#99000
0)
0C
#99500
b101011010011000011010001110100 =
b101011010011000011010001110100 n
b11001 8
b11001 l
b101011010011000011010001110100 h
b101011010011000011010001110100 >
b11001 g
b11001 9
b11 k
1)
1C
#100000
0)
0C
#100500
1I
1@
1f
1;
1i
1A
b11010 j
bx q
bx <
bx P
bx e
b100 k
1)
1C
#101000
0)
0C
#101500
0@
0i
0A
b101011010011000011010001110100 q
b101011010011000011010001110100 <
b101011010011000011010001110100 P
b101011010011000011010001110100 e
1L
1J
b1 k
1)
1C
#101600
b11010 *
#102000
0)
0C
#102500
bx 8
bx l
bx =
bx n
bx -
bx &"
bx 2
bx ("
1N
1H
1)
1C
#103000
0)
0C
#103500
b0 -
b0 &"
b0 8
b0 l
b0 W
b0 /
b0 Z
b0 :
b0 ]
bx +"
bx 1
bx O
bx s
bx q
bx <
bx P
bx e
b1 `
1)
1C
#104000
0)
0C
#104500
b10110111111000010101000101100011 q
b10110111111000010101000101100011 <
b10110111111000010101000101100011 P
b10110111111000010101000101100011 e
b1010011000000000000010000110100 +"
b1010011000000000000010000110100 1
b1010011000000000000010000110100 O
b1010011000000000000010000110100 s
b10 `
1)
1C
#105000
0)
0C
#105500
b11 `
1)
1C
#106000
0)
0C
#106500
b10110111111000010101000101100011 d
b10110111111000010101000101100011 Q
b1010011000000000000010000110100 2
b1010011000000000000010000110100 ("
b10110111111000010101000101100011 =
b10110111111000010101000101100011 n
b1010011000000000000010000110100 X
b1010011000000000000010000110100 4
b10110111111000010101000101100011 [
b10110111111000010101000101100011 ?
b10110111111000010101000101100011 a
b100 `
1)
1C
#107000
0)
0C
#107500
b10011000000000000010000110100010 2
b10011000000000000010000110100010 ("
b10011000000000000010000110100010 X
b10011000000000000010000110100010 4
b101 `
1)
1C
#108000
0)
0C
#108500
15
1@
1Y
17
1\
1B
b10011000000000000010000110100010 S
b10110111111000010101000101100011 R
b1 U
b1 T
b111 `
1)
1C
#109000
0)
0C
#109500
05
0@
b1 -
b1 &"
b1 8
b1 l
0Y
07
0\
0B
b1 W
b1 /
b1 Z
b1 :
b1 ]
b10011000000000000010000110100010 +"
b10011000000000000010000110100010 1
b10011000000000000010000110100010 O
b10011000000000000010000110100010 s
b1 `
1)
1C
#110000
0)
0C
#110500
b1010110000110001100101100011100 q
b1010110000110001100101100011100 <
b1010110000110001100101100011100 P
b1010110000110001100101100011100 e
b1011111111111100100100100111000 +"
b1011111111111100100100100111000 1
b1011111111111100100100100111000 O
b1011111111111100100100100111000 s
b10011000000000000010000110100010 ,"
b10 `
1)
1C
#111000
0)
0C
#111500
b1001111111000010111001100000101 _
b11 `
1)
1C
#112000
0)
0C
#112500
b10111111010001111100010000110100 d
b10111111010001111100010000110100 Q
b10101111110111111011110000111101 2
b10101111110111111011110000111101 ("
b10100101111110100011111000100001 =
b10100101111110100011111000100001 n
b10101111110111111011110000111101 X
b10101111110111111011110000111101 4
b10100101111110100011111000100001 [
b10100101111110100011111000100001 ?
b10100101111110100011111000100001 a
b101 ^
b101 c
b100 `
1)
1C
#113000
0)
0C
#113500
b11101000111110001000011010010111 d
b11101000111110001000011010010111 Q
b1111110111111011110000111101101 2
b1111110111111011110000111101101 ("
b10111111010001111100010000110100 =
b10111111010001111100010000110100 n
b1111110111111011110000111101101 X
b1111110111111011110000111101101 4
b10111111010001111100010000110100 [
b10111111010001111100010000110100 ?
b10111111010001111100010000110100 a
b101 `
1)
1C
#114000
0)
0C
#114500
15
1@
1Y
17
1\
1B
b1111110111111011110000111101101 S
b10111111010001111100010000110100 R
b10 U
b10 T
b111 `
1)
1C
#115000
0)
0C
