proyectoLeon/codigo/version2/L.vcd
$date
	Thu Oct 29 10:57:29 2015
$end
$version
	Icarus Verilog
$end
$timescale
	10ps
$end
$scope module probador $end
$var wire 2 ! L_address [1:0] $end
$var wire 32 " L_sub_i [31:0] $end
$var wire 32 # L_sub_i_prima [31:0] $end
$var wire 1 $ L_we $end
$var wire 1 % clk $end
$var wire 1 & done $end
$var wire 4 ' key_address [3:0] $end
$var wire 8 ( key_sub_i [7:0] $end
$var wire 1 ) rst $end
$scope module test $end
$var reg 1 * clk $end
$var integer 32 + i [31:0] $end
$var reg 128 , key [127:0] $end
$var reg 1 - rst $end
$upscope $end
$scope module operation $end
$var wire 32 . L_sub_i [31:0] $end
$var wire 1 % clk $end
$var wire 8 / key_sub_i [7:0] $end
$var wire 1 ) rst $end
$var reg 2 0 L_address [1:0] $end
$var reg 32 1 L_sub_i_prima [31:0] $end
$var reg 1 2 L_we $end
$var reg 4 3 count [3:0] $end
$var reg 1 4 done $end
$var reg 4 5 key_address [3:0] $end
$var reg 3 6 state [2:0] $end
$upscope $end
$scope module key_RAM $end
$var wire 4 7 addr_a [3:0] $end
$var wire 4 8 addr_b [3:0] $end
$var wire 1 % clk $end
$var wire 8 9 data_a [7:0] $end
$var wire 8 : data_b [7:0] $end
$var wire 1 ; we_a $end
$var wire 1 < we_b $end
$var reg 8 = q_a [7:0] $end
$var reg 8 > q_b [7:0] $end
$upscope $end
$scope module L_RAM $end
$var wire 2 ? addr_a [1:0] $end
$var wire 2 @ addr_b [1:0] $end
$var wire 1 % clk $end
$var wire 32 A data_a [31:0] $end
$var wire 32 B data_b [31:0] $end
$var wire 1 $ we_a $end
$var wire 1 C we_b $end
$var reg 32 D q_a [31:0] $end
$var reg 32 E q_b [31:0] $end
$upscope $end
$upscope $end
$enddefinitions $end
#0
$dumpvars
bx E
bx D
0C
b0 B
bx A
b0 @
bx ?
bx >
bx =
0<
0;
b0 :
b0 9
b0 8
bx 7
bx 6
bx 5
x4
bx 3
x2
bx 1
bx 0
bx /
bx .
0-
b11111111111111101110111011100101100001101000010011111111111100000101111111111110010010010011100001010011000000000000010000110100 ,
b10000 +
0*
0)
bx (
bx '
x&
0%
x$
bx #
bx "
bx !
$end
#200
02
0$
04
0&
b1111 3
b0 6
1-
1)
#500
b110100 >
b0 E
1*
1%
#600
0-
0)
#1000
0*
0%
#1500
b11 0
b11 !
b11 ?
b1111 5
b1111 '
b1111 7
b1 6
1*
1%
#2000
0*
0%
#2500
b11111111 =
b11111111 (
b11111111 /
b0 D
b0 "
b0 .
b10 6
1*
1%
#3000
0*
0%
#3500
b11111111 1
b11111111 #
b11111111 A
b11 6
1*
1%
#4000
0*
0%
#4500
12
1$
b1110 3
b100 6
1*
1%
#5000
0*
0%
#5500
02
0$
b1110 5
b1110 '
b1110 7
b11111111 D
b11111111 "
b11111111 .
b1 6
1*
1%
#6000
0*
0%
#6500
b11111110 =
b11111110 (
b11111110 /
b10 6
1*
1%
#7000
0*
0%
#7500
b111111101 1
b111111101 #
b111111101 A
b11 6
1*
1%
#8000
0*
0%
#8500
12
1$
b1101 3
b100 6
1*
1%
#9000
0*
0%
#9500
02
0$
b1101 5
b1101 '
b1101 7
b111111101 D
b111111101 "
b111111101 .
b1 6
1*
1%
#10000
0*
0%
#10500
b11101110 =
b11101110 (
b11101110 /
b10 6
1*
1%
#11000
0*
0%
#11500
b1011101011 1
b1011101011 #
b1011101011 A
b11 6
1*
1%
#12000
0*
0%
#12500
12
1$
b1100 3
b100 6
1*
1%
#13000
0*
0%
#13500
02
0$
b1100 5
b1100 '
b1100 7
b1011101011 D
b1011101011 "
b1011101011 .
b1 6
1*
1%
#14000
0*
0%
#14500
b11100101 =
b11100101 (
b11100101 /
b10 6
1*
1%
#15000
0*
0%
#15500
b1111010000 1
b1111010000 #
b1111010000 A
b11 6
1*
1%
#16000
0*
0%
#16500
12
1$
b1011 3
b100 6
1*
1%
#17000
0*
0%
#17500
02
0$
b10 0
b10 !
b10 ?
b1011 5
b1011 '
b1011 7
b1111010000 D
b1111010000 "
b1111010000 .
b1 6
1*
1%
#18000
0*
0%
#18500
b10000110 =
b10000110 (
b10000110 /
b0 D
b0 "
b0 .
b10 6
1*
1%
#19000
0*
0%
#19500
b10000110 1
b10000110 #
b10000110 A
b11 6
1*
1%
#20000
0*
0%
#20500
12
1$
b1010 3
b100 6
1*
1%
#21000
0*
0%
#21500
02
0$
b1010 5
b1010 '
b1010 7
b10000110 D
b10000110 "
b10000110 .
b1 6
1*
1%
#22000
0*
0%
#22500
b10000100 =
b10000100 (
b10000100 /
b10 6
1*
1%
#23000
0*
0%
#23500
b100001010 1
b100001010 #
b100001010 A
b11 6
1*
1%
#24000
0*
0%
#24500
12
1$
b1001 3
b100 6
1*
1%
#25000
0*
0%
#25500
02
0$
b1001 5
b1001 '
b1001 7
b100001010 D
b100001010 "
b100001010 .
b1 6
1*
1%
#26000
0*
0%
#26500
b11111111 =
b11111111 (
b11111111 /
b10 6
1*
1%
#27000
0*
0%
#27500
b1000001001 1
b1000001001 #
b1000001001 A
b11 6
1*
1%
#28000
0*
0%
#28500
12
1$
b1000 3
b100 6
1*
1%
#29000
0*
0%
#29500
02
0$
b1000 5
b1000 '
b1000 7
b1000001001 D
b1000001001 "
b1000001001 .
b1 6
1*
1%
#30000
0*
0%
#30500
b11110000 =
b11110000 (
b11110000 /
b10 6
1*
1%
#31000
0*
0%
#31500
b1011111001 1
b1011111001 #
b1011111001 A
b11 6
1*
1%
#32000
0*
0%
#32500
12
1$
b111 3
b100 6
1*
1%
#33000
0*
0%
#33500
02
0$
b1 0
b1 !
b1 ?
b111 5
b111 '
b111 7
b1011111001 D
b1011111001 "
b1011111001 .
b1 6
1*
1%
#34000
0*
0%
#34500
b1011111 =
b1011111 (
b1011111 /
b0 D
b0 "
b0 .
b10 6
1*
1%
#35000
0*
0%
#35500
b1011111 1
b1011111 #
b1011111 A
b11 6
1*
1%
#36000
0*
0%
#36500
12
1$
b110 3
b100 6
1*
1%
#37000
0*
0%
#37500
02
0$
b110 5
b110 '
b110 7
b1011111 D
b1011111 "
b1011111 .
b1 6
1*
1%
#38000
0*
0%
#38500
b11111110 =
b11111110 (
b11111110 /
b10 6
1*
1%
#39000
0*
0%
#39500
b101011101 1
b101011101 #
b101011101 A
b11 6
1*
1%
#40000
0*
0%
#40500
12
1$
b101 3
b100 6
1*
1%
#41000
0*
0%
#41500
02
0$
b101 5
b101 '
b101 7
b101011101 D
b101011101 "
b101011101 .
b1 6
1*
1%
#42000
0*
0%
#42500
b1001001 =
b1001001 (
b1001001 /
b10 6
1*
1%
#43000
0*
0%
#43500
b110100110 1
b110100110 #
b110100110 A
b11 6
1*
1%
#44000
0*
0%
#44500
12
1$
b100 3
b100 6
1*
1%
#45000
0*
0%
#45500
02
0$
b100 5
b100 '
b100 7
b110100110 D
b110100110 "
b110100110 .
b1 6
1*
1%
#46000
0*
0%
#46500
b111000 =
b111000 (
b111000 /
b10 6
1*
1%
#47000
0*
0%
#47500
b111011110 1
b111011110 #
b111011110 A
b11 6
1*
1%
#48000
0*
0%
#48500
12
1$
b11 3
b100 6
1*
1%
#49000
0*
0%
#49500
02
0$
b0 0
b0 !
b0 ?
b11 5
b11 '
b11 7
b111011110 D
b111011110 "
b111011110 .
b1 6
1*
1%
#50000
0*
0%
#50500
b1010011 =
b1010011 (
b1010011 /
b0 D
b0 "
b0 .
b10 6
1*
1%
#51000
0*
0%
#51500
b1010011 1
b1010011 #
b1010011 A
b11 6
1*
1%
#52000
0*
0%
#52500
12
1$
b10 3
b100 6
1*
1%
#53000
0*
0%
#53500
02
0$
b10 5
b10 '
b10 7
b1010011 D
b1010011 "
b1010011 .
b1 6
1*
1%
#54000
0*
0%
#54500
b0 =
b0 (
b0 /
b1010011 E
b10 6
1*
1%
#55000
0*
0%
#55500
b11 6
1*
1%
#56000
0*
0%
#56500
12
1$
b1 3
b100 6
1*
1%
#57000
0*
0%
#57500
02
0$
b1 5
b1 '
b1 7
b1 6
1*
1%
#58000
0*
0%
#58500
b100 =
b100 (
b100 /
b10 6
1*
1%
#59000
0*
0%
#59500
b1010111 1
b1010111 #
b1010111 A
b11 6
1*
1%
#60000
0*
0%
#60500
12
1$
b0 3
b100 6
1*
1%
#61000
0*
0%
#61500
02
0$
b0 5
b0 '
b0 7
b1010111 D
b1010111 "
b1010111 .
b1 6
1*
1%
#62000
0*
0%
#62500
b110100 =
b110100 (
b110100 /
b1010111 E
b10 6
1*
1%
#63000
0*
0%
#63500
b10001011 1
b10001011 #
b10001011 A
b11 6
1*
1%
#64000
0*
0%
#64500
14
1&
12
1$
b1111 3
b100 6
1*
1%
#65000
0*
0%
#65500
02
0$
b11 0
b11 !
b11 ?
b1111 5
b1111 '
b1111 7
b10001011 D
b10001011 "
b10001011 .
b1 6
1*
1%
#66000
0*
0%
#66500
b11111111 =
b11111111 (
b11111111 /
b1111010000 D
b1111010000 "
b1111010000 .
b10001011 E
1*
1%
