proyectoLeon/codigo/version2/S.vcd
$date
	Wed Oct 28 17:10:05 2015
$end
$version
	Icarus Verilog
$end
$timescale
	10ps
$end
$scope module probador $end
$var wire 5 ! S_address [4:0] $end
$var wire 32 " S_sub_i [31:0] $end
$var wire 32 # S_sub_i_prima [31:0] $end
$var wire 1 $ S_we $end
$var wire 1 % clk $end
$var wire 1 & done $end
$var wire 1 ' rst $end
$scope module test $end
$var reg 1 ( clk $end
$var integer 32 ) i [31:0] $end
$var reg 128 * key [127:0] $end
$var reg 1 + rst $end
$upscope $end
$scope module operation $end
$var wire 1 % clk $end
$var wire 32 , iS_sub_i [31:0] $end
$var wire 1 ' rst $end
$var reg 1 - oDone $end
$var reg 5 . oS_address [4:0] $end
$var reg 32 / oS_sub_i_prima [31:0] $end
$var reg 1 0 oS_we $end
$var reg 5 1 rCount [4:0] $end
$var reg 3 2 state [2:0] $end
$upscope $end
$scope module S_RAM $end
$var wire 5 3 addr_a [4:0] $end
$var wire 5 4 addr_b [4:0] $end
$var wire 1 % clk $end
$var wire 32 5 data_a [31:0] $end
$var wire 32 6 data_b [31:0] $end
$var wire 1 $ we_a $end
$var wire 1 7 we_b $end
$var reg 32 8 q_a [31:0] $end
$var reg 32 9 q_b [31:0] $end
$upscope $end
$upscope $end
$enddefinitions $end
#0
$dumpvars
bx 9
bx 8
07
b0 6
bx 5
b0 4
bx 3
bx 2
bx 1
x0
bx /
bx .
x-
bx ,
0+
b11111111111111101110111011100101100001101000010011111111111100000101111111111110010010010011100001010011000000000000010000110100 *
bx )
0(
0'
x&
0%
x$
bx #
bx "
bx !
$end
#200
00
0$
0-
0&
b1 1
b0 2
1+
1'
#500
b1010 9
1(
1%
#600
0+
0'
#1000
0(
0%
#1500
b0 .
b0 !
b0 3
b1 2
1(
1%
#2000
0(
0%
#2500
b1010 8
b1010 "
b1010 ,
b10 2
1(
1%
#3000
0(
0%
#3500
b1111 /
b1111 #
b1111 5
b1 .
b1 !
b1 3
b11 2
1(
1%
#4000
0(
0%
#4500
10
1$
b10 1
bx 8
bx "
bx ,
b100 2
1(
1%
#5000
0(
0%
#5500
00
0$
b1111 8
b1111 "
b1111 ,
b1 2
1(
1%
#6000
0(
0%
#6500
b10 2
1(
1%
#7000
0(
0%
#7500
b10100 /
b10100 #
b10100 5
b10 .
b10 !
b10 3
b11 2
1(
1%
#8000
0(
0%
#8500
10
1$
b11 1
bx 8
bx "
bx ,
b100 2
1(
1%
#9000
0(
0%
#9500
00
0$
b10100 8
b10100 "
b10100 ,
b1 2
1(
1%
#10000
0(
0%
#10500
b10 2
1(
1%
#11000
0(
0%
#11500
b11001 /
b11001 #
b11001 5
b11 .
b11 !
b11 3
b11 2
1(
1%
#12000
0(
0%
#12500
10
1$
b100 1
bx 8
bx "
bx ,
b100 2
1(
1%
#13000
0(
0%
#13500
00
0$
b11001 8
b11001 "
b11001 ,
b1 2
1(
1%
#14000
0(
0%
#14500
b10 2
1(
1%
#15000
0(
0%
#15500
b11110 /
b11110 #
b11110 5
b100 .
b100 !
b100 3
b11 2
1(
1%
#16000
0(
0%
#16500
10
1$
b101 1
bx 8
bx "
bx ,
b100 2
1(
1%
#17000
0(
0%
#17500
00
0$
b11110 8
b11110 "
b11110 ,
b1 2
1(
1%
#18000
0(
0%
#18500
b10 2
1(
1%
#19000
0(
0%
#19500
b100011 /
b100011 #
b100011 5
b101 .
b101 !
b101 3
b11 2
1(
1%
#20000
0(
0%
#20500
10
1$
b110 1
bx 8
bx "
bx ,
b100 2
1(
1%
#21000
0(
0%
#21500
00
0$
b100011 8
b100011 "
b100011 ,
b1 2
1(
1%
#22000
0(
0%
#22500
b10 2
1(
1%
#23000
0(
0%
#23500
b101000 /
b101000 #
b101000 5
b110 .
b110 !
b110 3
b11 2
1(
1%
#24000
0(
0%
#24500
10
1$
b111 1
bx 8
bx "
bx ,
b100 2
1(
1%
#25000
0(
0%
#25500
00
0$
b101000 8
b101000 "
b101000 ,
b1 2
1(
1%
#26000
0(
0%
#26500
b10 2
1(
1%
#27000
0(
0%
#27500
b101101 /
b101101 #
b101101 5
b111 .
b111 !
b111 3
b11 2
1(
1%
#28000
0(
0%
#28500
10
1$
b1000 1
bx 8
bx "
bx ,
b100 2
1(
1%
#29000
0(
0%
#29500
00
0$
b101101 8
b101101 "
b101101 ,
b1 2
1(
1%
#30000
0(
0%
#30500
b10 2
1(
1%
#31000
0(
0%
#31500
b110010 /
b110010 #
b110010 5
b1000 .
b1000 !
b1000 3
b11 2
1(
1%
#32000
0(
0%
#32500
10
1$
b1001 1
bx 8
bx "
bx ,
b100 2
1(
1%
#33000
0(
0%
#33500
00
0$
b110010 8
b110010 "
b110010 ,
b1 2
1(
1%
#34000
0(
0%
#34500
b10 2
1(
1%
#35000
0(
0%
#35500
b110111 /
b110111 #
b110111 5
b1001 .
b1001 !
b1001 3
b11 2
1(
1%
#36000
0(
0%
#36500
10
1$
b1010 1
bx 8
bx "
bx ,
b100 2
1(
1%
#37000
0(
0%
#37500
00
0$
b110111 8
b110111 "
b110111 ,
b1 2
1(
1%
#38000
0(
0%
#38500
b10 2
1(
1%
#39000
0(
0%
#39500
b111100 /
b111100 #
b111100 5
b1010 .
b1010 !
b1010 3
b11 2
1(
1%
#40000
0(
0%
#40500
10
1$
b1011 1
bx 8
bx "
bx ,
b100 2
1(
1%
#41000
0(
0%
#41500
00
0$
b111100 8
b111100 "
b111100 ,
b1 2
1(
1%
#42000
0(
0%
#42500
b10 2
1(
1%
#43000
0(
0%
#43500
b1000001 /
b1000001 #
b1000001 5
b1011 .
b1011 !
b1011 3
b11 2
1(
1%
#44000
0(
0%
#44500
10
1$
b1100 1
bx 8
bx "
bx ,
b100 2
1(
1%
#45000
0(
0%
#45500
00
0$
b1000001 8
b1000001 "
b1000001 ,
b1 2
1(
1%
#46000
0(
0%
#46500
b10 2
1(
1%
#47000
0(
0%
#47500
b1000110 /
b1000110 #
b1000110 5
b1100 .
b1100 !
b1100 3
b11 2
1(
1%
#48000
0(
0%
#48500
10
1$
b1101 1
bx 8
bx "
bx ,
b100 2
1(
1%
#49000
0(
0%
#49500
00
0$
b1000110 8
b1000110 "
b1000110 ,
b1 2
1(
1%
#50000
0(
0%
#50500
b10 2
1(
1%
#51000
0(
0%
#51500
b1001011 /
b1001011 #
b1001011 5
b1101 .
b1101 !
b1101 3
b11 2
1(
1%
#52000
0(
0%
#52500
10
1$
b1110 1
bx 8
bx "
bx ,
b100 2
1(
1%
#53000
0(
0%
#53500
00
0$
b1001011 8
b1001011 "
b1001011 ,
b1 2
1(
1%
#54000
0(
0%
#54500
b10 2
1(
1%
#55000
0(
0%
#55500
b1010000 /
b1010000 #
b1010000 5
b1110 .
b1110 !
b1110 3
b11 2
1(
1%
#56000
0(
0%
#56500
10
1$
b1111 1
bx 8
bx "
bx ,
b100 2
1(
1%
#57000
0(
0%
#57500
00
0$
b1010000 8
b1010000 "
b1010000 ,
b1 2
1(
1%
#58000
0(
0%
#58500
b10 2
1(
1%
#59000
0(
0%
#59500
b1010101 /
b1010101 #
b1010101 5
b1111 .
b1111 !
b1111 3
b11 2
1(
1%
#60000
0(
0%
#60500
10
1$
b10000 1
bx 8
bx "
bx ,
b100 2
1(
1%
#61000
0(
0%
#61500
00
0$
b1010101 8
b1010101 "
b1010101 ,
b1 2
1(
1%
#62000
0(
0%
#62500
b10 2
1(
1%
#63000
0(
0%
#63500
b1011010 /
b1011010 #
b1011010 5
b10000 .
b10000 !
b10000 3
b11 2
1(
1%
#64000
0(
0%
#64500
10
1$
b10001 1
bx 8
bx "
bx ,
b100 2
1(
1%
#65000
0(
0%
#65500
00
0$
b1011010 8
b1011010 "
b1011010 ,
b1 2
1(
1%
#66000
0(
0%
#66500
b10 2
1(
1%
#67000
0(
0%
#67500
b1011111 /
b1011111 #
b1011111 5
b10001 .
b10001 !
b10001 3
b11 2
1(
1%
#68000
0(
0%
#68500
10
1$
b10010 1
bx 8
bx "
bx ,
b100 2
1(
1%
#69000
0(
0%
#69500
00
0$
b1011111 8
b1011111 "
b1011111 ,
b1 2
1(
1%
#70000
0(
0%
#70500
b10 2
1(
1%
#71000
0(
0%
#71500
b1100100 /
b1100100 #
b1100100 5
b10010 .
b10010 !
b10010 3
b11 2
1(
1%
#72000
0(
0%
#72500
10
1$
b10011 1
bx 8
bx "
bx ,
b100 2
1(
1%
#73000
0(
0%
#73500
00
0$
b1100100 8
b1100100 "
b1100100 ,
b1 2
1(
1%
#74000
0(
0%
#74500
b10 2
1(
1%
#75000
0(
0%
#75500
b1101001 /
b1101001 #
b1101001 5
b10011 .
b10011 !
b10011 3
b11 2
1(
1%
#76000
0(
0%
#76500
10
1$
b10100 1
bx 8
bx "
bx ,
b100 2
1(
1%
#77000
0(
0%
#77500
00
0$
b1101001 8
b1101001 "
b1101001 ,
b1 2
1(
1%
#78000
0(
0%
#78500
b10 2
1(
1%
#79000
0(
0%
#79500
b1101110 /
b1101110 #
b1101110 5
b10100 .
b10100 !
b10100 3
b11 2
1(
1%
#80000
0(
0%
#80500
10
1$
b10101 1
bx 8
bx "
bx ,
b100 2
1(
1%
#81000
0(
0%
#81500
00
0$
b1101110 8
b1101110 "
b1101110 ,
b1 2
1(
1%
#82000
0(
0%
#82500
b10 2
1(
1%
#83000
0(
0%
#83500
b1110011 /
b1110011 #
b1110011 5
b10101 .
b10101 !
b10101 3
b11 2
1(
1%
#84000
0(
0%
#84500
10
1$
b10110 1
bx 8
bx "
bx ,
b100 2
1(
1%
#85000
0(
0%
#85500
00
0$
b1110011 8
b1110011 "
b1110011 ,
b1 2
1(
1%
#86000
0(
0%
#86500
b10 2
1(
1%
#87000
0(
0%
#87500
b1111000 /
b1111000 #
b1111000 5
b10110 .
b10110 !
b10110 3
b11 2
1(
1%
#88000
0(
0%
#88500
10
1$
b10111 1
bx 8
bx "
bx ,
b100 2
1(
1%
#89000
0(
0%
#89500
00
0$
b1111000 8
b1111000 "
b1111000 ,
b1 2
1(
1%
#90000
0(
0%
#90500
b10 2
1(
1%
#91000
0(
0%
#91500
b1111101 /
b1111101 #
b1111101 5
b10111 .
b10111 !
b10111 3
b11 2
1(
1%
#92000
0(
0%
#92500
10
1$
b11000 1
bx 8
bx "
bx ,
b100 2
1(
1%
#93000
0(
0%
#93500
00
0$
b1111101 8
b1111101 "
b1111101 ,
b1 2
1(
1%
#94000
0(
0%
#94500
b10 2
1(
1%
#95000
0(
0%
#95500
b10000010 /
b10000010 #
b10000010 5
b11000 .
b11000 !
b11000 3
b11 2
1(
1%
#96000
0(
0%
#96500
10
1$
b11001 1
bx 8
bx "
bx ,
b100 2
1(
1%
#97000
0(
0%
#97500
00
0$
b10000010 8
b10000010 "
b10000010 ,
b1 2
1(
1%
#98000
0(
0%
#98500
b10 2
1(
1%
#99000
0(
0%
#99500
b10000111 /
b10000111 #
b10000111 5
b11001 .
b11001 !
b11001 3
b11 2
1(
1%
#100000
0(
0%
#100500
1-
1&
10
1$
b11010 1
bx 8
bx "
bx ,
b100 2
1(
1%
#101000
0(
0%
#101500
00
0$
b10000111 8
b10000111 "
b10000111 ,
b1 2
1(
1%
#102000
0(
0%
#102500
1(
1%
#103000
0(
0%
#103500
1(
1%
#104000
0(
0%
#104500
1(
1%
#105000
0(
0%
#105500
1(
1%
#106000
0(
0%
#106500
1(
1%
#107000
0(
0%
#107500
1(
1%
#108000
0(
0%
#108500
1(
1%
#109000
0(
0%
#109500
1(
1%
#110000
0(
0%
#110500
1(
1%
#111000
0(
0%
#111500
1(
1%
#112000
0(
0%
#112500
1(
1%
#113000
0(
0%
#113500
1(
1%
#114000
0(
0%
#114500
1(
1%
#115000
0(
0%
#115500
1(
1%
#116000
0(
0%
#116500
1(
1%
#117000
0(
0%
#117500
1(
1%
#118000
0(
0%
#118500
1(
1%
#119000
0(
0%
#119500
1(
1%
#120000
0(
0%
#120500
1(
1%
#120600
b11010 )
